<svg xmlns="http://www.w3.org/2000/svg" style="isolation:isolate" width="256" height="256">
 <path fill="#a52a2a" d="M53.039 21C16.724 21 13 23.055 13 59.371v52.167h230V79.563c0-36.316-3.724-42.102-40.039-42.102h-89.336L97.198 21H53.039z"/>
 <path fill="#4d4d4d" d="M53.039 70.384C16.722 70.384 13 74.114 13 110.429v84.524C13 231.269 16.722 235 53.039 235h149.922c36.317 0 40.039-3.731 40.039-40.047V93.969c0-36.316-3.722-40.047-40.039-40.047H119.53l-16.438 16.462H53.039z"/>
 <linearGradient id="a" x2="0" y1=".5" y2="-.5" gradientTransform="matrix(230 0 0 181.078 13 53.922)" gradientUnits="userSpaceOnUse">
  <stop offset="0%" stop-color="#ffffff" stop-opacity=".07"/>
  <stop offset="67.282%" stop-color="#fcefe8" stop-opacity="0"/>
 </linearGradient>
 <path fill="url(#a)" d="M53.039 70.384C16.722 70.384 13 74.114 13 110.429v84.524C13 231.269 16.722 235 53.039 235h149.922c36.317 0 40.039-3.731 40.039-40.047V93.969c0-36.316-3.722-40.047-40.039-40.047H119.53l-16.438 16.462H53.039z"/>
 <g opacity=".4">
  <radialGradient id="b" cx=".5" cy=".5" r=".272" fx=".5" fy=".136" gradientTransform="matrix(230 0 0 60.62 13 21)" gradientUnits="userSpaceOnUse">
   <stop offset="0%" stop-color="#ffffff"/>
   <stop offset="100%" stop-color="#ffffff" stop-opacity=".204"/>
  </radialGradient>
  <path fill="url(#b)" d="M53.039 21C16.724 21 13 23.055 13 59.371v2.059c0-36.316 3.724-38.373 40.039-38.373h44.159l16.427 16.461h89.336c36.315 0 40.039 5.786 40.039 42.102v-2.057c0-36.316-3.724-42.102-40.039-42.102h-89.336L97.198 21H53.039z"/>
 </g>
 <g opacity=".4">
  <radialGradient id="c" cx=".5" cy=".5" r=".272" fx=".482" fy=".211" gradientTransform="matrix(230 0 0 58.565 13 53.922)" gradientUnits="userSpaceOnUse">
   <stop offset="0%" stop-color="#ffffff"/>
   <stop offset="100%" stop-color="#ffffff" stop-opacity=".204"/>
  </radialGradient>
  <path fill="url(#c)" d="M119.53 53.922l-16.438 16.462H53.039C16.724 70.384 13 74.112 13 110.427v2.06c0-36.316 3.724-40.046 40.039-40.046h50.053l16.438-16.46h83.431c36.315 0 40.039 3.727 40.039 40.043v-2.057c0-36.316-3.724-40.045-40.039-40.045H119.53z"/>
 </g>
 <path fill="#ffffff" opacity=".1" d="M243 167.096l-65.715 65.845h25.676c36.315 0 40.039-3.727 40.039-40.043v-25.802z"/>
 <path opacity=".2" d="M13 192.898v2.057C13 231.271 16.724 235 53.039 235h149.922c36.315 0 40.039-3.729 40.039-40.045v-2.057c0 36.316-3.724 40.043-40.039 40.043H53.039c-36.315 0-40.039-3.727-40.039-40.043z"/>
 <g fill="#282c34">
  <path d="M128 92.001c-4.232 0-8.256.784-11.952 2.36-3.68 1.504-6.944 3.704-9.656 6.56l-.016.032-.016.016c-2.64 2.872-4.688 6.32-6.128 10.24a36.42 36.42 0 0 0-2.16 12.8c0 4.64.696 8.976 2.16 12.896 1.44 3.856 3.488 7.264 6.128 10.128l.016.016.016.016c2.704 2.847 5.944 5.087 9.608 6.655l.032.016.032.016C119.76 155.256 123.776 156 128 156s8.224-.744 11.92-2.248v-.016a27.766 27.766 0 0 0 9.52-6.671c2.72-2.864 4.8-6.288 6.24-10.16 1.48-3.92 2.176-8.248 2.176-12.904h.064c0-4.584-.696-8.872-2.16-12.784a29.536 29.536 0 0 0-6.24-10.264 26.661 26.661 0 0 0-9.568-6.592A30.252 30.252 0 0 0 128 92.001zm0 8c3.248 0 6.16.584 8.816 1.72l.08.032.08.016c2.64 1.08 4.856 2.608 6.696 4.608v.08c1.92 2.024 3.448 4.512 4.552 7.52v.04c1.04 2.808 1.552 6.024 1.592 9.616v.368c0 3.856-.576 7.2-1.656 10.096v.016a21.677 21.677 0 0 1-4.56 7.448l-.08.032v.032c-1.872 2.024-4.112 3.6-6.784 4.752A23.113 23.113 0 0 1 128 148c-3.28 0-6.216-.575-8.88-1.655h-.024c-2.6-1.12-4.8-2.696-6.704-4.656l-.408-.56-.064-.048a22.392 22.392 0 0 1-4.192-6.968 28.755 28.755 0 0 1-1.656-10.112c0-3.768.568-7.088 1.656-10l.016-.016v-.032c1.104-3.008 2.6-5.472 4.44-7.488l.096-.08c1.92-2 4.16-3.544 6.8-4.624l.048-.032.064-.016c2.64-1.12 5.56-1.712 8.808-1.712zM184 212h-8c0-6.92-.56-10.4-1.88-14.664-1.32-4.264-3.28-7.232-6.512-9.68-6.48-4.88-16.88-7.464-39.376-7.464-22.504 0-33.32 2.576-39.8 7.464-3.24 2.44-5.2 5.408-6.528 9.68C80.576 201.608 80.016 205.08 80 212l-8-.016c.016-7.312.552-11.52 2.264-17.024 1.712-5.504 4.752-10.216 9.352-13.688 9.2-6.936 21.56-9.072 44.616-9.072 23.048 0 35.008 2.136 44.2 9.08 4.592 3.472 7.624 8.192 9.328 13.696C183.472 200.48 184 204.68 184 212z"/>
 </g>
</svg>
