<svg xmlns="http://www.w3.org/2000/svg" style="isolation:isolate" width="256" height="256">
 <path fill="#a52a2a" d="M53.039 21C16.724 21 13 23.055 13 59.371v52.167h230V79.563c0-36.316-3.724-42.102-40.039-42.102h-89.336L97.198 21H53.039z"/>
 <path fill="#4d4d4d" d="M53.039 70.384C16.722 70.384 13 74.114 13 110.429v84.524C13 231.269 16.722 235 53.039 235h149.922c36.317 0 40.039-3.731 40.039-40.047V93.969c0-36.316-3.722-40.047-40.039-40.047H119.53l-16.438 16.462H53.039z"/>
 <linearGradient id="a" x2="0" y1=".5" y2="-.5" gradientTransform="matrix(230 0 0 181.078 13 53.922)" gradientUnits="userSpaceOnUse">
  <stop offset="0%" stop-color="#ffffff" stop-opacity=".07"/>
  <stop offset="67.282%" stop-color="#fcefe8" stop-opacity="0"/>
 </linearGradient>
 <path fill="url(#a)" d="M53.039 70.384C16.722 70.384 13 74.114 13 110.429v84.524C13 231.269 16.722 235 53.039 235h149.922c36.317 0 40.039-3.731 40.039-40.047V93.969c0-36.316-3.722-40.047-40.039-40.047H119.53l-16.438 16.462H53.039z"/>
 <g opacity=".4">
  <radialGradient id="b" cx=".5" cy=".5" r=".272" fx=".5" fy=".136" gradientTransform="matrix(230 0 0 60.62 13 21)" gradientUnits="userSpaceOnUse">
   <stop offset="0%" stop-color="#ffffff"/>
   <stop offset="100%" stop-color="#ffffff" stop-opacity=".204"/>
  </radialGradient>
  <path fill="url(#b)" d="M53.039 21C16.724 21 13 23.055 13 59.371v2.059c0-36.316 3.724-38.373 40.039-38.373h44.159l16.427 16.461h89.336c36.315 0 40.039 5.786 40.039 42.102v-2.057c0-36.316-3.724-42.102-40.039-42.102h-89.336L97.198 21H53.039z"/>
 </g>
 <g opacity=".4">
  <radialGradient id="c" cx=".5" cy=".5" r=".272" fx=".482" fy=".211" gradientTransform="matrix(230 0 0 58.565 13 53.922)" gradientUnits="userSpaceOnUse">
   <stop offset="0%" stop-color="#ffffff"/>
   <stop offset="100%" stop-color="#ffffff" stop-opacity=".204"/>
  </radialGradient>
  <path fill="url(#c)" d="M119.53 53.922l-16.438 16.462H53.039C16.724 70.384 13 74.112 13 110.427v2.06c0-36.316 3.724-40.046 40.039-40.046h50.053l16.438-16.46h83.431c36.315 0 40.039 3.727 40.039 40.043v-2.057c0-36.316-3.724-40.045-40.039-40.045H119.53z"/>
 </g>
 <path fill="#ffffff" opacity=".1" d="M243 167.096l-65.715 65.845h25.676c36.315 0 40.039-3.727 40.039-40.043v-25.802z"/>
 <path opacity=".2" d="M13 192.898v2.057C13 231.271 16.724 235 53.039 235h149.922c36.315 0 40.039-3.729 40.039-40.045v-2.057c0 36.316-3.724 40.043-40.039 40.043H53.039c-36.315 0-40.039-3.727-40.039-40.043z"/>
 <g fill="#282c34">
  <path d="M90.5 92v30.19c-5.621.135-10.58.516-14.531 2.696-2.823 1.557-5.049 4.195-6.284 7.485C68.45 135.661 68 139.568 68 144.5V167c0 4.932.449 8.839 1.685 12.129 1.235 3.29 3.461 5.928 6.284 7.485 2.117 1.168 4.493 1.751 7.031 2.154v-7.691c-1.404-.266-2.604-.594-3.413-1.04-1.376-.759-2.154-1.595-2.886-3.545-.731-1.949-1.201-5.049-1.201-9.492v-22.5c0-4.443.469-7.543 1.201-9.492.732-1.949 1.51-2.786 2.886-3.545 2.745-1.514 8.974-1.853 18.413-1.963h60c9.439.11 15.654.448 18.398 1.963 1.376.759 2.169 1.595 2.901 3.545.732 1.949 1.201 5.049 1.201 9.492V167c0 4.443-.469 7.543-1.201 9.492-.732 1.949-1.525 2.786-2.901 3.545-.806.445-2.001.774-3.398 1.04v7.691c2.538-.403 4.914-.986 7.031-2.154 2.823-1.557 5.049-4.195 6.284-7.485 1.236-3.29 1.685-7.197 1.685-12.129v-22.5c0-4.932-.449-8.839-1.685-12.129-1.235-3.29-3.461-5.928-6.284-7.485-3.951-2.18-8.91-2.561-14.531-2.696V92h-75zm7.5 7.5h60V122H98V99.5zm71.25 37.5a3.75 3.75 0 1 0 0 7.5 3.75 3.75 0 0 0 0-7.5zM90.5 167v45h75v-45H158v37.5H98V167h-7.5zm15 7.5v7.5h45v-7.5h-45zm0 15v7.5h45v-7.5h-45z"/>
 </g>
</svg>
