<svg xmlns="http://www.w3.org/2000/svg" style="isolation:isolate" width="256" height="256">
 <path fill="#a52a2a" d="M53.039 21C16.724 21 13 23.055 13 59.371v52.167h230V79.563c0-36.316-3.724-42.102-40.039-42.102h-89.336L97.198 21H53.039z"/>
 <path fill="#4d4d4d" d="M53.039 70.384C16.722 70.384 13 74.114 13 110.429v84.524C13 231.269 16.722 235 53.039 235h149.922c36.317 0 40.039-3.731 40.039-40.047V93.969c0-36.316-3.722-40.047-40.039-40.047H119.53l-16.438 16.462H53.039z"/>
 <linearGradient id="a" x2="0" y1=".5" y2="-.5" gradientTransform="matrix(230 0 0 181.078 13 53.922)" gradientUnits="userSpaceOnUse">
  <stop offset="0%" stop-color="#ffffff" stop-opacity=".07"/>
  <stop offset="67.282%" stop-color="#fcefe8" stop-opacity="0"/>
 </linearGradient>
 <path fill="url(#a)" d="M53.039 70.384C16.722 70.384 13 74.114 13 110.429v84.524C13 231.269 16.722 235 53.039 235h149.922c36.317 0 40.039-3.731 40.039-40.047V93.969c0-36.316-3.722-40.047-40.039-40.047H119.53l-16.438 16.462H53.039z"/>
 <g opacity=".4">
  <radialGradient id="b" cx=".5" cy=".5" r=".272" fx=".5" fy=".136" gradientTransform="matrix(230 0 0 60.62 13 21)" gradientUnits="userSpaceOnUse">
   <stop offset="0%" stop-color="#ffffff"/>
   <stop offset="100%" stop-color="#ffffff" stop-opacity=".204"/>
  </radialGradient>
  <path fill="url(#b)" d="M53.039 21C16.724 21 13 23.055 13 59.371v2.059c0-36.316 3.724-38.373 40.039-38.373h44.159l16.427 16.461h89.336c36.315 0 40.039 5.786 40.039 42.102v-2.057c0-36.316-3.724-42.102-40.039-42.102h-89.336L97.198 21H53.039z"/>
 </g>
 <g opacity=".4">
  <radialGradient id="c" cx=".5" cy=".5" r=".272" fx=".482" fy=".211" gradientTransform="matrix(230 0 0 58.565 13 53.922)" gradientUnits="userSpaceOnUse">
   <stop offset="0%" stop-color="#ffffff"/>
   <stop offset="100%" stop-color="#ffffff" stop-opacity=".204"/>
  </radialGradient>
  <path fill="url(#c)" d="M119.53 53.922l-16.438 16.462H53.039C16.724 70.384 13 74.112 13 110.427v2.06c0-36.316 3.724-40.046 40.039-40.046h50.053l16.438-16.46h83.431c36.315 0 40.039 3.727 40.039 40.043v-2.057c0-36.316-3.724-40.045-40.039-40.045H119.53z"/>
 </g>
 <path fill="#ffffff" opacity=".1" d="M243 167.096l-65.715 65.845h25.676c36.315 0 40.039-3.727 40.039-40.043v-25.802z"/>
 <path opacity=".2" d="M13 192.898v2.057C13 231.271 16.724 235 53.039 235h149.922c36.315 0 40.039-3.729 40.039-40.045v-2.057c0 36.316-3.724 40.043-40.039 40.043H53.039c-36.315 0-40.039-3.727-40.039-40.043z"/>
 <g fill="#282c34">
  <path d="M86.34 114.499c-3.903 0-7.056.358-9.785 1.436-2.729 1.078-4.966 3.078-6.24 5.508-2.549 4.858-2.23 10.519-2.315 18.237v24.64c.09 7.718-.233 13.379 2.315 18.237 1.273 2.43 3.511 4.43 6.24 5.508 2.729 1.078 5.882 1.436 9.785 1.436h23.335c3.903 0 7.056-.358 9.785-1.436 2.729-1.077 4.951-3.078 6.225-5.508 2.216-4.223 2.226-9.311 2.256-15.571l14.59-.03 4.219-3.706 3.75 3.75 3.75-3.75L158 167l3.75-3.75 7.5 7.5L188 152l-15-15-45.059.015c0-6.26-.075-11.348-2.256-15.571-1.273-2.43-3.511-4.43-6.24-5.508-2.729-1.079-5.868-1.437-9.771-1.437H86.34zm0 7.5h23.335c3.388 0 5.671.392 7.017.923 1.345.532 1.83 1.001 2.358 2.007 1.055 2.012 1.364 7.083 1.45 14.839v4.746l49.394-.015 7.5 7.5-8.144 8.145-7.5-7.5-3.75 3.75-3.75-3.75-3.75 3.75-3.413-3.414-7.383 6.475-19.204.044v4.732c-.082 7.756-.397 12.827-1.45 14.839-.525 1.005-1.012 1.475-2.358 2.006-1.347.532-3.629.923-7.017.923H86.34c-3.389 0-5.686-.391-7.032-.923-1.345-.531-1.816-1.001-2.343-2.006-1.052-2.006-1.377-7.077-1.465-14.795V139.722c.09-7.718.413-12.789 1.465-14.795.525-1.006.998-1.475 2.343-2.007 1.347-.532 3.643-.923 7.032-.923v.002zm4.16 22.5a7.5 7.5 0 1 0 0 15 7.5 7.5 0 0 0 0-15z"/>
 </g>
</svg>
