<svg xmlns="http://www.w3.org/2000/svg" viewBox="0 0 22 22">
 <g transform="translate(0,-1030.3622)">
  <path d="m 4 1030.36 c -1 0 -2 1 -2 2 l 0 8 c 0 1.108 0.446 2 1 2 l 16 0 c 0.554 0 1 -0.892 1 -2 l 0 -7 -3 -3 -13 0 z" style="fill:#e3e1cf;fill-opacity:1;stroke:none"/>
  <rect width="22" height="15" y="1037.36" rx="2" style="fill:#a52a2a;fill-opacity:1;stroke:none"/>
  <path d="m 2 1037.36 c -1.108 0 -2 0.892 -2 2 l 0 1 c 0 -1.108 0.892 -2 2 -2 l 18 0 c 1.108 0 2 0.892 2 2 l 0 -1 c 0 -1.108 -0.892 -2 -2 -2 l -18 0 z" style="fill:#fff;opacity:0.1;fill-opacity:1;stroke:none"/>
  <path d="m 17 1030.36 0 3 3 0 z" style="fill:#fff;fill-opacity:1;stroke:none"/>
  <path d="m 20 1036.36 0 -3 -3 0 z" style="fill:#000;opacity:0.2;fill-opacity:1;stroke:none"/>
  <rect rx="0.5" y="1032.36" x="5" height="1" width="9" style="fill:#a1a195;fill-opacity:1;stroke:none"/>
  <rect width="11" height="1" x="5" y="1034.36" rx="0.5" style="fill:#a1a195;fill-opacity:1;stroke:none"/>
  <g transform="matrix(1.0243802,0,0,1.0144486,-1.2925624,1028.9451)">
   <path d="m 20.95 13.17 a 4.881 4.831 0 1 1 -9.76 0 4.881 4.831 0 1 1 9.76 0 z" transform="translate(0.811,3.999)" style="fill:#859900;fill-rule:evenodd"/>
   <path d="m 19.55 14.07 a 0.5 0.5 0 0 0 -0.25 0.2 l -2.66 2.6 -1.66 -1.6 a 0.5 0.5 0 1 0 -0.68 0.6 l 2 2 a 0.5 0.5 0 0 0 0.68 0 l 3 -3 a 0.5 0.5 0 0 0 -0.43 -0.8 z" style="fill:#fff;color:#000"/>
  </g>
 </g>
</svg>
