/* XPM */
static char * title_4_active_xpm[] = {
"2 26 3 1",
" 	c None",
".	c #000309",
"+	c #eeecea",
"..",
"++",
"++",
"++",
"++",
"++",
"++",
"++",
"++",
"++",
"++",
"++",
"++",
"++",
"++",
"++",
"++",
"++",
"++",
"++",
"++",
"++",
"++",
"++",
"++",
"++"};
