/* XPM */
static char * top_right_active_xpm[] = {
"2 26 4 1",
" 	c None",
".	c #000309",
"+	c #000309",
"@	c #eeecea",
". ",
"+.",
"@.",
"@.",
"@.",
"@.",
"@.",
"@.",
"@.",
"@.",
"@.",
"@.",
"@.",
"@.",
"@.",
"@.",
"@.",
"@.",
"@.",
"@.",
"@.",
"@.",
"@.",
"@.",
"@.",
"@."};
