<svg xmlns="http://www.w3.org/2000/svg" style="enable-background:new" width="24" height="24" version="1.1">
 <g transform="translate(-305 421)">
  <g transform="translate(3.9092,-4)">
   <path fill="#cdd3e0" d="m306.09-407.91v5.818h2.909l4 4.091v-14l-4 4.091z"/>
   <path fill="#cdd3e0" opacity=".3" d="m315-412v1.5c2.32 0.74 4 2.93 4 5.5s-1.68 4.76-4 5.5v1.5c3.15-0.78 5.5-3.6 5.5-7s-2.35-6.22-5.5-7z"/>
   <path fill="#cdd3e0" opacity=".3" d="m316.79-405c0-1.3-0.72-2.42-1.79-3v6c1.06-0.58 1.79-1.7 1.79-3z"/>
  </g>
 </g>
</svg>
