<svg xmlns="http://www.w3.org/2000/svg" width="24" height="24" viewBox="0 0 24 24">
 <defs>
  <style id="current-color-scheme" type="text/css">
   .ColorScheme-Text { color:#cdd3e0; } .ColorScheme-Highlight { color:#5294e2; }
  </style>
 </defs>
 <path style="fill:currentColor" class="ColorScheme-Text" d="M 8 6 C 5.6242 6.0003 3.5766625 7.6722 3.1015625 10 L 0 10 L 0 12 L 3.1054688 12 C 3.5802688 14.326 5.6257 15.998 8 16 C 10.3758 15.999743 12.423338 14.3278 12.898438 12 L 16 12 L 16 10 L 12.894531 10 C 12.419531 7.6737 10.374 6.0021 8 6 z" transform="translate(4 4)"/>
</svg>
