<svg xmlns="http://www.w3.org/2000/svg" width="24" height="24" viewBox="0 0 24 24">
 <defs>
  <style id="current-color-scheme" type="text/css">
   .ColorScheme-Text { color:#cdd3e0; } .ColorScheme-Highlight { color:#5294e2; }
  </style>
 </defs>
 <path style="fill:currentColor" class="ColorScheme-Text" d="M 9 1 L 9 3 L 11 3 L 11 13 L 9 13 L 9 15 L 15 15 L 15 13 L 13 13 L 13 3 L 15 3 L 15 1 L 9 1 z M 6 4 L 6 7 L 3 7 L 3 5 L 1 5 L 1 11 L 3 11 L 3 9 L 6 9 L 6 12 L 10 8 L 6 4 z" transform="translate(4 4)"/>
</svg>
