<svg xmlns="http://www.w3.org/2000/svg" width="24" height="24" viewBox="0 0 24 24">
 <defs>
  <style id="current-color-scheme" type="text/css">
   .ColorScheme-Text { color:#cdd3e0; } .ColorScheme-Highlight { color:#5294e2; }
  </style>
 </defs>
 <path style="fill:currentColor" class="ColorScheme-Text" d="M 0 1.0097656 L 0 15.009766 L 4 15.009766 L 4 1.0097656 L 0 1.0097656 z M 10 1.0097656 L 10 5.0097656 L 15 5.0097656 L 15 1.0097656 L 10 1.0097656 z M 5 2.0097656 L 5 3.0097656 L 9 3.0097656 L 9 2.0097656 L 5 2.0097656 z M 12 6.0097656 L 12 10.009766 L 13 10.009766 L 13 6.0097656 L 12 6.0097656 z M 10 11.009766 L 10 15.009766 L 15 15.009766 L 15 11.009766 L 10 11.009766 z M 5 13.009766 L 5 14.009766 L 9 14.009766 L 9 13.009766 L 5 13.009766 z" transform="translate(4 4)"/>
</svg>
