<svg xmlns="http://www.w3.org/2000/svg" width="24" height="24" viewBox="0 0 24 24">
 <defs>
  <style id="current-color-scheme" type="text/css">
   .ColorScheme-Text { color:#cdd3e0; } .ColorScheme-Highlight { color:#5294e2; }
  </style>
 </defs>
 <path style="fill:currentColor" class="ColorScheme-Text" d="m2 1v4l3-2-3-2zm12 0l-3 2 3 2v-4zm-9 4v1 1h-1-1-2v6h2 1 1v2h2v-2-6-1-1h-2zm4 0v1 1 6 2h2v-2h1 1 2v-6h-2-1-1v-1-1h-2z" transform="translate(4 4)"/>
</svg>
