<svg xmlns="http://www.w3.org/2000/svg" width="24" height="24" viewBox="0 0 24 24">
 <defs>
  <style id="current-color-scheme" type="text/css">
   .ColorScheme-Text { color:#cdd3e0; } .ColorScheme-Highlight { color:#5294e2; }
  </style>
 </defs>
 <path style="fill:currentColor" class="ColorScheme-Text" d="M 2 1 L 2 15 L 9 15 L 9 13 A 5 5 0 0 1 4 8 A 5 5 0 0 1 9 3 L 9 1 L 2 1 z M 9 3 L 9 13 C 11.7614 13 14 10.7614 14 8 C 14 5.2386 11.7614 3 9 3 z" transform="translate(4 4)"/>
</svg>
