<svg xmlns="http://www.w3.org/2000/svg" width="24" height="24" viewBox="0 0 24 24">
 <defs>
  <style id="current-color-scheme" type="text/css">
   .ColorScheme-Text { color:#cdd3e0; } .ColorScheme-Highlight { color:#5294e2; }
  </style>
 </defs>
 <path style="fill:currentColor" class="ColorScheme-Text" d="m7 1v2h2v2h-2v2h2v2h-2v2h2v2h-2v2h8v-14h-8zm-6 1v7h1.7188l-0.7188-0.7188v-2.5624l0.2812 0.2812 1 1 1.7188 1.7188v0.2812h1v-7h-1v1.2812l-0.2812-0.2812-1-1h-1.4376l1 1 1.7188 1.7188v2.5624l-0.2812-0.2812-1-1-1.7188-1.7188v-2.2812h-1zm10 1h2v2h-2v-2zm0 4h2v2h-2v-2zm-6 3l-4 2 4 2v-4zm6 1h2v2h-2v-2z" transform="translate(4 4)"/>
</svg>
