<svg xmlns="http://www.w3.org/2000/svg" width="24" height="24" version="1.1">
 <defs>
  <style id="current-color-scheme" type="text/css">
   .ColorScheme-Text { color:#cdd3e0; } .ColorScheme-Highlight { color:#5294e2; }
  </style>
 </defs>
 <path style="fill:currentColor" class="ColorScheme-Text" d="M 5.6035156,5.0060798 C 5.4026226,5.048675 5,5.2328249 5,5.9142829 l 0,8.1777341 c 0,0 5.58e-4,0.908203 0.7148438,0.908203 l 8.5703122,0 c 0,0 0.714844,4.07e-4 0.714844,-0.908203 L 15,7.931861 C 15,7.0232505 14.285156,7.0002204 14.285156,7.0002204 l -3.285156,0 -2,-1.9941406 -3.2851562,0 c 0,0 -0.044364,-0.014175 -0.1113282,0 z M 16,11.00022 l 0,4.091797 c 0,0.90861 -0.714844,0.908203 -0.714844,0.908203 l -6.285156,0 0,2.091797 c 0,0 5.58e-4,0.908203 0.7148438,0.908203 l 8.5703122,0 c 0,0 0.714844,4.07e-4 0.714844,-0.908203 l 0,-6.160156 C 19,11.02325 18.285156,11.00022 18.285156,11.00022 l -2.285156,0 z"/>
</svg>
