<svg xmlns="http://www.w3.org/2000/svg" width="24" height="24" viewBox="0 0 24 24">
 <defs>
  <style id="current-color-scheme" type="text/css">
   .ColorScheme-Text { color:#cdd3e0; } .ColorScheme-Highlight { color:#5294e2; }
  </style>
 </defs>
 <path style="fill:currentColor" class="ColorScheme-Text" d="M 5 1.0039062 L 5 3.0039062 L 1 3.0039062 L 1 4.0039062 L 5 4.0039062 L 5 6.0039062 L 11 6.0039062 L 11 4.0039062 L 15 4.0039062 L 15 3.0039062 L 11 3.0039062 L 11 1.0039062 L 5 1.0039062 z M 6 7.0039062 L 8 10.003906 L 10 7.0039062 L 6 7.0039062 z M 1 10.003906 L 1 15.003906 L 6 15.003906 L 6 13.003906 L 7 13.003906 L 7 12.003906 L 6 12.003906 L 6 10.003906 L 1 10.003906 z M 10 10.003906 L 10 12.003906 L 9 12.003906 L 9 13.003906 L 10 13.003906 L 10 15.003906 L 15 15.003906 L 15 10.003906 L 10 10.003906 z" transform="translate(4 4)"/>
</svg>
