<svg xmlns="http://www.w3.org/2000/svg" width="24" height="24" viewBox="0 0 24 24">
 <defs>
  <style id="current-color-scheme" type="text/css">
   .ColorScheme-Text { color:#cdd3e0; } .ColorScheme-Highlight { color:#5294e2; }
  </style>
 </defs>
 <path style="fill:currentColor" class="ColorScheme-Text" d="M 1 1.0039062 L 1 6.0039062 L 6 6.0039062 L 6 4.0039062 L 7 4.0039062 L 7 3.0039062 L 6 3.0039062 L 6 1.0039062 L 1 1.0039062 z M 10 1.0039062 L 10 3.0039062 L 9 3.0039062 L 9 4.0039062 L 10 4.0039062 L 10 6.0039062 L 15 6.0039062 L 15 1.0039062 L 10 1.0039062 z M 6 7.0039062 L 8 10.003906 L 10 7.0039062 L 6 7.0039062 z M 1 10.003906 L 1 15.003906 L 6 15.003906 L 6 13.003906 L 10 13.003906 L 10 15.003906 L 15 15.003906 L 15 10.003906 L 10 10.003906 L 10 12.003906 L 6 12.003906 L 6 10.003906 L 1 10.003906 z" transform="translate(4 4)"/>
</svg>
