<svg xmlns="http://www.w3.org/2000/svg" width="24" height="24" viewBox="0 0 24 24">
 <defs>
  <style id="current-color-scheme" type="text/css">
   .ColorScheme-Text { color:#cdd3e0; } .ColorScheme-Highlight { color:#5294e2; }
  </style>
 </defs>
 <path style="fill:currentColor" class="ColorScheme-Text" d="M 7 2 L 7.0214844 10.460938 L 3.3867188 6.8261719 L 2 8.2109375 L 8 14.210938 L 14.041016 8.2109375 L 12.654297 6.8261719 L 9.0214844 10.460938 L 9 2 L 7 2 z" transform="translate(4 4)"/>
</svg>
