<svg xmlns="http://www.w3.org/2000/svg" width="24" height="24" version="1.1">
 <g transform="translate(-421.71 -523.79)">
  <g transform="translate(418.71 -501.57)">
   <path fill="#cdd3e0" d="m14 1029.4c-3.324 0-6 2.676-6 6v4l-1 4 4-2h3c0.81856 0 1.597-0.1647 2.3066-0.459-0.12899-0.3104-0.20444-0.6456-0.25195-0.9902-0.62767 0.2827-1.3193 0.4492-2.0547 0.4492h-5v-5c0-2.77 2.23-5 5-5s5 2.23 5 5c0 0.048-0.0065 0.093-0.0078 0.1406 0.32333-0.084 0.65752-0.1406 1.0078-0.1406 0-3.324-2.676-6-6-6zm6 7c-1.662 0-3 1.338-3 3 0 0.9781 0.47132 1.8339 1.1914 2.3809l1.809 3.6 1.8086-3.6191c0.72-0.6 1.191-1.5 1.191-2.4 0-1.662-1.338-3-3-3z"/>
   <path fill="#cdd3e0" d="m6 1042.3v0.022h0.017578c-0.00558-0.01-0.012038-0.014-0.017578-0.022z"/>
  </g>
 </g>
</svg>
