<svg xmlns="http://www.w3.org/2000/svg" width="24" height="24" viewBox="0 0 24 24">
 <defs>
  <style id="current-color-scheme" type="text/css">
   .ColorScheme-Text { color:#cdd3e0; } .ColorScheme-Highlight { color:#5294e2; }
  </style>
 </defs>
 <path style="fill:currentColor" class="ColorScheme-Text" d="M 8 0 C 6.8954 0 6 0.89543 6 2 C 6 3.10457 6.8954 4 8 4 C 9.1046 4 10 3.1046 10 2 C 10 0.8954 9.1046 0 8 0 z M 7 4.78125 L 6.96875 12.25 L 3.34375 8.59375 L 1.96875 10 L 8 16 L 14 10 L 12.625 8.59375 L 8.96875 12.25 L 9 4.78125 L 7 4.78125 z" transform="translate(4 4)"/>
</svg>
