<svg xmlns="http://www.w3.org/2000/svg" width="24" height="24" viewBox="0 0 24 24">
 <defs>
  <style id="current-color-scheme" type="text/css">
   .ColorScheme-Text { color:#cdd3e0; } .ColorScheme-Highlight { color:#5294e2; }
  </style>
 </defs>
 <path style="fill:currentColor" class="ColorScheme-Text" d="M 3 1 L 3 3.0019531 L 11 3.0039062 L 11 13.003906 L 3 13.003906 L 3 15 L 13 15.003906 L 13 1.0039062 L 3 1 z M 6 5.0039062 L 6 7.0039062 L 2 7.0039062 L 2 9.0039062 L 6 9.0039062 L 6 11.003906 L 10 8.0039062 L 6 5.0039062 z" transform="translate(4 4)"/>
</svg>
