<svg xmlns="http://www.w3.org/2000/svg" width="24" height="24" viewBox="0 0 24 24">
 <defs>
  <style id="current-color-scheme" type="text/css">
   .ColorScheme-Text { color:#cdd3e0; } .ColorScheme-Highlight { color:#5294e2; }
  </style>
 </defs>
 <path style="fill:currentColor" class="ColorScheme-Text" d="M 2 1.0039062 C 2 1.0039062 1 1.0039062 1 2.0039062 L 1 13.003906 C 1 13.003906 1 14.003906 2 14.003906 L 14 14.003906 C 14 14.003906 15 14.003906 15 13.003906 L 15 4.0039062 C 15 3.0039062 14 3.0039062 14 3.0039062 L 9 3.0039062 L 7 1.0039062 L 2 1.0039062 z" transform="translate(4 4)"/>
</svg>
