<svg xmlns="http://www.w3.org/2000/svg" width="24" height="24" viewBox="0 0 24 24">
 <defs>
  <style id="current-color-scheme" type="text/css">
   .ColorScheme-Text { color:#cdd3e0; } .ColorScheme-Highlight { color:#5294e2; }
  </style>
 </defs>
 <path style="fill:currentColor" class="ColorScheme-Text" d="M 6 3 L 6 4 L 3 4 L 3 14 L 7 14 L 7 4 L 9 4 L 9 14 L 13 14 L 13 4 L 10 4 L 10 3 L 6 3 z M 4 5 L 6 5 L 6 13 L 4 13 L 4 5 z M 10 5 L 12 5 L 12 13 L 10 13 L 10 5 z" transform="translate(4 4)"/>
</svg>
