<svg xmlns="http://www.w3.org/2000/svg" width="24" height="24" viewBox="0 0 24 24">
 <defs>
  <style id="current-color-scheme" type="text/css">
   .ColorScheme-Text { color:#cdd3e0; } .ColorScheme-Highlight { color:#5294e2; }
  </style>
 </defs>
 <path style="fill:currentColor" class="ColorScheme-Text" d="M 5 1 L 1 5 L 5 5 L 5 6 L 1 6 L 5 10 L 5 15 L 15 15 L 15 1 L 5 1 z" transform="translate(4 4)"/>
</svg>
