<svg xmlns="http://www.w3.org/2000/svg" width="24" height="24" version="1.1" viewBox="0 0 24 24">
 <defs>
  <style id="current-color-scheme" type="text/css">
   .ColorScheme-Text { color:#cdd3e0; } .ColorScheme-Highlight { color:#5294e2; }
  </style>
 </defs>
 <path style="fill:currentColor" class="ColorScheme-Text" d="m 10,4 0,6 4,0 0,-6 -4,0 z m 4,6 0,4 6,0 0,-4 -6,0 z m 0,4 -4,0 0,6 4,0 0,-6 z m -4,0 0,-4 -6,0 0,4 6,0 z"/>
</svg>
