<svg xmlns="http://www.w3.org/2000/svg" width="16" height="16" version="1.1">
 <defs>
  <style id="current-color-scheme" type="text/css">
   .ColorScheme-Text { color:#cf0a0a; } .ColorScheme-Highlight { color:#5294e2; }
  </style>
 </defs>
 <path style="fill:currentColor" class="ColorScheme-Text" d="M 8.5834,15 H 13.375 L 7.2095,8.4433 4.3146,10.448 Z"/>
 <path style="opacity:0.3;fill:currentColor" class="ColorScheme-Text" d="M 8.5834,1 H 13.375 L 6.7909,7.9996 4.3229,10.457 2,7.9996 Z"/>
</svg>
