<svg xmlns="http://www.w3.org/2000/svg" width="16" height="16" version="1.1">
 <defs>
  <style id="current-color-scheme" type="text/css">
   .ColorScheme-Text { color:#cf0a0a; } .ColorScheme-Highlight { color:#5294e2; }
  </style>
 </defs>
 <path style="fill:currentColor" class="ColorScheme-Text" d="M 6.3041094,1.0003416 C 6.0733634,1.0052816 5.8914699,1.0749556 5.8275469,1.0745606 4.3504598,1.279795 5.2934145,2.8284256 5.9193438,4.7483885 5.9727837,5.2398578 4.4569826,5.0345811 4.1205157,4.5198728 2.9857307,1.7734928 2.6830084,2.0802045 2.3666094,2.0003416 2.0635414,1.9385356 1.0111922,2.4674665 1.0345781,3.5784666 c 0.004,0.3191549 0.2059804,2.1230077 0.2089844,2.5898438 -1.33037301,2.2596372 -1.87256511,3.4964486 -0.2050781,5.8087436 1.1948705,1.565703 4.0672336,2.055165 5.9511719,2.021485 4.0093167,0.0016 4.9590727,-2.177086 7.2561667,-3.955078 C 16.00033,8.6085896 14.200883,7.8012676 13.777073,7.5491696 10.141981,5.1980899 8.0855509,5.6876564 8.0365309,5.3147947 8.0108209,4.8838258 8.0268759,3.6857361 7.9642659,3.2601072 7.7175419,1.2794362 6.8117454,0.98848479 6.3041094,1.0003416 Z m 6.5960106,0 C 12.155486,1.1160076 11.790015,5.333496 12.122776,5.9710447 13.265053,5.2530714 13.046179,2.068399 12.90012,1.0003416 Z m 2.9375,0.9785156 c -2.357948,3.0996933 -1.799057,2.5203743 -2.388672,5.0078125 0.224955,0.3077999 3.275786,-4.640378 2.388672,-5.0078125 z M 7.9994219,7.0003416 c 0.5522847,0 1,0.4477153 1,1 0,0.5522847 -0.4477153,1 -1,1 -0.5522848,0 -1,-0.4477153 -1,-1 0,-0.5522847 0.4477152,-1 1,-1 z"/>
</svg>
