<svg xmlns="http://www.w3.org/2000/svg" width="16" height="16" version="1">
 <defs>
  <style id="current-color-scheme" type="text/css">
   .ColorScheme-Text { color:#cf0a0a; } .ColorScheme-Highlight { color:#5294e2; }
  </style>
 </defs>
 <path style="fill:currentColor" class="ColorScheme-Text" d="M 7.092,2.0466 C 3.5363,2.0466 4.3634,5.2947 2.543,6.2731 2.4802,6.3087 2.445,6.3415 2.3887,6.3766 3.5892,5.6621 5.069,5.0646 6.6406,4.6599 7.972,4.3175 9.321,4.1254 10.566,4.1013 10.598,4.1011 10.63,4.1011 10.662,4.1013 9.462,3.7601 9.33,2.0466 7.092,2.0466 Z M 10.967,5.0016 C 9.722,5.0258 8.372,5.2179 7.041,5.5602 2.6546,6.689 -0.4716,9.144 0.0586,11.043 0.3641,12.128 1.8362,12.844 4.0293,12.974 4.0283,12.966 4.0263,12.959 4.0254,12.951 3.907,11.924 4.5585,11.031 5.3223,10.425 6.0861,9.82 7.069,9.38 8.172,9.146 9.275,8.912 10.308,8.923 11.172,9.183 11.984,9.428 12.748,9.961 12.936,10.877 15.134,9.644 16.274,8.158 15.943,6.9567 15.593,5.6985 13.685,4.9487 10.967,5.0016 Z M 9.662,10 A 1.8586,3.577 76.001 0 0 8.285,10.142 1.8586,3.577 76.001 0 0 5.0059,12.742 1.8586,3.577 76.001 0 0 8.715,13.857 1.8586,3.577 76.001 0 0 11.992,11.258 1.8586,3.577 76.001 0 0 9.662,10 Z"/>
</svg>
