<svg xmlns="http://www.w3.org/2000/svg" viewBox="0 0 22 22">
 <g transform="translate(0,-1030.3622)">
  <path d="m 2 1032.36 17 0 c 1 0 2 1 2 2 l 0 4 c 0 1.108 -0.446 2 -1 2 l -18 0 c -0.554 0 -1 -0.892 -1 -2 l 0 -6 z" style="fill:#a52a2a;fill-opacity:1;stroke:none"/>
  <path d="m 1 1034.36 0 5 20 0 0 -5 z" style="fill:#000;opacity:0.03;fill-opacity:1;stroke:none"/>
  <rect width="22" height="17" y="1035.36" rx="2" style="fill:#a52a2a;fill-opacity:1;stroke:none"/>
  <path d="m 1 1033.36 0 -1 c 0 -1 0 -2 1 -2 l 4 0 c 1 0 1 1 1 2 l 0 1 z" style="fill:#a52a2a;fill-opacity:1;stroke:none"/>
  <path d="m 7 1032.36 0 1 1 0 11 0 c 1 0 2 1 2 2 l 0 -1 c 0 -1 -1 -2 -2 -2 l -11 0 z" style="fill:#000;opacity:0.05;fill-opacity:1;stroke:none"/>
  <path d="m 2 1030.36 c -1 0 -1 1 -1 2 l 0 0.25 c 0.047 -0.703 0.25 -1.25 1 -1.25 l 4 0 c 0.75 0 0.953 0.547 1 1.25 l 0 -0.25 c 0 -1 0 -2 -1 -2 l -4 0 z" style="fill:#000;opacity:0.05;fill-opacity:1;stroke:none"/>
  <path d="m 2 1035.36 c -0.742 0 -1.373 0.403 -1.719 1 l 21.438 0 c -0.345 -0.597 -0.977 -1 -1.719 -1 l -18 0 z" style="fill:#fff;opacity:0.1;fill-opacity:1;stroke:none"/>
  <path d="m 6.959 1039.76 c -0.321 0.01 -0.625 0.04 -0.93 0.146 -0.096 0.652 0.062 1.329 0.237 1.953 0.445 1.433 1.27 2.794 2.481 3.706 0.044 0.042 0.107 0.052 0.091 0.128 -0.006 0.318 -0.001 0.649 0 0.968 0.013 0.557 0.348 1.089 0.839 1.351 0.583 0.307 1.164 0.592 1.751 0.894 0.27 0.143 0.645 -0.021 0.73 -0.31 0.052 -0.19 0.016 -0.39 0.018 -0.584 -0.002 -0.409 -0.052 -0.82 -0.036 -1.223 0.534 -0.066 1.071 -0.325 1.386 -0.767 0.281 -0.377 0.381 -0.864 0.347 -1.333 0.571 -0.102 1.16 -0.188 1.733 -0.292 0.339 -0.068 0.486 -0.509 0.274 -0.785 -0.417 -0.528 -0.835 -1.046 -1.259 -1.57 -0.342 -0.409 -0.877 -0.636 -1.405 -0.566 -0.358 0.058 -0.724 0.134 -1.076 0.201 -1.139 -1.085 -2.669 -1.687 -4.214 -1.862 -0.317 -0.029 -0.646 -0.06 -0.967 -0.055 z m 1.934 1.187 c 0.373 -0.034 0.748 0.07 1.058 0.329 0.621 0.518 0.718 1.441 0.201 2.063 -0.517 0.621 -1.44 0.718 -2.061 0.201 -0.621 -0.517 -0.718 -1.441 -0.201 -2.063 0.259 -0.311 0.63 -0.495 1 -0.529 z m 5.965 4.473 c -0.128 -0.012 -0.255 0.085 -0.274 0.219 -0.163 0.741 -0.689 1.384 -1.386 1.68 -0.182 0.058 -0.222 0.301 -0.073 0.42 0.306 0.255 0.66 0.55 0.967 0.803 0.15 0.127 0.344 -0.01 0.347 -0.201 -0.005 -0.156 -0.022 -0.321 -0.036 -0.475 0.381 0.082 0.754 0.19 1.131 0.274 0.178 0.037 0.346 -0.177 0.274 -0.347 -0.149 -0.358 -0.303 -0.703 -0.456 -1.059 0.154 -0.018 0.303 -0.031 0.456 -0.055 0.19 -0.038 0.264 -0.314 0.109 -0.438 -0.308 -0.259 -0.619 -0.51 -0.93 -0.767 -0.036 -0.029 -0.085 -0.051 -0.128 -0.055 z" style="fill:#e5e5e5;opacity:1;fill-opacity:1;stroke:none;fill-rule:nonzero"/>
 </g>
</svg>
