<svg xmlns="http://www.w3.org/2000/svg" viewBox="0 0 22 22">
 <g transform="translate(0,-1030.3622)">
  <path d="m 2 1032.36 17 0 c 1 0 2 1 2 2 l 0 4 c 0 1.108 -0.446 2 -1 2 l -18 0 c -0.554 0 -1 -0.892 -1 -2 l 0 -6 z" style="fill:#a52a2a;fill-opacity:1;stroke:none"/>
  <path d="m 1 1034.36 0 5 20 0 0 -5 z" style="fill:#000;opacity:0.03;fill-opacity:1;stroke:none"/>
  <rect width="22" height="17" y="1035.36" rx="2" style="fill:#a52a2a;fill-opacity:1;stroke:none"/>
  <path d="m 1 1033.36 0 -1 c 0 -1 0 -2 1 -2 l 4 0 c 1 0 1 1 1 2 l 0 1 z" style="fill:#a52a2a;fill-opacity:1;stroke:none"/>
  <path d="m 7 1032.36 0 1 1 0 11 0 c 1 0 2 1 2 2 l 0 -1 c 0 -1 -1 -2 -2 -2 l -11 0 z" style="fill:#000;opacity:0.05;fill-opacity:1;stroke:none"/>
  <path d="m 2 1030.36 c -1 0 -1 1 -1 2 l 0 0.25 c 0.047 -0.703 0.25 -1.25 1 -1.25 l 4 0 c 0.75 0 0.953 0.547 1 1.25 l 0 -0.25 c 0 -1 0 -2 -1 -2 l -4 0 z" style="fill:#000;opacity:0.05;fill-opacity:1;stroke:none"/>
  <path d="m 2 1035.36 c -0.742 0 -1.373 0.403 -1.719 1 l 21.438 0 c -0.345 -0.597 -0.977 -1 -1.719 -1 l -18 0 z" style="fill:#fff;opacity:0.1;fill-opacity:1;stroke:none"/>
  <path d="m 10.5 9 c -0.276 0 -0.5 0.224 -0.5 0.5 c 0 0.276 0.224 0.5 0.5 0.5 c 0.276 0 0.5 -0.224 0.5 -0.5 c 0 -0.276 -0.224 -0.5 -0.5 -0.5 z m 4.375 0 c -0.444 0.01 -0.868 0.286 -0.938 0.781 c -0.112 0.792 0.704 0.469 1.375 0.469 c 0.671 0 0.918 1.307 0.75 2 c -0.168 0.693 -1.966 2.325 -6 0.688 c -3.321 -1.348 -4.979 0.433 -5.063 0.469 c 0.314 2.678 2.891 5.594 6 5.594 c 3.321 0 6 -3.186 6 -6.125 c 0 -0.338 -0.057 -0.68 -0.125 -1 c -0.062 -0.162 -0.111 -0.322 -0.156 -0.469 c -0.081 -0.264 -0.171 -0.481 -0.25 -0.688 c -0.003 -0.01 0.003 -0.025 0 -0.031 c -0.318 -0.625 -0.762 -1.187 -1.313 -1.656 c -0.002 -0.01 -0.029 0.01 -0.031 0 c -0.086 -0.019 -0.161 -0.033 -0.25 -0.031 z m -1.875 2 c -0.552 0 -1 0.448 -1 1 c 0 0.552 0.448 1 1 1 c 0.552 0 1 -0.448 1 -1 c 0 -0.552 -0.448 -1 -1 -1 z" transform="translate(0,1030.3622)" style="fill:#e5e5e5;opacity:1;fill-opacity:1;color:#000"/>
 </g>
</svg>
