<svg version="1.1" viewBox="0 0 22 22" xmlns="http://www.w3.org/2000/svg">
 <g transform="translate(0,-1030.3622)">
  <path d="m2 1032.36h17c1 0 2 1 2 2v4c0 1.108-0.446 2-1 2h-18c-0.554 0-1-0.892-1-2v-6z" style="fill:#a52a2a"/>
  <path d="m1 1034.36v5h20v-5z" style="opacity:.03"/>
  <rect y="1035.36" width="22" height="17" rx="2" style="fill:#a52a2a"/>
  <path d="m1 1033.36v-1c0-1 0-2 1-2h4c1 0 1 1 1 2v1z" style="fill:#a52a2a"/>
  <path d="m7 1032.36v1h1 11c1 0 2 1 2 2v-1c0-1-1-2-2-2h-11z" style="opacity:.05"/>
  <path d="m2 1030.36c-1 0-1 1-1 2v0.25c0.047-0.703 0.25-1.25 1-1.25h4c0.75 0 0.953 0.547 1 1.25v-0.25c0-1 0-2-1-2h-4z" style="opacity:.05"/>
  <path d="m2 1035.36c-0.742 0-1.373 0.403-1.719 1h21.438c-0.345-0.597-0.977-1-1.719-1h-18z" style="fill:#fff;opacity:.1"/>
  <path d="m11.097504 1040.3634a4.0000852 3.9999996 0 0 0-2.9257808 1.1699 4.0000852 3.9999996 0 0 0-0.8671875 4.3594 4.0000852 3.9999996 0 0 0 3.6953123 2.4687h4v-1h-4a3.0000642 3 0 0 1-2.7714842-1.8516 3.0000642 3 0 0 1 0.6503906-3.2695 3.0000642 3 0 0 1 3.1210936-0.6973v-1.0507a4.0000852 3.9999996 0 0 0-0.902344-0.1289zm-0.09766 1.998a2.0000427 1.9999999 0 0 0-1.9999998 2 2.0000427 1.9999999 0 0 0 1.9999998 2h4v-1h-4a1.0000213 0.99999993 0 0 1-0.923828-0.6172 1.0000213 0.99999993 0 0 1 0.216797-1.0898 1.0000213 0.99999993 0 0 1 0.707031-0.2871v-0.01h1.732422a2.0000427 1.9999999 0 0 0-1.732422-1z" style="stop-color:#000000;stroke-width:3.77957"/>
 </g>
</svg>
