<svg xmlns="http://www.w3.org/2000/svg" width="16" height="16" viewBox="0 0 16 16">
 <defs>
  <style id="current-color-scheme" type="text/css">
   .ColorScheme-Text { color:#cdd3e0; } .ColorScheme-Highlight { color:#5294e2; }
  </style>
 </defs>
 <path style="fill:currentColor" class="ColorScheme-Text" d="M 1 1.0039062 L 1 8.0039062 L 15 8.0039062 L 15 1.0039062 L 1 1.0039062 z M 1 9.0039062 L 1 13.003906 L 4 13.003906 L 4 9.0039062 L 1 9.0039062 z M 6 9.0039062 L 6 15.003906 L 9 15.003906 L 9 9.0039062 L 6 9.0039062 z M 11 9.0039062 L 11 12.003906 L 15 12.003906 L 15 9.0039062 L 11 9.0039062 z"/>
</svg>
