<svg xmlns="http://www.w3.org/2000/svg" width="16" height="16" viewBox="0 0 16 16">
 <defs>
  <style id="current-color-scheme" type="text/css">
   .ColorScheme-Text { color:#cdd3e0; } .ColorScheme-Highlight { color:#5294e2; }
  </style>
 </defs>
 <path style="fill:currentColor" class="ColorScheme-Text" d="M 11.017578 0 C 10.671578 0.13322 10.329016 0.30432938 10.041016 0.53710938 C 8.6637156 1.6512094 8.6466531 3.4855656 10.001953 4.6347656 C 10.284953 4.8748656 10.62575 5.0532125 10.96875 5.1953125 C 10.99675 5.2066125 10.996094 7.25 10.996094 7.25 C 12.486094 8 13.346141 9 13.994141 10 L 13.994141 5.2519531 C 14.340141 5.1186531 14.661219 4.9299656 14.949219 4.6972656 C 16.326219 3.5830656 16.344281 1.7488094 14.988281 0.59960938 C 14.705281 0.35952938 14.364484 0.1811225 14.021484 0.0390625 L 14 2.2714844 C 13.995 2.7301844 13.548141 3 12.994141 3 L 11.996094 3 C 11.442094 2.993 10.992094 2.6911219 10.996094 2.2324219 L 11.017578 0 z M 7.9960938 8 C 3.9976937 8 2 11 2 14 L 0.25 14 C 0.0001 14 0 14.157 0 14.25 L 0 15.75 C 0 16 0.13824 16 0.25 16 L 15.744141 16 C 15.939141 16.006 15.994141 15.871 15.994141 15.75 L 15.994141 14.25 C 16.015141 14.104 15.994141 14 15.744141 14 L 13.994141 14 C 13.994141 11 11.994994 8 7.9960938 8 z M 7.9960938 11 C 10.345994 11 10.996094 12.762 10.996094 14 L 4.9980469 14 C 4.9980469 12.802 5.6997937 11 7.9960938 11 z"/>
</svg>
