<svg xmlns="http://www.w3.org/2000/svg" width="16" height="16" version="1.1" viewBox="0 0 16 16">
 <defs>
  <style id="current-color-scheme" type="text/css">
   .ColorScheme-Text { color:#cdd3e0; } .ColorScheme-Highlight { color:#5294e2; }
  </style>
 </defs>
 <path d="M 5.078125,1 5,11 H 15 M 1.7,14.3 5,11 v 0" style="fill:none;stroke:currentColor;stroke-width:2" class="ColorScheme-Text"/>
</svg>
