<svg xmlns="http://www.w3.org/2000/svg" width="16" height="16" viewBox="0 0 16 16">
 <defs>
  <style id="current-color-scheme" type="text/css">
   .ColorScheme-Text { color:#cdd3e0; } .ColorScheme-Highlight { color:#5294e2; }
  </style>
 </defs>
 <path style="fill:currentColor" class="ColorScheme-Text" d="m1 1v6h6v-6h-6zm8 0v6h6v-6h-6zm-8 8v6h6v-6h-6zm11 0c-2 0-2 1-2 1v2h-1v3h6v-3h-1v-2s0-1-2-1zm0 1c0.373 0 1 0.224 1 0.5v1.5h-2v-1.5c0-0.276 0.627-0.5 1-0.5z"/>
</svg>
