<svg xmlns="http://www.w3.org/2000/svg" width="16" height="16" viewBox="0 0 16 16">
 <defs>
  <style id="current-color-scheme" type="text/css">
   .ColorScheme-Text { color:#cdd3e0; } .ColorScheme-Highlight { color:#5294e2; }
  </style>
 </defs>
 <path style="fill:currentColor" class="ColorScheme-Text" d="m7.9941 2c-1.87 0-3.3939 1.5344-3.4492 3.4512-0.0459 0.0114-0.0915 0.0299-0.1347 0.0527-0.4301 0.227-0.5404 0.9362-0.2461 1.5918 0.2367 0.5274 0.6575 0.8539 1.039 0.8438 0.2872 1.7528 1.4305 3.0605 2.791 3.0605h0.0118c1.3606 0 2.5041-1.3077 2.7911-3.0605 0.381 0.01 0.802-0.3163 1.039-0.8438 0.294-0.6556 0.184-1.3648-0.246-1.5918-0.043-0.0228-0.089-0.0413-0.135-0.0527-0.055-1.9168-1.5791-3.4512-3.4491-3.4512h-0.0118zm4.0059 8v2h-2v2h2v2h2v-2h2v-2h-2v-2h-2zm-6.4941 1.012c-2.4691 0.258-4.2682 0.889-4.4844 1.636-0.003 0.008 0.002 0.017 0 0.024-0.007 0.027-0.0068 0.051-0.0098 0.078-0.001 0.012-0.0117 0.021-0.0117 0.033-0.00009 0.004 0 0.006 0 0.01v1.85c0 0.197 0.1557 0.357 0.3496 0.357h7.6504v-2.934c-0.3212 0.099-0.6753 0.161-1.0547 0.161-1.1698 0-2.1456-0.52-2.4394-1.215z"/>
</svg>
