<svg xmlns="http://www.w3.org/2000/svg" width="16" height="16" viewBox="0 0 16 16">
 <defs>
  <style id="current-color-scheme" type="text/css">
   .ColorScheme-Text { color:#cdd3e0; } .ColorScheme-Highlight { color:#5294e2; }
  </style>
 </defs>
 <path style="fill:currentColor" class="ColorScheme-Text" d="M 10.779297 2 L 4.7792969 8 L 10.779297 14.03125 L 12.185547 12.65625 L 8.5292969 9.03125 L 15.998047 9 L 15.998047 7 L 8.5292969 7.03125 L 12.185547 3.375 L 10.779297 2 z M 1.9980469 6 C 0.89347687 6 -0.001953125 6.89543 -0.001953125 8 C -0.001953125 9.10457 0.89347687 10 1.9980469 10 C 3.1026169 10 3.9980469 9.10457 3.9980469 8 C 3.9980469 6.89543 3.1026469 6 1.9980469 6 z"/>
</svg>
