<svg xmlns="http://www.w3.org/2000/svg" width="16" height="16" viewBox="0 0 16 16">
 <defs>
  <style id="current-color-scheme" type="text/css">
   .ColorScheme-Text { color:#cdd3e0; } .ColorScheme-Highlight { color:#5294e2; }
  </style>
 </defs>
 <path style="fill:currentColor" class="ColorScheme-Text" d="M 4 0 L 8 7 L 12 0 L 4 0 z M 8 7 L 4 7 L 4 9 L 8 9 L 12 9 L 12 7 L 8 7 z M 8 9 L 4 16 L 12 16 L 8 9 z"/>
</svg>
