<svg xmlns="http://www.w3.org/2000/svg" width="16" height="16" viewBox="0 0 16 16">
 <defs>
  <style id="current-color-scheme" type="text/css">
   .ColorScheme-Text { color:#cdd3e0; } .ColorScheme-Highlight { color:#5294e2; }
  </style>
 </defs>
 <path style="fill:currentColor" class="ColorScheme-Text" d="M 3.5 1 C 2.131 1 1 2.1312 1 3.5 L 1 3.5019531 C 1.001 4.2647531 1.4294 4.8839094 2 5.3496094 L 2 11 C 2 12.645 3.3548 14 5 14 C 4.9998 14.564 5.4655969 15.016 6.0292969 15 C 6.2353969 14.994 6.4346094 14.923781 6.5996094 14.800781 L 8.5996094 13.300781 C 9.1326094 12.900781 9.1326094 12.101172 8.5996094 11.701172 L 6.5996094 10.201172 C 5.9458094 9.7115719 5.0125 10.170328 5 10.986328 L 5 5.3496094 C 5.5709 4.8839094 5.9989 4.2649531 6 3.5019531 L 6 3.5 C 6 2.1312 4.869 1 3.5 1 z M 9.9707031 1 C 9.7646031 1.006 9.5653906 1.0756188 9.4003906 1.1992188 L 7.4003906 2.6992188 C 6.8673906 3.0993188 6.8673906 3.8988281 7.4003906 4.2988281 L 9.4003906 5.7988281 C 10.053991 6.2886281 10.988 5.8303719 11 5.0136719 L 11 10.650391 C 10.429 11.116391 10.001 11.735047 10 12.498047 L 10 12.5 C 10 13.869 11.131 15 12.5 15 C 13.869 15 15 13.869 15 12.5 L 15 12.498047 C 14.999 11.735047 14.571 11.116391 14 10.650391 L 14 5 C 14 3.355 12.645 2 11 2 C 11 1.4361 10.534003 0.9835 9.9707031 1 z"/>
</svg>
