<svg xmlns="http://www.w3.org/2000/svg" width="16" height="16" viewBox="0 0 16 16">
 <defs>
  <style id="current-color-scheme" type="text/css">
   .ColorScheme-Text { color:#cdd3e0; } .ColorScheme-Highlight { color:#5294e2; }
  </style>
 </defs>
 <path style="fill:currentColor" class="ColorScheme-Text" d="m2 1l0.0156 11.535 2.3223-2.279 0.4394-0.4318 0.2364 0.5798 1.8925 4.596 1.461-0.674-1.9824-4.5467-0.2461-0.5664 0.5937-0.0567 3.2676-0.3105-8-7.8457zm8.834 0l-0.834 0.834 1.666 1.666-1.666 1.666 0.834 0.834 1.666-1.666 1.666 1.666 0.834-0.834-1.666-1.666 1.666-1.666-0.834-0.834-1.666 1.666-1.666-1.666z"/>
</svg>
