<svg xmlns="http://www.w3.org/2000/svg" width="16" height="16" viewBox="0 0 16 16">
 <defs>
  <style id="current-color-scheme" type="text/css">
   .ColorScheme-Text { color:#cdd3e0; } .ColorScheme-Highlight { color:#5294e2; }
  </style>
 </defs>
 <path style="fill:currentColor" class="ColorScheme-Text" d="M 3.9980469 3 L 3.9980469 5 L 11.994141 5 L 11.994141 3 L 3.9980469 3 z M 5 9 L 5 12 L 0.58789062 12 C -0.078779375 12 -0.078779375 13 0.58789062 13 L 5 13 L 5 16 L 11 16 L 11 13 L 15.492188 13 C 16.158857 13 16.158857 12 15.492188 12 L 11 12 L 11 9 L 5 9 z"/>
</svg>
