<svg xmlns="http://www.w3.org/2000/svg" width="16" height="16" viewBox="0 0 16 16">
 <defs>
  <style id="current-color-scheme" type="text/css">
   .ColorScheme-Text { color:#cdd3e0; } .ColorScheme-Highlight { color:#5294e2; }
  </style>
 </defs>
 <path style="fill:currentColor" class="ColorScheme-Text" d="M 14 1 L 14 1.5 L 14 14 L 1.5 14 L 1 14 L 1 15 L 1.5 15 L 15 15 L 15 1.5 L 15 1 L 14 1 z M 6.5 6.5 L 6.5 9.5 L 9.5 9.5 L 9.5 6.5 L 6.5 6.5 z"/>
</svg>
