<svg xmlns="http://www.w3.org/2000/svg" width="16" height="16" viewBox="0 0 16 16">
 <defs>
  <style id="current-color-scheme" type="text/css">
   .ColorScheme-Text { color:#cdd3e0; } .ColorScheme-Highlight { color:#5294e2; }
  </style>
 </defs>
 <path style="fill:currentColor" class="ColorScheme-Text" d="M 4 1 C 2.892 1 2 1.892 2 3 L 2 7 L 1 7 L 1 9 L 6 9 L 6 13 L 5 13 L 5 15 L 15 15 L 15 13 L 14 13 L 14 9 C 14 7.892 13.108 7 12 7 L 10 7 L 10 3 C 10 1.892 9.108 1 8 1 L 4 1 z"/>
</svg>
