<svg xmlns="http://www.w3.org/2000/svg" width="16" height="16" viewBox="0 0 16 16">
 <defs>
  <style id="current-color-scheme" type="text/css">
   .ColorScheme-Text { color:#cdd3e0; } .ColorScheme-Highlight { color:#5294e2; }
  </style>
 </defs>
 <path style="fill:currentColor" class="ColorScheme-Text" d="M 1 1 L 1 15 L 15 15 L 15 1 L 1 1 z M 3 3 L 13 3 L 13 5.0039062 L 3 5.0039062 L 3 3 z M 3 7.0039062 L 13 7.0039062 L 13 9.0039062 L 3 9.0039062 L 3 7.0039062 z M 3 11.003906 L 13 11.003906 L 13 13 L 3 13 L 3 11.003906 z"/>
</svg>
