<svg xmlns="http://www.w3.org/2000/svg" width="16" height="16" version="1.1" viewBox="0 0 16 16">
 <defs>
  <style id="current-color-scheme" type="text/css">
   .ColorScheme-Text { color:#cdd3e0; } .ColorScheme-Highlight { color:#5294e2; }
  </style>
 </defs>
 <path style="fill:currentColor" class="ColorScheme-Text" d="M 7.9999998,-1.5e-7 A 8,8 0 0 0 -2.5e-7,8.0000001 8,8 0 0 0 7.9999998,16 8,8 0 0 0 16,8.0000001 8,8 0 0 0 7.9999998,-1.5e-7 Z m -1,3.00000025 0,2.9980469 0,0.00977 0,3.992188 c 0,1 -1,1 -1,1 0,0 -1,0 -1,-1 l 0,-3.9980474 -2,0 4,-3.0019531 z m 3.0000002,2 c 0,0 1,0 1,1 l 0,3.9980469 2,0 L 8.9999998,13 l 0,-2.998047 0,-0.00977 0,-3.9921875 c 0,-1 1.0000002,-1 1.0000002,-1 z"/>
</svg>
