<svg xmlns="http://www.w3.org/2000/svg" width="16" height="16" viewBox="0 0 16 16">
 <defs>
  <style id="current-color-scheme" type="text/css">
   .ColorScheme-Text { color:#cdd3e0; } .ColorScheme-Highlight { color:#5294e2; }
  </style>
 </defs>
 <path style="fill:currentColor" class="ColorScheme-Text" d="M 3 1 C 0.75 1 1 3 1 3 L 1 15 L 9.0039062 15 L 9.0039062 13 L 7.0644531 13 L 3 13 L 3 8.53125 L 3 3 L 13 3 L 13 3.1640625 L 6.9707031 10.0625 L 4.7207031 7.8125 C 4.3444031 7.4361 3.6596031 7.4362 3.2832031 7.8125 C 3.0950031 8.0007 3 8.26595 3 8.53125 C 3 8.79665 3.0950031 9.0618 3.2832031 9.25 L 6.2832031 12.25 L 7.0644531 13 L 7.7519531 12.1875 L 13 6.1894531 L 13 9 L 15 9 L 15 3 C 15 1 13 1 13 1 L 3 1 z M 10.859375 10 C 9.896075 10 10.003906 10.857422 10.003906 10.857422 L 10.003906 16 L 16 16 L 16 10.857422 C 16 10.000422 15.142578 10 15.142578 10 L 10.859375 10 z"/>
</svg>
