<svg xmlns="http://www.w3.org/2000/svg" width="16" height="16" viewBox="0 0 16 16">
 <defs>
  <style id="current-color-scheme" type="text/css">
   .ColorScheme-Text { color:#cdd3e0; } .ColorScheme-Highlight { color:#5294e2; }
  </style>
 </defs>
 <path style="fill:currentColor" class="ColorScheme-Text" d="M 6.0039062 2 A 6 6 0 0 0 0.00390625 8 A 6 6 0 0 0 6.0039062 14 A 6 6 0 0 0 8.0019531 13.648438 A 6 6 0 0 0 10.003906 14 A 6 6 0 0 0 16.003906 8 A 6 6 0 0 0 10.003906 2 A 6 6 0 0 0 8.0039062 2.3496094 A 6 6 0 0 0 6.0039062 2 z M 5.5097656 4.0351562 A 6 6 0 0 0 4.0039062 8 A 6 6 0 0 0 5.5078125 11.964844 A 4 4 0 0 1 2.0039062 8 A 4 4 0 0 1 5.5097656 4.0351562 z M 10.498047 4.0351562 A 4 4 0 0 1 14.003906 8 A 4 4 0 0 1 10.496094 11.964844 A 6 6 0 0 0 12.003906 8 A 6 6 0 0 0 10.498047 4.0351562 z M 8.0058594 4.5410156 A 4 4 0 0 1 10.003906 8 A 4 4 0 0 1 8.0019531 11.458984 A 4 4 0 0 1 6.0039062 8 A 4 4 0 0 1 8.0058594 4.5410156 z"/>
</svg>
