<svg xmlns="http://www.w3.org/2000/svg" viewBox="0 0 64 64">
 <defs>
  <radialGradient r="24" cy="40.5" cx="24" gradientTransform="matrix(1.6666667,0,0,0.2777777,-8,1030.4456)" gradientUnits="userSpaceOnUse" id="radialGradient3098">
   <stop style="stop-color:#000;stop-opacity:1"/>
   <stop offset="1" style="stop-color:#000;stop-opacity:0.196"/>
  </radialGradient>
 </defs>
 <g transform="translate(0,-988.3622)">
  <path d="m 32 1035.03 c -13.1 0 -24.704 1.044 -32 2.667 l 0 8 c 7.296 1.622 18.898 2.667 32 2.667 13.1 0 24.704 -1.044 32 -2.667 l 0 -8 c -7.296 -1.623 -18.898 -2.667 -32 -2.667 z" style="fill:url(#radialGradient3098);opacity:0.1;fill-opacity:1;stroke:none"/>
  <rect width="60" height="42" x="2" y="1002.36" rx="6.522" ry="6.562" style="fill:#3691ff;fill-opacity:1;stroke:none"/>
  <path d="m 8.522 1001.7 c -3.613 0 -6.522 2.973 -6.522 6.667 l 0 2.667 c 0 -3.693 2.909 -6.667 6.522 -6.667 l 46.957 0 c 3.613 0 6.522 2.973 6.522 6.667 l 0 -2.667 c 0 -3.693 -2.909 -6.667 -6.522 -6.667 l -46.957 0 z" style="fill:#fff;opacity:0.2;fill-opacity:1;stroke:none"/>
  <path d="m 8.522 1012.36 10.435 0 c 14.348 -1.333 11.739 -16 20.87 -16 l 15.652 0 c 3.613 0 6.522 2.973 6.522 6.667 l 0 34.667 c 0 3.693 -2.909 6.667 -6.522 6.667 l -46.957 0 c -3.613 0 -6.522 -2.973 -6.522 -6.667 l 0 -18.667 c 0 -4 2.609 -6.667 6.522 -6.667 z" style="fill:#3691ff;fill-opacity:1;stroke:none"/>
  <path d="m 2 1035.03 0 2.667 c 0 3.693 2.909 6.667 6.522 6.667 l 46.957 0 c 3.613 0 6.522 -2.973 6.522 -6.667 l 0 -2.667 c 0 3.693 -2.909 7.333 -6.522 7.333 l -46.957 0 c -3.613 0 -6.522 -3.64 -6.522 -7.333 z" style="fill:#000;opacity:0.15;fill-opacity:1;stroke:none"/>
  <g transform="matrix(1.3337941,0,0,1.2857117,7.3324118,1017.7908)" style="fill:#000;fill-opacity:0.098">
   <path d="m 2 8 0 6 c 0 1.108 0.892 2 2 2 l 2.498 0 0 -4.667 2.999 0 0 4.667 l 2.503 0 c 1.108 0 2 -0.892 2 -2 l 0 -6 z" style="fill:#000;fill-opacity:0.098"/>
   <path d="m 2 7 c -2.203 2 -3 2.778 0 2.778 l 11.996 0 c 3 0 2.292 -0.778 0.004 -2.778 l -5 -5 c -1 -1 -1 -1 -2 0 z" style="fill:#000;fill-opacity:0.098;stroke:none"/>
   <path d="m 13.246 2 c 0.548 0 0.754 0.446 0.754 1 l 0 4 -1.504 -0.333 0 -3.687 c 0 -0.554 0.246 -0.98 0.75 -0.98 z" style="fill:#000;fill-opacity:0.098;stroke:none"/>
  </g>
  <g transform="matrix(1.3337941,0,0,1.2857117,7.3324118,1015.7908)" style="fill:#e5e5e5;fill-opacity:1">
   <path d="m 2 8 0 6 c 0 1.108 0.892 2 2 2 l 2.498 0 0 -4.667 2.999 0 0 4.667 l 2.503 0 c 1.108 0 2 -0.892 2 -2 l 0 -6 z" style="fill:#e5e5e5"/>
   <path d="m 2 7 c -2.203 2 -3 2.778 0 2.778 l 11.996 0 c 3 0 2.292 -0.778 0.004 -2.778 l -5 -5 c -1 -1 -1 -1 -2 0 z" style="fill:#e5e5e5;stroke:none"/>
   <path d="m 13.246 2 c 0.548 0 0.754 0.446 0.754 1 l 0 4 -1.504 -0.333 0 -3.687 c 0 -0.554 0.246 -0.98 0.75 -0.98 z" style="fill:#e5e5e5;stroke:none"/>
  </g>
 </g>
</svg>
