<svg xmlns="http://www.w3.org/2000/svg" style="isolation:isolate" width="16" height="16" viewBox="0 0 16 16">
 <defs>
  <clipPath id="_clipPath_KEUimXsdhGHR4YxA85UnS2JJ9Z9Glvi1">
   <rect width="16" height="16"/>
  </clipPath>
 </defs>
 <g clip-path="url(#_clipPath_KEUimXsdhGHR4YxA85UnS2JJ9Z9Glvi1)">
  <rect style="fill:#000000" fill-opacity="0" width="16" height="16"/>
  <path fill="#cdd3e0" d="M 7.149 2.375 C 4.502 2.375 4.444 4.142 3.679 5.331 C 4.616 4.889 5.661 4.512 6.789 4.221 C 7.814 3.956 8.848 3.781 9.852 3.702 C 9.215 3.184 8.771 2.375 7.149 2.375 Z M 10.782 4.906 C 9.615 4.928 8.349 5.108 7.101 5.431 C 2.989 6.492 0.058 8.803 0.555 10.591 C 0.841 11.612 2.222 12.537 4.278 12.659 C 4.277 12.652 4.275 12.645 4.274 12.638 C 4.274 12.637 4.274 12.636 4.274 12.635 C 4.272 12.617 4.266 12.601 4.263 12.583 C 4.143 11.492 4.767 10.646 5.484 10.049 C 6.201 9.452 7.121 9.021 8.163 8.789 C 8.668 8.676 9.178 8.619 9.679 8.625 L 9.68 8.625 C 10.431 8.634 11.125 8.774 11.736 9.121 C 12.239 9.406 12.7 9.902 12.896 10.516 C 14.773 9.369 15.743 7.824 15.448 6.745 C 15.119 5.561 13.33 4.856 10.782 4.906 Z M 9.664 9.875 C 9.269 9.87 8.852 9.916 8.434 10.009 C 6.712 10.393 5.4 11.484 5.506 12.446 C 5.612 13.408 7.095 13.875 8.818 13.491 C 10.541 13.106 11.85 12.016 11.744 11.054 C 11.667 10.355 10.848 9.89 9.664 9.875 Z"/>
 </g>
</svg>
