<svg xmlns="http://www.w3.org/2000/svg" style="isolation:isolate" width="16" height="16" viewBox="0 0 16 16">
 <defs>
  <clipPath id="_clipPath_2YQ9J57PyKAEjQv4bQjZ3ojo49bEjDrZ">
   <rect width="16" height="16"/>
  </clipPath>
 </defs>
 <g clip-path="url(#_clipPath_2YQ9J57PyKAEjQv4bQjZ3ojo49bEjDrZ)">
  <rect style="fill:#000000" fill-opacity="0" width="16" height="16"/>
  <path fill="#cdd3e0" fill-rule="evenodd" d="M 8 0 L 8 1.231 L 9.231 1.231 L 9.231 0 L 8 0 L 8 0 Z M 8 1.231 L 6.769 1.231 L 6.769 2.462 L 8 2.462 L 8 1.231 L 8 1.231 Z M 8 2.462 L 8 3.692 L 9.231 3.692 L 9.231 2.462 L 8 2.462 L 8 2.462 Z M 8 3.692 L 6.769 3.692 L 6.769 4.923 L 8 4.923 L 8 3.692 L 8 3.692 Z M 8 4.923 L 8 6.154 C 8.679 6.154 9.231 5.538 9.231 4.923 L 8 4.923 L 8 4.923 Z M 8 7.385 C 8.679 7.385 9.231 7.877 9.231 8.615 C 9.231 9.231 8.679 9.846 8 9.846 C 7.321 9.846 6.769 9.231 6.769 8.615 C 6.769 7.877 7.321 7.385 8 7.385 L 8 7.385 Z M 8 11.077 C 8.679 11.077 9.231 11.569 9.231 12.308 L 9.231 13.538 C 9.231 14.154 8.679 14.769 8 14.769 C 7.321 14.769 6.769 14.154 6.769 13.538 L 6.769 12.308 C 6.769 11.569 7.321 11.077 8 11.077 L 8 11.077 Z M 8 6.154 L 8 6.154 C 6.64 6.154 5.538 7.262 5.538 8.615 L 5.538 13.538 C 5.538 14.892 6.64 16 8 16 C 9.36 16 10.462 14.892 10.462 13.538 L 10.462 8.615 C 10.462 7.262 9.36 6.154 8 6.154 L 8 6.154 Z"/>
 </g>
</svg>
