<svg xmlns="http://www.w3.org/2000/svg" width="24" height="24" version="1.1">
 <defs>
  <style id="current-color-scheme" type="text/css">
   .ColorScheme-Text { color:#cf0a0a; } .ColorScheme-Highlight { color:#5294e2; }
  </style>
 </defs>
 <path style="fill:currentColor" class="ColorScheme-Text" d="m 12,4 a 8,8 0 0 0 -8,8 8,8 0 0 0 8,8 8,8 0 0 0 8,-8 8,8 0 0 0 -8,-8 z m -2,2 1,0 0,2.0000001 c 0.30317,-0.011 0.701376,-5e-6 1,0 l 0,-2 1,0 0,2 1,0 C 14.566724,8 15.000203,9 15,9.75 14.999662,11 14.566724,11.443175 13.816406,11.5 14.999292,11.500955 16,12 16,13.5 c 0,2.133628 -1.107813,2.361524 -3.015625,2.5 l 0.03125,2 -1,0 -0.03125,-2 L 11,16 l 0,1.982422 -1,0.01758 0,-2 c -0.265759,0 -0.597945,-0.01 -0.873047,0 l -1.126953,0 0,-1 c 0,0 0.690631,0.013 0.675781,0 0.321569,-0.01 0.306584,-0.359224 0.324219,-0.5 L 9,9.54883 C 8.95236,9.326069 8.805832,8.993002 8.345703,9.000002 8.359423,8.9850071 8,9.000002 8,9.000002 l 0,-1 1.066406,0 c 0.235504,0 0.687747,0.01 0.933594,0 l 0,-2 z m 1,3 0,2 c 1.269373,0 2.000138,6.6e-5 2,-1 1.38e-4,-0.9999851 -0.589815,-1 -2,-1 z m 0,3 0,3 c 2,0 3.000208,9.9e-5 3,-1.5 2.08e-4,-1.499977 -1,-1.499925 -3,-1.5 z"/>
</svg>
