<svg xmlns="http://www.w3.org/2000/svg" width="24" height="24" version="1.1">
 <defs>
  <style id="current-color-scheme" type="text/css">
   .ColorScheme-Text { color:#cf0a0a; } .ColorScheme-Highlight { color:#5294e2; }
  </style>
 </defs>
 <path style="fill:currentColor" class="ColorScheme-Text" d="m7.3532 3.9945a0.25823 0.25823 0 0 0 -0.2539 0.2617v1.5684c-0.6493 0.1087-1.1549 0.6144-1.2637 1.2636h-1.5684a0.25879 0.25879 0 1 0 0 0.51758h1.541v2.582h-1.541a0.25823 0.25823 0 1 0 0 0.51562h1.541v2.582h-1.541a0.25823 0.25823 0 1 0 0 0.51562h1.541v2.582h-1.541a0.25879 0.25879 0 1 0 0 0.51758h1.5684c0.10876 0.64926 0.61441 1.1549 1.2637 1.2637v1.5684a0.25879 0.25879 0 1 0 0.51758 0v-1.541h2.582v1.541a0.25823 0.25823 0 1 0 0.51562 0v-1.541h2.582v1.541a0.25823 0.25823 0 1 0 0.51562 0v-1.541h2.582v1.541a0.25879 0.25879 0 0 0 0.51758 0v-1.5684c0.64926-0.10876 1.1549-0.61441 1.2637-1.2637h1.5684a0.25823 0.25823 0 0 0 0.26172 -0.26172 0.25823 0.25823 0 0 0 -0.26172 -0.25586h-1.541v-2.582h1.541a0.25823 0.25823 0 0 0 0.26172 -0.26172 0.25823 0.25823 0 0 0 -0.26172 -0.25391h-1.541v-2.582h1.541a0.25823 0.25823 0 0 0 0.26172 -0.26172 0.25823 0.25823 0 0 0 -0.26172 -0.25391h-1.541v-2.582h1.541a0.25823 0.25823 0 0 0 0.261 -0.2639 0.25823 0.25823 0 0 0 -0.262 -0.2539h-1.5684c-0.109-0.6492-0.615-1.1549-1.264-1.2636v-1.5684a0.25823 0.25823 0 0 0 -0.264 -0.2617 0.25823 0.25823 0 0 0 -0.254 0.2617v1.541h-2.582v-1.541a0.25823 0.25823 0 0 0 -0.262 -0.2617 0.25823 0.25823 0 0 0 -0.253 0.2617v1.541h-2.582v-1.541a0.25823 0.25823 0 0 0 -0.262 -0.2617 0.25823 0.25823 0 0 0 -0.254 0.2617v1.541h-2.582v-1.541a0.25823 0.25823 0 0 0 -0.2638 -0.2617zm0.15234 9h9c0.277 0 0.5 0.223 0.5 0.5s-0.223 0.5-0.5 0.5h-9c-0.277 0-0.5-0.223-0.5-0.5s0.223-0.5 0.5-0.5zm0 3h9c0.277 0 0.5 0.223 0.5 0.5s-0.223 0.5-0.5 0.5h-9c-0.277 0-0.5-0.223-0.5-0.5s0.223-0.5 0.5-0.5z"/>
</svg>
