<svg xmlns="http://www.w3.org/2000/svg" width="24" height="24" version="1.1">
 <defs>
  <style id="current-color-scheme" type="text/css">
   .ColorScheme-Text { color:#cf0a0a; } .ColorScheme-Highlight { color:#5294e2; }
  </style>
 </defs>
 <g transform="translate(-32 -840.36)">
  <path style="fill:currentColor" class="ColorScheme-Text" d="m44 844.36c0.55228 0 1 0.44772 1 1-0.00029 0.0333-0.002 0.0665-0.006 0.0996 2.2903 0.45883 4.006 2.4712 4.0059 4.9004l-0.00014 2v2.5l2 2v0.5h-14v-0.5l2-2v-4.5c0.00008-2.4292 1.7157-4.4416 4.0059-4.9004-0.004-0.0331-0.006-0.0663-0.006-0.0996 0-0.55228 0.44772-1 1-1zm1.7284 14c-0.35663 0.61771-1.0152 0.99874-1.7285 1-0.71397-0.00056-1.3735-0.38169-1.7305-1z"/>
 </g>
</svg>
