<svg xmlns="http://www.w3.org/2000/svg" width="24" height="24" version="1.1">
 <defs>
  <style type="text/css">
   .ColorScheme-Text { color:#cf0a0a; } .ColorScheme-Highlight { color:#5294e2; }
  </style>
 </defs>
 <rect style="fill:currentColor" class="ColorScheme-Text" width="3" height="4" x="15" y="16"/>
 <circle style="fill:currentColor" class="ColorScheme-Text" cx="16.5" cy="13.5" r="1.5"/>
 <path style="stroke:currentColor;stroke-width:2;fill:none" class="ColorScheme-Text" d="m8 15a10 10 0 0 1 10 -10"/>
 <path style="stroke:currentColor;stroke-width:2;fill:none" class="ColorScheme-Text" d="m12 15a6 6 0 0 1 6 -6"/>
</svg>
