<svg xmlns="http://www.w3.org/2000/svg" width="24" height="24" version="1.1">
 <defs>
  <style id="current-color-scheme" type="text/css">
   .ColorScheme-Text { color:#cf0a0a; } .ColorScheme-Highlight { color:#5294e2; }
  </style>
 </defs>
 <path d="m 12,4.9999999 c -3.0506,0 -5.9194,1.0732 -8,3 L 12,19 20,7.9999999 c -2.081,-1.9269 -4.949,-3 -8,-3 z m 0,3 c 1.11,0 2,0.9 2,2.0000001 0,1.11 -0.89,2 -2,2 v 1 h -1 v -2 h 1 c 0.56,0 1,-0.44 1,-1 0,-0.5499999 -0.44,-1.0000001 -1,-1.0000001 -0.55,0 -1,0.4500002 -1,1.0000001 H 10 C 10,8.8999999 10.9,7.9999999 12,7.9999999 Z M 11,14 h 1 v 1 h -1 z" style="fill:currentColor" class="ColorScheme-Text"/>
</svg>
