<svg xmlns="http://www.w3.org/2000/svg" width="24" height="24" version="1.1">
 <defs>
  <style type="text/css">
   .ColorScheme-Text { color:#cf0a0a; } .ColorScheme-Highlight { color:#5294e2; }
  </style>
 </defs>
 <path style="stroke-linejoin:round;stroke:currentColor;fill:none" class="ColorScheme-Text" d="m19 20.5-1.5-0c-1-0-1-0-1-1l-0-2c-0-1 0-1 1-1h1.5"/>
</svg>
