<svg xmlns="http://www.w3.org/2000/svg" width="24" height="24" version="1.1">
 <defs>
  <style id="current-color-scheme" type="text/css">
   .ColorScheme-Text { color:#cf0a0a; } .ColorScheme-Highlight { color:#5294e2; }
  </style>
 </defs>
 <path style="fill:currentColor" class="ColorScheme-Text" d="m 14.972853,4.0004188 c -0.08669,-0.00541 -0.224954,0.052592 -0.478515,0.1660156 -0.300984,0.1346429 -0.984079,0.2441407 -1.519532,0.2441406 -1.894939,0.039685 -3.4120549,0.7044527 -4.6406248,1.9589843 -1.66758,1.7143604 -2.192301,3.8724007 -1.431641,5.8749997 0.175588,0.46226 0.281926,0.932494 0.236328,1.044922 -0.04558,0.112423 -0.366205,0.422558 -0.710937,0.691407 -0.74902,0.58406 -1.26689,1.526779 -1.396484,2.539062 -0.07785,0.608054 -0.02388,0.897726 0.30664,1.621093 0.70984,1.553379 2.319357,2.218356 4.035156,1.667969 0.9934918,-0.318676 1.9873838,-1.450655 2.7832038,-3.167968 0.687326,-1.483288 0.717404,-1.519977 1.455078,-1.787109 1.243636,-0.450378 2.027721,-0.947362 2.806641,-1.781251 C 17.79908,11.594257 18.311517,9.6802002 17.816603,7.8500281 17.594214,7.0277091 17.405741,6.7445522 16.398635,5.6976844 15.760712,5.0345615 15.195189,4.3622316 15.140822,4.2054969 15.094992,4.0734508 15.059552,4.0058095 14.972853,4.0004188 Z m -3.136718,2 c 0.583947,0.0024 1.034985,0.1788654 1.158203,0.5292968 0.0404,0.1149159 -0.130658,0.6565893 -0.38086,1.203125 -0.643418,1.4055406 -0.847528,2.1787226 -1.236328,4.6582024 -0.482198,3.075068 -1.008865,4.402744 -2.0644528,5.201172 -0.665454,0.50331 -1.483417,0.545393 -1.919922,0.101562 -0.377644,-0.383984 -0.486213,-0.864898 -0.310547,-1.369139 0.139149,-0.399431 0.673188,-0.46395 1.687406,-0.613281 0.705615,-0.103876 1.2031249,-0.59278 1.2031249,-1.232422 0,-0.402502 -0.162872,-0.633313 -0.7109369,-1.212891 -0.847927,-0.896702 -1.619049,-1.757208 -1.622954,-2.84375 -0.0062,-1.699446 0.826812,-3.1447548 2.2480469,-3.9042972 0.6497829,-0.3472521 1.3652679,-0.5199739 1.9492199,-0.517578 z m 2.33789,1.001953 c 0.204073,-0.026668 0.463475,0.1829108 0.830078,0.6191407 1.448466,1.7234697 1.300085,4.3315805 -0.332031,5.8300785 -0.695725,0.638752 -0.859407,0.678105 -1.341797,0.333984 -0.279023,-0.199046 -0.332376,-0.379441 -0.330078,-1.107423 0.0033,-1.115268 0.382421,-3.8470416 0.677734,-4.8847645 0.143104,-0.5028478 0.292018,-0.7643278 0.496094,-0.7910157 z"/>
</svg>
