<svg xmlns="http://www.w3.org/2000/svg" width="24" height="24" version="1.1">
 <defs>
  <style id="current-color-scheme" type="text/css">
   .ColorScheme-Text { color:#cf0a0a; } .ColorScheme-Highlight { color:#5294e2; }
  </style>
 </defs>
 <path style="fill:currentColor" class="ColorScheme-Text" d="m 12,4 a 8,8 0 0 0 -8,8 8,8 0 0 0 0.9921875,3.857422 L 6.6660156,14.744141 A 6,6 0 0 1 6,12 6,6 0 0 1 12,6 6,6 0 0 1 16.59375,8.1503906 L 18.265625,7.0371094 A 8,8 0 0 0 12,4 Z M 9,7.5996094 V 9.541016 L 10.289063,10.400391 9,11.259766 v 1.939453 l 4.199219,-2.798828 z M 19.011719,8.1503906 17.337891,9.263672 A 6,6 0 0 1 18,12 6,6 0 0 1 12,18 6,6 0 0 1 7.4121094,15.857422 L 5.7402344,16.96875 A 8,8 0 0 0 12,20 8,8 0 0 0 20,12 8,8 0 0 0 19.011719,8.1503906 Z M 15,10.800781 10.800781,13.599609 15,16.400391 V 14.458984 L 13.710938,13.599609 15,12.740234 Z"/>
</svg>
