<svg xmlns="http://www.w3.org/2000/svg" width="24" height="24" version="1">
 <defs>
  <style type="text/css">
   .ColorScheme-Text { color:#cf0a0a; } .ColorScheme-Highlight { color:#5294e2; }
  </style>
 </defs>
 <path fill-rule="evenodd" style="fill:currentColor" class="ColorScheme-Text" d="m7.5 20c-0.831 0-1.5-0.669-1.5-1.5v-13c0-0.831 0.669-1.5 1.5-1.5h8c0.831 0 1.5 0.669 1.5 1.5v13c0 0.831-0.669 1.5-1.5 1.5h-8zm4-2c1.933 0 3.5-1.567 3.5-3.5s-1.567-3.5-3.5-3.5c-1.9334 0-3.5005 1.567-3.5 3.5-0.0005 1.933 1.5666 3.5 3.5 3.5zm0-2c-0.828 0-1.5-0.672-1.5-1.5s0.672-1.5 1.5-1.5 1.5 0.672 1.5 1.5-0.672 1.5-1.5 1.5zm-2.5-8c0.5524 0 1-0.4478 1-1s-0.4476-1-1-1-1.0002 0.4478-1 1c-0.0002 0.5522 0.4476 1 1 1zm5 0c0.55243 0 1.0002-0.44778 1-1 0.000202-0.55222-0.44757-1-1-1s-1.0002 0.44778-1 1c-0.000202 0.55222 0.44757 1 1 1z"/>
</svg>
