<svg xmlns="http://www.w3.org/2000/svg" width="24" height="24" version="1.1">
 <defs>
  <style id="current-color-scheme" type="text/css">
   .ColorScheme-Text { color:#cf0a0a; } .ColorScheme-Highlight { color:#5294e2; }
  </style>
 </defs>
 <g transform="translate(4,-4)">
  <rect style="opacity:0.3;fill:currentColor" class="ColorScheme-Text" width="14" height="2" x="2" y="21" rx="1" ry="1"/>
  <rect style="opacity:0.3;fill:currentColor" class="ColorScheme-Text" width="13" height="2" x="0" y="17" rx="1" ry="1"/>
  <rect style="opacity:0.3;fill:currentColor" class="ColorScheme-Text" width="12" height="2" x="4" y="13" rx="1" ry="1"/>
  <rect style="opacity:0.3;fill:currentColor" class="ColorScheme-Text" width="8" height="2" x="1" y="9" rx="1" ry="1"/>
 </g>
</svg>
