<svg xmlns="http://www.w3.org/2000/svg" width="22" height="22" version="1.1">
 <defs>
  <style id="current-color-scheme" type="text/css">
   .ColorScheme-Text { color:#cf0a0a; } .ColorScheme-Highlight { color:#5294e2; }
  </style>
 </defs>
 <g>
  <path style="fill:currentColor" class="ColorScheme-Text" d="m 11,3 c -4.4177135,0 -8,3.578744 -8,8 0,4.417713 3.5787438,8 8,8 4.417713,0 8,-3.578744 8,-8 0,-4.4177134 -3.578744,-8 -8,-8 z m -4,5 2,0 2,3 2,-3 2,0 0,6 -2,0 0,-2.5 -1,1.5 -2,0 -1,-1.5 0,2.5 -2,0 z"/>
 </g>
</svg>
