<svg xmlns="http://www.w3.org/2000/svg" width="22" height="22" version="1.1">
 <defs>
  <style id="current-color-scheme" type="text/css">
   .ColorScheme-Text { color:#cf0a0a; } .ColorScheme-Highlight { color:#5294e2; }
  </style>
 </defs>
 <path style="fill:currentColor" class="ColorScheme-Text" d="m10.998 4s-3.7785 0.0005531-6.2969 0.18945c-0.35178 0.044-1.1182 0.048016-1.8027 0.79102-0.53956 0.5664-0.71484 1.8516-0.71484 1.8516s-0.17709 1.511-0.17969 3.0215l-0.0039 2.2874c-0.0026 1.5106 0.17969 3.0215 0.17969 3.0215s0.17528 1.2851 0.71484 1.8516c0.68457 0.7435 1.5839 0.72093 1.9844 0.79883 1.4397 0.143 6.1191 0.187 6.1191 0.187s1.2112-0.01504 2.4082-0.03906c-0.26-0.604-0.406-1.265-0.406-1.961 0-2.7495 2.2504-5 5-5 0.71006 0 1.3847 0.15382 1.998 0.42383l0.002-1.5705c0.0026-1.5105-0.17969-3.0215-0.17969-3.0215s-0.17524-1.2852-0.71484-1.8516c-0.684-0.7434-1.452-0.7474-1.804-0.7909-2.518-0.1889-6.295-0.1895-6.295-0.1895h-0.0078zm-2.998 3 6 4.014-6 3.986v-8z"/>
 <path style="fill:currentColor" class="ColorScheme-Text" d="m21.864 14.965c-0.57174-2.1338-2.7651-3.4002-4.899-2.8284s-3.4001 2.7651-2.8284 4.899c0.57174 2.1338 2.7651 3.4002 4.899 2.8284s3.4001-2.7651 2.8284-4.899zm-0.96591 0.25882a3 3 0 0 1 -2.1213 3.6743l-0.25878-0.96599a2 2 0 0 0 1.4143 -2.4495l0.96586-0.25873zm-3.6742-2.1213 0.25878 0.96599a2 2 0 0 0 -1.4143 2.4495l-0.96586 0.25873a3 3 0 0 1 2.1213 -3.6743z"/>
</svg>
