<svg xmlns="http://www.w3.org/2000/svg" viewBox="0 0 32 32">
 <g transform="translate(0,-1020.3622)">
  <path d="m 28 1038.86 -23.5 0 c -1 0 -1.5 -0.5 -1.5 -1.5 l 0 -11 c 0 -0.617 0.411 -1 1 -1 l 24 0 c 0.526 0 1 0.446 1 1 l 0 12.499 z" style="fill:#a52a2a;fill-opacity:1;stroke:none"/>
  <rect width="30" height="15" x="1" y="1034.36" rx="2" style="fill:#a52a2a;fill-opacity:1;stroke:none"/>
  <path d="m 3 14 c -1.108 0 -2 0.892 -2 2 l 0 2 c 0 -1.108 0.892 -2 2 -2 l 26 0 c 1.108 0 2 0.892 2 2 l 0 -2 c 0 -1.108 -0.892 -2 -2 -2 l -26 0 z" transform="translate(0,1020.3622)" style="fill:#fff;opacity:0.1;fill-opacity:1;stroke:none"/>
  <path d="m 4 5 c -0.589 0 -1 0.383 -1 1 l 0 2 c 0 -0.617 0.411 -1 1 -1 l 24 0 c 0.526 0 1 0.446 1 1 l 0 -2 c 0 -0.554 -0.474 -1 -1 -1 l -24 0 z" transform="translate(0,1020.3622)" style="fill:#000;opacity:0.05;fill-opacity:1;stroke:none"/>
 </g>
</svg>
