<svg version="1.1" viewBox="0 0 32 32" xmlns="http://www.w3.org/2000/svg">
 <g transform="translate(0,-1020.3622)">
  <path d="m4 1025.36h23.5c1 0 1.5 0.5 1.5 1.5v3.499c0 0.554-0.474 0.5-1 0.5h-24c-0.526 0-1-0.446-1-1v-4.499z" style="fill:#a52a2a"/>
  <path d="m3 1028.36v2.5h26v-2.5z" style="opacity:.03"/>
  <path d="m3 1027.36v-2.5c0-1 0.455-1.5 0.909-1.5h5.182c0.455 0 0.909 0.5 0.909 1.5v2.5z" style="fill:#a52a2a"/>
  <rect x="1" y="1029.36" width="30" height="20" rx="2" ry="1.667" style="fill:#a52a2a"/>
  <path d="m3 1029.36c-1.108 0-2 0.748-2 1.672v1c0-0.923 0.892-1.672 2-1.672h26c1.108 0 2 0.748 2 1.672v-1c0-0.923-0.892-1.672-2-1.672h-26z" style="fill:#fff;opacity:.1"/>
  <path d="m10 1025.36v1h1 16.5c1 0 1.5 0.5 1.5 1.5v-1c0-1-0.5-1.5-1.5-1.5h-16.5z" style="opacity:.05"/>
  <path d="m3.906 1023.36c-0.455 0-0.906 0.5-0.906 1.5v1c0-1 0.452-1.5 0.906-1.5h5.188c0.455 0 0.906 0.5 0.906 1.5v-1c0-1-0.452-1.5-0.906-1.5h-5.188z" style="opacity:.05"/>
  <path d="m12.242242 1034.3623c-0.09165 0-0.183407 0.052-0.217631 0.1571l-1.221153 3.8428h2.986754l-1.330339-3.8428c-0.03424-0.1048-0.125983-0.1571-0.217631-0.1571zm1.54797 3.9999 2.209789 7 2.209791-7zm4.41958 0h2.986753l-1.221153-3.8428c-0.06844-0.2096-0.366782-0.2096-0.435262 0zm2.986753 0-5.196544 7 5.811303-4.2019c0.160349-0.1159 0.227528-0.3213 0.166292-0.5089zm-5.196544 7-5.196543-7-0.781052 2.2893c-0.061236 0.1875 0.0059 0.3929 0.166293 0.5088z" style="-inkscape-stroke:none;font-variation-settings:normal;stop-color:#000000"/>
 </g>
</svg>
