/* XPM */
static char * menu_inactive_xpm[] = {
"24 16 2 1",
" 	c None",
".	c #4d4d4d",
"........................",
"........................",
"........................",
"........................",
"........................",
"........................",
"........................",
"........................",
"........................",
"........................",
"........................",
"........................",
"........................",
"........................",
"........................",
"........................"};
