<svg xmlns="http://www.w3.org/2000/svg" style="isolation:isolate" width="16" height="16" viewBox="0 0 16 16">
  <defs>
   <style id="current-color-scheme" type="text/css">
   .ColorScheme-Text { color:#cdd3e0; } .ColorScheme-Highlight { color:#5294e2; }
  </style>
  <linearGradient id="arrongin" x1="0%" x2="0%" y1="0%" y2="100%">
   <stop offset="0%" style="stop-color:#dd9b44; stop-opacity:1"/>
   <stop offset="100%" style="stop-color:#ad6c16; stop-opacity:1"/>
  </linearGradient>
  <linearGradient id="aurora" x1="0%" x2="0%" y1="0%" y2="100%">
   <stop offset="0%" style="stop-color:#09D4DF; stop-opacity:1"/>
   <stop offset="100%" style="stop-color:#9269F4; stop-opacity:1"/>
  </linearGradient>
  <linearGradient id="fitdance" x1="0%" x2="0%" y1="0%" y2="100%">
   <stop offset="0%" style="stop-color:#1AD6AB; stop-opacity:1"/>
   <stop offset="100%" style="stop-color:#329DB6; stop-opacity:1"/>
  </linearGradient>
  <linearGradient id="oomox" x1="0%" x2="0%" y1="0%" y2="100%">
   <stop offset="0%" style="stop-color:#d3dae3; stop-opacity:1"/>
   <stop offset="100%" style="stop-color:#5294e2; stop-opacity:1"/>
  </linearGradient>
  <linearGradient id="rainblue" x1="0%" x2="0%" y1="0%" y2="100%">
   <stop offset="0%" style="stop-color:#00F260; stop-opacity:1"/>
   <stop offset="100%" style="stop-color:#0575E6; stop-opacity:1"/>
  </linearGradient>
  <linearGradient id="sunrise" x1="0%" x2="0%" y1="0%" y2="100%">
   <stop offset="0%" style="stop-color: #FF8501; stop-opacity:1"/>
   <stop offset="100%" style="stop-color: #FFCB01; stop-opacity:1"/>
  </linearGradient>
  <linearGradient id="telinkrin" x1="0%" x2="0%" y1="0%" y2="100%">
   <stop offset="0%" style="stop-color: #b2ced6; stop-opacity:1"/>
   <stop offset="100%" style="stop-color: #6da5b7; stop-opacity:1"/>
  </linearGradient>
  <linearGradient id="60spsycho" x1="0%" x2="0%" y1="0%" y2="100%">
   <stop offset="0%" style="stop-color: #df5940; stop-opacity:1"/>
   <stop offset="25%" style="stop-color: #d8d15f; stop-opacity:1"/>
   <stop offset="50%" style="stop-color: #e9882a; stop-opacity:1"/>
   <stop offset="100%" style="stop-color: #279362; stop-opacity:1"/>
  </linearGradient>
  <linearGradient id="90ssummer" x1="0%" x2="0%" y1="0%" y2="100%">
   <stop offset="0%" style="stop-color: #f618c7; stop-opacity:1"/>
   <stop offset="20%" style="stop-color: #94ffab; stop-opacity:1"/>
   <stop offset="50%" style="stop-color: #fbfd54; stop-opacity:1"/>
   <stop offset="100%" style="stop-color: #0f83ae; stop-opacity:1"/>
  </linearGradient>
 </defs>
  <path fill="url(#oomox)" class="ColorScheme-Text" fill-rule="evenodd" d="M 5.115509 6.447845 C 5.161992 6.373076 5.209476 6.298863 5.25745 6.224922 C 5.283428 6.184955 5.309564 6.145067 5.336784 6.105721 C 5.236747 6.112513 5.136802 6.120379 5.03693 6.129124 C 5.061863 6.235712 5.088478 6.341845 5.115509 6.447845 Z M 4.379098 7.709485 C 4.315298 7.829532 4.252218 7.949979 4.190309 8.071076 C 3.905737 8.625989 3.656738 9.198688 3.443311 9.782059 C 3.254783 10.283615 3.108939 10.7994 2.998669 11.322299 C 2.902624 11.763383 2.852825 12.211583 2.849267 12.659782 C 2.849267 12.663339 2.849267 12.666896 2.849267 12.670453 L 2.849267 12.738039 C 2.845712 13.129324 2.923969 13.517052 3.080481 13.876322 C 3.219209 14.200022 3.450424 14.477478 3.738551 14.680235 C 3.852379 14.769164 3.980436 14.836749 4.119164 14.879435 C 4.279237 14.929235 4.446423 14.954135 4.617164 14.950577 C 4.930194 14.94702 5.239663 14.875878 5.527793 14.751378 C 5.904848 14.584193 6.257004 14.36365 6.573589 14.096865 C 6.680304 14.004379 6.747891 13.872765 6.758562 13.734037 C 6.769233 13.591752 6.726546 13.453023 6.634062 13.342752 C 6.541576 13.236038 6.409961 13.168452 6.271233 13.157781 C 6.128947 13.147109 5.990219 13.193352 5.879948 13.285838 C 5.645176 13.485037 5.381949 13.648666 5.097377 13.773165 C 4.940865 13.844308 4.770121 13.87988 4.595822 13.886994 C 4.542464 13.886994 4.485552 13.876322 4.435752 13.862094 C 4.417965 13.85498 4.403736 13.844308 4.393065 13.830079 C 4.243666 13.741151 4.12628 13.609537 4.058694 13.453023 C 3.962652 13.228923 3.912853 12.987038 3.916408 12.741596 C 3.916408 12.738039 3.916408 12.738039 3.916408 12.734482 L 3.916408 12.666896 C 3.919966 12.28984 3.962652 11.912783 4.04091 11.546398 C 4.140509 11.073299 4.275679 10.607314 4.442865 10.152 C 4.577626 9.781408 4.728667 9.418955 4.894834 9.062927 C 4.955368 9.197524 5.016513 9.331892 5.079593 9.465474 C 5.460206 10.269386 5.904848 11.044842 6.409961 11.784726 C 6.84749 12.432125 7.338374 13.040395 7.882615 13.602423 C 8.120943 13.844308 8.373502 14.075522 8.636729 14.292507 C 8.871499 14.484593 9.1205 14.658892 9.383727 14.815406 C 9.614942 14.957692 9.86394 15.07152 10.120054 15.160449 C 10.36194 15.24582 10.610938 15.288505 10.867052 15.292063 C 11.148066 15.29562 11.425523 15.228034 11.674524 15.09642 C 11.838152 14.979035 11.97688 14.826078 12.080037 14.651778 C 12.176079 14.491707 12.250778 14.320964 12.300578 14.143108 C 12.410851 13.744708 12.464208 13.33208 12.453535 12.919453 C 12.44998 12.503268 12.417964 12.09064 12.353935 11.678012 C 12.286352 11.201356 12.190307 10.728257 12.072921 10.262272 C 11.795465 9.170231 11.432638 8.106647 10.984438 7.075078 C 10.927526 6.943464 10.824368 6.843864 10.692753 6.790507 C 10.561138 6.740707 10.411739 6.740707 10.283682 6.797621 C 10.15207 6.854536 10.052468 6.961249 9.999113 7.092864 C 9.949313 7.224477 9.949313 7.37032 10.006226 7.498377 C 10.429526 8.47659 10.778124 9.490374 11.037796 10.521943 C 11.148066 10.955914 11.233437 11.393441 11.301023 11.834526 C 11.354381 12.200911 11.382839 12.567296 11.386394 12.937238 C 11.39351 13.246709 11.357939 13.55618 11.276124 13.851422 C 11.247666 13.940351 11.212095 14.025722 11.165853 14.103979 C 11.148066 14.135993 11.126724 14.160893 11.101825 14.185793 C 11.03068 14.21425 10.955981 14.224922 10.881281 14.224922 C 10.742553 14.224922 10.603825 14.200022 10.468655 14.153779 C 10.283682 14.086193 10.10227 14.004379 9.931526 13.901222 C 9.714541 13.769608 9.508226 13.627323 9.312585 13.463694 C 9.077813 13.275166 8.857272 13.07241 8.6474 12.858981 C 8.1494 12.343197 7.694087 11.781169 7.292132 11.187127 C 6.819032 10.493486 6.402848 9.764272 6.043576 9.006603 C 5.859749 8.615605 5.693274 8.216828 5.545138 7.811249 C 5.734995 7.469956 5.939023 7.136725 6.153847 6.808292 C 6.321909 6.548685 6.496794 6.293276 6.681703 6.045193 C 6.767793 6.04335 6.853884 6.043134 6.939974 6.043508 C 6.939974 6.043508 6.939974 6.043508 6.939974 6.043508 L 6.968431 6.043508 C 7.327703 6.043508 7.69053 6.050623 8.049801 6.071965 C 8.992443 6.118208 9.931526 6.221365 10.863497 6.384993 C 11.631837 6.51305 12.385951 6.705136 13.122278 6.968364 C 13.406847 7.067963 13.687861 7.192463 13.958205 7.331192 C 14.168074 7.441463 14.363718 7.56952 14.54869 7.722476 C 14.669632 7.818519 14.776347 7.939462 14.854602 8.074633 C 14.904404 8.15289 14.929304 8.241819 14.932859 8.334304 L 14.929304 8.362761 C 14.922188 8.455247 14.897288 8.544175 14.851047 8.625989 C 14.78346 8.754046 14.69809 8.867875 14.594932 8.967474 C 14.456204 9.102646 14.306805 9.223588 14.139619 9.323188 C 13.940418 9.447688 13.72699 9.550845 13.506449 9.636216 C 13.374834 9.686016 13.268119 9.785616 13.211206 9.913672 C 13.154291 10.045287 13.147178 10.191129 13.200536 10.322743 C 13.250335 10.454357 13.349935 10.561072 13.477992 10.621543 C 13.609604 10.678457 13.755448 10.682014 13.887063 10.632214 C 14.168074 10.5255 14.441975 10.390329 14.69809 10.233815 C 14.929304 10.091529 15.146287 9.920787 15.34193 9.732259 C 15.523345 9.554402 15.676302 9.351645 15.793688 9.127545 C 15.911072 8.91056 15.978658 8.672232 15.996445 8.423233 C 15.996445 8.416118 15.996445 8.409004 15.996445 8.401889 L 16 8.35209 C 16 8.344975 16 8.337861 16 8.330747 C 15.992887 8.046176 15.918187 7.772277 15.772343 7.526834 C 15.626502 7.284949 15.44153 7.07152 15.220989 6.893664 C 14.982659 6.698021 14.722989 6.527279 14.449088 6.384993 C 14.136061 6.221365 13.812361 6.07908 13.48155 5.961694 C 12.688307 5.68068 11.870165 5.470809 11.041354 5.332081 C 10.070255 5.161339 9.088484 5.054625 8.106717 5.004825 C 7.906945 4.99549 7.707174 4.988114 7.507579 4.981438 C 7.537107 4.944791 7.56751 4.90894 7.598046 4.87321 C 8.049801 4.33964 8.544243 3.845198 9.074255 3.386327 C 9.483327 3.023499 9.935084 2.710472 10.418855 2.447243 C 10.596712 2.351201 10.78524 2.272944 10.980881 2.212472 C 11.119609 2.166229 11.26901 2.137773 11.414852 2.130658 L 11.482438 2.127102 C 11.485996 2.127102 11.493109 2.127102 11.496667 2.127102 C 11.606937 2.123544 11.717208 2.152002 11.813252 2.205358 C 11.898622 2.262272 11.969767 2.344086 12.016008 2.436572 C 12.076479 2.561072 12.108495 2.6998 12.104937 2.842086 C 12.104937 2.991485 12.083595 3.140885 12.040908 3.283171 C 11.983993 3.471699 11.905738 3.653112 11.809694 3.823855 C 11.742107 3.944797 11.724323 4.09064 11.759894 4.229369 C 11.799023 4.36454 11.887951 4.481926 12.012451 4.549511 C 12.133395 4.620654 12.279236 4.638439 12.417964 4.599311 C 12.553137 4.56374 12.67052 4.471255 12.738107 4.350312 C 12.876835 4.108427 12.98355 3.852312 13.061807 3.585527 C 13.132949 3.347198 13.16852 3.101756 13.172078 2.852757 C 13.175636 2.546843 13.108049 2.24093 12.972879 1.963473 C 12.841264 1.693131 12.634949 1.461916 12.378835 1.301845 C 12.101379 1.131103 11.781236 1.049289 11.457538 1.059961 L 11.386394 1.063518 C 11.379281 1.063518 11.375723 1.063518 11.36861 1.063518 C 11.126724 1.074189 10.884839 1.120432 10.650067 1.195131 C 10.39751 1.276945 10.148512 1.38366 9.91374 1.50816 C 9.362385 1.806959 8.843044 2.166229 8.369944 2.582415 C 7.804358 3.0733 7.274345 3.606871 6.787017 4.179568 C 6.561581 4.442578 6.34319 4.712044 6.136888 4.990161 C 5.695564 5.005373 5.255542 5.035236 4.817073 5.076616 C 4.785447 4.902653 4.758443 4.727861 4.73455 4.553069 C 4.67408 4.122654 4.638509 3.692241 4.627835 3.25827 L 4.627835 3.144442 C 4.62428 2.959472 4.638509 2.774501 4.659851 2.589529 C 4.677637 2.450801 4.70965 2.308515 4.755892 2.173344 C 4.78435 2.087973 4.827036 2.002601 4.880394 1.927902 C 4.912407 1.888773 4.951536 1.853202 4.997778 1.828302 C 5.058251 1.799845 5.125835 1.782059 5.193421 1.774945 L 5.228992 1.774945 C 5.300136 1.778501 5.371278 1.79273 5.438864 1.821188 C 5.559806 1.870988 5.670076 1.931458 5.776791 2.002601 C 6.057805 2.201801 6.317475 2.425901 6.552247 2.6749 C 6.648289 2.778057 6.783461 2.834971 6.92219 2.842086 C 7.064476 2.845642 7.203204 2.792286 7.306361 2.696243 C 7.409515 2.6002 7.466431 2.465029 7.473544 2.322744 C 7.477102 2.180458 7.423744 2.045287 7.327703 1.942131 C 7.043131 1.639773 6.726546 1.365874 6.385061 1.127546 C 6.217875 1.01016 6.036463 0.914119 5.847933 0.835861 C 5.65585 0.754047 5.449535 0.71136 5.236108 0.707804 C 5.228992 0.707804 5.218321 0.707804 5.20765 0.707804 L 5.143621 0.71136 C 5.140063 0.71136 5.136506 0.71136 5.129393 0.71136 C 4.915965 0.725589 4.706092 0.782503 4.514007 0.878546 C 4.321924 0.978146 4.154738 1.116875 4.026681 1.291174 C 3.902182 1.454802 3.806137 1.639773 3.742109 1.835415 C 3.674522 2.038174 3.628281 2.248045 3.599823 2.457914 C 3.571368 2.689129 3.557139 2.920343 3.560694 3.151556 C 3.560694 3.151556 3.560694 3.151556 3.560694 3.151556 L 3.560694 3.272499 C 3.560694 3.276057 3.560694 3.276057 3.560694 3.279613 C 3.571368 3.75627 3.610497 4.229369 3.67808 4.702468 C 3.701027 4.872273 3.726935 5.041708 3.756478 5.210665 C 3.250118 5.294811 2.750835 5.410093 2.258784 5.559738 C 1.970657 5.648666 1.686085 5.762494 1.415741 5.890551 C 1.170301 6.007937 0.942644 6.150222 0.729214 6.317408 C 0.530015 6.477479 0.359272 6.669564 0.227659 6.88655 C 0.096044 7.107092 0.017787 7.356092 0.003561 7.612205 C 0.003561 7.615763 0.003561 7.622877 0.003561 7.629991 L 0 7.665562 C 0 7.676234 0 7.686906 0.003561 7.697577 C 0.010671 7.964362 0.088931 8.224033 0.227659 8.448132 C 0.362829 8.672232 0.526457 8.874988 0.718543 9.049289 C 1.127614 9.429902 1.604269 9.725144 2.127169 9.920787 C 2.258784 9.970587 2.404625 9.96703 2.532682 9.906558 C 2.664297 9.849644 2.763896 9.74293 2.813696 9.611316 C 2.863496 9.479702 2.859941 9.330302 2.799467 9.202245 C 2.742554 9.074189 2.635839 8.974588 2.504227 8.921232 C 2.109385 8.775389 1.750113 8.551289 1.440641 8.263161 C 1.323258 8.156447 1.220101 8.031948 1.138285 7.893219 C 1.099157 7.829191 1.074257 7.754491 1.070699 7.676234 L 1.070699 7.669119 C 1.074257 7.587305 1.099157 7.505492 1.141843 7.437906 C 1.205872 7.327635 1.291242 7.235149 1.390842 7.156892 C 1.540241 7.03595 1.703871 6.93635 1.874612 6.854536 C 2.098714 6.747821 2.333483 6.655336 2.571811 6.580636 C 3.029683 6.442754 3.497068 6.333412 3.969481 6.254564 C 3.970676 6.26011 3.971998 6.265638 3.973323 6.271165 C 4.084941 6.756939 4.219487 7.237155 4.379098 7.709485 Z"/>
  <path fill="url(#oomox)" class="ColorScheme-Text" d="M 9.073201 7.998902 C 9.073074 8.380281 8.869493 8.732624 8.539145 8.923203 C 8.208796 9.113783 7.801869 9.113648 7.471648 8.922848 C 7.141427 8.732048 6.938081 8.37957 6.938208 7.99819 C 6.938404 7.408628 7.416498 6.930853 8.00606 6.931049 C 8.595622 6.931246 9.073398 7.40934 9.073201 7.998902 L 9.073201 7.998902 Z"/>
</svg>
