<svg xmlns="http://www.w3.org/2000/svg" width="16" height="16" version="1.1">
  <defs>
   <style id="current-color-scheme" type="text/css">
   .ColorScheme-Text { color:#cdd3e0; } .ColorScheme-Highlight { color:#5294e2; }
  </style>
  <linearGradient id="arrongin" x1="0%" x2="0%" y1="0%" y2="100%">
   <stop offset="0%" style="stop-color:#dd9b44; stop-opacity:1"/>
   <stop offset="100%" style="stop-color:#ad6c16; stop-opacity:1"/>
  </linearGradient>
  <linearGradient id="aurora" x1="0%" x2="0%" y1="0%" y2="100%">
   <stop offset="0%" style="stop-color:#09D4DF; stop-opacity:1"/>
   <stop offset="100%" style="stop-color:#9269F4; stop-opacity:1"/>
  </linearGradient>
  <linearGradient id="fitdance" x1="0%" x2="0%" y1="0%" y2="100%">
   <stop offset="0%" style="stop-color:#1AD6AB; stop-opacity:1"/>
   <stop offset="100%" style="stop-color:#329DB6; stop-opacity:1"/>
  </linearGradient>
  <linearGradient id="oomox" x1="0%" x2="0%" y1="0%" y2="100%">
   <stop offset="0%" style="stop-color:#d3dae3; stop-opacity:1"/>
   <stop offset="100%" style="stop-color:#5294e2; stop-opacity:1"/>
  </linearGradient>
  <linearGradient id="rainblue" x1="0%" x2="0%" y1="0%" y2="100%">
   <stop offset="0%" style="stop-color:#00F260; stop-opacity:1"/>
   <stop offset="100%" style="stop-color:#0575E6; stop-opacity:1"/>
  </linearGradient>
  <linearGradient id="sunrise" x1="0%" x2="0%" y1="0%" y2="100%">
   <stop offset="0%" style="stop-color: #FF8501; stop-opacity:1"/>
   <stop offset="100%" style="stop-color: #FFCB01; stop-opacity:1"/>
  </linearGradient>
  <linearGradient id="telinkrin" x1="0%" x2="0%" y1="0%" y2="100%">
   <stop offset="0%" style="stop-color: #b2ced6; stop-opacity:1"/>
   <stop offset="100%" style="stop-color: #6da5b7; stop-opacity:1"/>
  </linearGradient>
  <linearGradient id="60spsycho" x1="0%" x2="0%" y1="0%" y2="100%">
   <stop offset="0%" style="stop-color: #df5940; stop-opacity:1"/>
   <stop offset="25%" style="stop-color: #d8d15f; stop-opacity:1"/>
   <stop offset="50%" style="stop-color: #e9882a; stop-opacity:1"/>
   <stop offset="100%" style="stop-color: #279362; stop-opacity:1"/>
  </linearGradient>
  <linearGradient id="90ssummer" x1="0%" x2="0%" y1="0%" y2="100%">
   <stop offset="0%" style="stop-color: #f618c7; stop-opacity:1"/>
   <stop offset="20%" style="stop-color: #94ffab; stop-opacity:1"/>
   <stop offset="50%" style="stop-color: #fbfd54; stop-opacity:1"/>
   <stop offset="100%" style="stop-color: #0f83ae; stop-opacity:1"/>
  </linearGradient>
 </defs>
 <g transform="translate(-192,-180)">
  <path fill="url(#oomox)" class="ColorScheme-Text" d="m 206.24962,194.99159 c -0.14026,-0.0189 -0.25905,-0.0832 -0.35531,-0.18633 -0.2123,-0.22791 -0.56137,-0.89688 -0.84784,-1.62512 -0.16078,-0.40876 -0.46861,-1.30893 -0.46861,-1.37038 0,-0.0189 0.20307,-0.15345 0.45126,-0.29783 l 0.45126,-0.26268 0.0709,0.0665 c 0.28022,0.26306 1.08739,1.46865 1.55793,2.32702 0.18819,0.34318 0.20712,0.39228 0.20636,0.53386 -9.8e-4,0.1886 -0.0603,0.32013 -0.22805,0.50676 -0.20107,0.22375 -0.54763,0.35112 -0.83786,0.30841 z m -13.41216,-0.22413 c 0.008,-0.0227 0.14581,-0.64251 0.30523,-1.37654 0.15939,-0.73406 0.2933,-1.33912 0.29753,-1.3446 0.0144,-0.0189 1.45631,0.99311 1.45602,1.02145 -1.5e-4,0.0151 -0.41697,0.3738 -0.92625,0.79609 -1.14664,0.95104 -1.15135,0.95482 -1.13252,0.9036 z m 1.52711,-2.58977 c -0.40179,-0.27779 -0.72734,-0.51685 -0.72345,-0.53117 0.009,-0.034 3.46107,-5.87716 3.48955,-5.90683 0.0159,-0.0151 1.52399,0.93195 1.59468,1.00263 0.0151,0.0151 -3.57369,5.92739 -3.60216,5.93401 -0.0155,0.004 -0.35683,-0.22073 -0.75862,-0.49864 z m 9.47364,-1.54404 c -0.27546,-0.4644 -0.49672,-0.84722 -0.49171,-0.85078 0.049,-0.034 1.09277,-0.63462 1.10392,-0.63462 0.0174,0 0.89349,1.7452 0.88064,1.75416 -0.11301,0.079 -0.94929,0.57755 -0.96702,0.57675 -0.0136,-6.8e-4 -0.25039,-0.38112 -0.52583,-0.84551 z m -11.32734,-0.0877 c -0.009,-0.0813 -0.0136,-0.735 -0.009,-1.45304 l 0.008,-1.30552 1.44699,0.008 c 0.79585,0.004 1.45035,0.0113 1.45443,0.0151 0.004,0.004 -0.37889,0.65398 -0.85107,1.44443 l -0.8585,1.43724 h -0.58688 -0.58688 z m 4.34029,0.10583 c 0,-0.008 0.39304,-0.65859 0.87342,-1.447 l 0.87342,-1.43349 h 1.55012 1.55011 l 0.8287,1.3802 c 0.45578,0.75912 0.8449,1.41026 0.86471,1.447 l 0.0359,0.0669 h -3.28826 c -1.80854,0 -3.28825,-0.008 -3.28825,-0.0151 z m 8.45854,-0.61164 c -0.16695,-0.34394 -0.48109,-0.98869 -0.69814,-1.43297 l -0.39464,-0.8078 1.07254,-8e-5 c 0.58991,0 1.32858,-0.008 1.64151,-0.0189 l 0.56897,-0.0189 v 1.45145 1.45145 h -0.94337 -0.94337 l -0.3035,-0.62513 z m -2.39472,-0.9272 c -0.63533,-1.00097 -1.28243,-2.17693 -2.06021,-3.74396 -0.61701,-1.24309 -1.21078,-2.52824 -1.45583,-3.15092 -0.35505,-0.90221 -0.43979,-1.46298 -0.22907,-1.51585 0.33709,-0.0847 0.99683,0.68096 1.93592,2.2464 0.73569,1.22638 1.91284,3.36941 2.81109,5.11771 0.16675,0.32466 0.3329,0.64252 0.36922,0.70665 l 0.0661,0.11679 -0.55984,0.3258 c -0.30791,0.17915 -0.57008,0.32579 -0.58261,0.32579 -0.0125,0 -0.14517,-0.19275 -0.29472,-0.42845 z m -4.86347,-3.10152 -0.78049,-0.51458 0.0737,-0.11679 c 0.0405,-0.0642 0.24495,-0.39008 0.45427,-0.72419 0.20931,-0.33411 0.38385,-0.61145 0.38785,-0.61633 0.004,-0.004 0.35558,0.22035 0.78128,0.50071 l 0.774,0.50956 -0.11516,0.18784 c -0.0633,0.10318 -0.25394,0.41526 -0.4236,0.69339 -0.16962,0.27818 -0.32258,0.52585 -0.33989,0.55042 -0.0272,0.0385 -0.13852,-0.0265 -0.81195,-0.46991 z m 0.99613,-1.67062 c -0.40449,-0.26419 -0.73544,-0.49285 -0.73544,-0.5082 0,-0.11149 0.33442,-0.42153 0.49918,-0.46288 0.27118,-0.068 0.71593,0.10583 0.96365,0.37682 0.19147,0.20939 0.23338,0.31181 0.21551,0.52649 -0.0136,0.16176 -0.14544,0.54796 -0.18728,0.54796 -0.011,0 -0.35115,-0.21619 -0.75563,-0.48031 z"/>
 </g>
</svg>
