<svg xmlns="http://www.w3.org/2000/svg" style="isolation:isolate" width="16" height="16" viewBox="0 0 16 16">
 <defs>
  <clipPath id="_clipPath_3F9keaaYj1kVl917rerByjYsDs9w4BbV">
   <rect width="16" height="16"/>
  </clipPath>
 </defs>
 <g clip-path="url(#_clipPath_3F9keaaYj1kVl917rerByjYsDs9w4BbV)">
  <path fill="#cdd3e0" d="M 8 0 C 5.28 0 3.004 2.276 3.004 4.996 C 3.004 6.715 3.351 7.741 3.429 7.994 L 4.003 7.994 C 5.211 7.994 6.27 8.788 6.948 10.144 C 7.529 11.307 7.989 15.997 7.973 15.996 C 8.027 16.005 8.12 15.997 8.138 15.996 Q 8.451 11.347 9.052 10.144 C 9.73 8.788 10.789 7.994 11.997 7.994 L 12.571 7.994 C 12.649 7.741 12.996 6.715 12.996 4.996 C 12.996 2.276 10.72 0 8 0 Z"/>
 </g>
</svg>
