<svg xmlns="http://www.w3.org/2000/svg" style="isolation:isolate" width="16" height="16" viewBox="0 0 16 16">
 <defs>
  <clipPath id="_clipPath_5GocJQdCsxjpG2gmNIuHdF5aGyML2XSs">
   <rect width="16" height="16"/>
  </clipPath>
 </defs>
 <g clip-path="url(#_clipPath_5GocJQdCsxjpG2gmNIuHdF5aGyML2XSs)">
  <rect fill="#cdd3e0" width="4.625" height="3.594" x="18.19" y="-.16" transform="matrix(1,0,0,1,0,0)"/>
  <path fill="#cdd3e0" d="M 3.166 12.487 L 3.099 12.484 C 1.929 12.462 0.994 11.504 1 10.333 C 0.998 9.453 1.534 8.661 2.352 8.335 L 2.484 8.282 L 2.462 8.142 C 2.445 8.036 2.437 7.928 2.436 7.821 C 2.436 6.633 3.402 5.667 4.59 5.667 C 4.775 5.667 4.966 5.692 5.153 5.744 L 5.334 5.793 L 5.375 5.611 C 5.648 4.381 6.741 3.508 8 3.513 C 8.969 3.513 9.867 4.039 10.344 4.884 L 10.403 4.989 L 10.524 4.974 C 10.638 4.958 10.754 4.949 10.872 4.949 C 12.234 4.949 13.38 5.967 13.543 7.319 L 13.553 7.408 L 13.633 7.453 C 14.476 7.932 14.998 8.825 15 9.795 C 15 11.28 13.793 12.487 12.308 12.487 L 3.166 12.487 Z"/>
 </g>
</svg>
