<svg xmlns="http://www.w3.org/2000/svg" style="isolation:isolate" width="16" height="16" viewBox="0 0 16 16">
 <defs>
  <clipPath id="_clipPath_JWD1xZbwqT2XR0tvwTaXS4V8Fh9Vjy8P">
   <rect width="16" height="16"/>
  </clipPath>
 </defs>
 <g clip-path="url(#_clipPath_JWD1xZbwqT2XR0tvwTaXS4V8Fh9Vjy8P)">
  <path fill="#cdd3e0" d="M 1.024 4.018 C 3.353 2.687 5.682 1.358 8.012 0.033 C 10.341 1.359 12.673 2.682 14.999 4.014 C 14.996 6.674 14.995 9.334 15 11.995 C 12.675 13.328 10.34 14.642 8.011 15.967 C 5.676 14.631 3.328 13.315 1 11.967 C 1.929 11.442 2.856 10.917 3.787 10.395 C 5.195 11.2 6.606 12 8.011 12.81 C 9.412 11.994 10.832 11.209 12.228 10.385 C 12.216 9.32 12.227 8.256 12.222 7.191 C 10.82 7.998 9.415 8.803 8.011 9.607 C 5.68 8.292 3.356 6.963 1.025 5.646 C 1.025 5.103 1.026 4.56 1.024 4.018 Z M 5.162 4.816 C 6.107 5.367 7.062 5.903 8.011 6.449 C 8.965 5.906 9.919 5.362 10.875 4.82 C 9.919 4.28 8.966 3.733 8.011 3.192 C 7.061 3.732 6.114 4.28 5.162 4.816 L 5.162 4.816 Z"/>
  <rect fill="#cdd3e0" width="4.625" height="3.594" x="18.19" y="-.16" transform="matrix(1,0,0,1,0,0)"/>
 </g>
</svg>
