<svg xmlns="http://www.w3.org/2000/svg" style="isolation:isolate" width="16" height="16" viewBox="0 0 16 16">
 <defs>
  <clipPath id="_clipPath_0FIgMiEKNHkeb8B13jBonrVOcBXSpnON">
   <rect width="16" height="16"/>
  </clipPath>
 </defs>
 <g clip-path="url(#_clipPath_0FIgMiEKNHkeb8B13jBonrVOcBXSpnON)">
  <rect fill="#cdd3e0" width="4.625" height="3.594" x="18.19" y="-.16" transform="matrix(1,0,0,1,0,0)"/>
  <path fill="#cdd3e0" d="M 1.778 0 C 0.798 0 0 0.798 0 1.778 L 0 14.222 C 0 15.202 0.798 16 1.778 16 L 14.222 16 C 15.202 16 16 15.202 16 14.222 L 16 1.778 C 16 0.798 15.202 0 14.222 0 L 1.778 0 Z M 3.834 4.167 L 6.139 4.167 C 6.493 4.167 8.528 4.177 8.528 6.222 C 8.528 7.378 7.732 7.742 7.556 7.834 C 7.733 7.924 8.612 8.166 8.612 9.5 C 8.701 11.188 7.729 11.834 6.306 11.834 L 3.834 11.834 L 3.834 4.167 Z M 5.333 5.5 L 5.333 7.388 L 6.139 7.388 C 6.674 7.388 7.028 7.122 7.028 6.5 C 7.028 5.611 6.493 5.5 6.139 5.5 L 5.333 5.5 Z M 12.084 6.055 C 12.173 6.055 12.437 6.139 12.528 6.139 L 12.528 7.556 L 12 7.556 C 11.465 7.556 11.284 7.907 11.195 8.084 L 11.195 11.834 L 9.694 11.834 L 9.694 6.138 L 11.111 6.138 L 11.111 6.749 C 11.202 6.482 11.548 6.055 12.084 6.055 Z M 5.333 8.529 L 5.333 10.584 L 6.306 10.584 C 6.75 10.584 7.111 10.324 7.111 9.612 C 7.202 8.9 6.924 8.529 6.388 8.529 L 5.333 8.529 Z"/>
 </g>
</svg>
