<svg xmlns="http://www.w3.org/2000/svg" style="isolation:isolate" width="16" height="16" viewBox="0 0 16 16">
 <defs>
  <clipPath id="_clipPath_qctI0jnY9Ur0kjsXQKMfEJofig703D2v">
   <rect width="16" height="16"/>
  </clipPath>
 </defs>
 <g clip-path="url(#_clipPath_qctI0jnY9Ur0kjsXQKMfEJofig703D2v)">
  <path fill="#cdd3e0" d="M 8.808 1 L 8.538 1.269 L 8.538 1.538 L 8.808 1.673 L 8.538 2.615 L 9.077 3.154 L 9.434 3.154 L 9.885 3.423 L 9.615 4.231 L 8.538 5.846 L 6.886 6.649 C 6.786 6.485 6.603 6.385 6.406 6.385 C 6.097 6.384 5.846 6.626 5.846 6.923 C 5.846 7.22 6.097 7.462 6.406 7.462 C 6.715 7.462 6.965 7.22 6.965 6.923 L 8.808 6.115 L 9.615 5.308 L 9.615 6.923 L 8.99 7.462 L 5.523 10.423 L 4.338 13.923 L 3.692 13.923 L 2.615 13.385 L 2.615 13.923 L 3.692 15 L 4.5 15 L 6.115 10.692 L 8 9.615 L 6.923 12.308 L 10.262 13.923 L 9.077 14.731 L 9.077 15 L 11.231 15 L 11.231 14.462 L 10.962 13.654 L 7.731 12.039 L 11.231 8 L 11.231 5.308 L 11.769 5.846 L 12.537 8.098 C 12.393 8.199 12.308 8.363 12.308 8.538 C 12.308 8.836 12.549 9.077 12.846 9.077 C 13.144 9.077 13.385 8.836 13.385 8.538 C 13.385 8.241 13.144 8 12.846 8 L 12.308 5.577 L 11.231 4.231 L 10.692 3.247 L 10.154 2.615 L 10.154 1.538 L 9.669 1 L 8.808 1 Z"/>
  <rect fill="#cdd3e0" width="4.625" height="3.594" x="17.63" y="-.28" transform="matrix(1,0,0,1,0,0)"/>
 </g>
</svg>
