<svg xmlns="http://www.w3.org/2000/svg" style="isolation:isolate" width="16" height="16" viewBox="0 0 16 16">
 <defs>
  <clipPath id="_clipPath_u61B3aTwTZ6yVNWyQu2LqBMbDC9IHn6E">
   <rect width="16" height="16"/>
  </clipPath>
 </defs>
 <g clip-path="url(#_clipPath_u61B3aTwTZ6yVNWyQu2LqBMbDC9IHn6E)">
  <path fill="#cdd3e0" d="M 8.017 14.442 C 8.015 14.442 8.013 14.442 8.011 14.442 C 8.011 14.448 8.011 14.453 8.011 14.458 C 8.006 14.455 8.002 14.453 7.998 14.45 C 7.996 14.454 7.994 14.458 7.991 14.462 C 7.987 14.454 7.983 14.447 7.979 14.44 C 6.609 14.458 5.217 14.121 3.943 13.387 C 2.666 12.646 1.673 11.603 1.002 10.4 L 1 10.4 C 2.163 10.382 3.343 10.611 4.451 11.129 C 4.357 10.981 4.265 10.831 4.176 10.678 C 3.225 9.033 2.794 7.236 2.819 5.465 L 2.814 5.467 C 4.138 6.203 5.315 7.231 6.222 8.537 C 6.213 8.359 6.21 8.18 6.21 8 C 6.21 5.636 6.862 3.43 7.991 1.538 C 9.121 3.43 9.792 5.636 9.792 8 C 9.792 8.174 9.788 8.348 9.78 8.52 C 10.715 7.146 11.934 6.057 13.311 5.289 L 13.311 5.28 C 13.338 7.087 12.911 8.926 11.942 10.604 C 11.843 10.775 11.74 10.943 11.635 11.108 C 12.717 10.61 13.864 10.387 14.998 10.402 L 15 10.402 C 14.329 11.606 13.345 12.657 12.064 13.398 C 10.794 14.13 9.409 14.457 8.044 14.442 C 8.035 14.447 8.026 14.452 8.017 14.457 C 8.017 14.452 8.017 14.447 8.017 14.442 Z"/>
  <rect fill="#cdd3e0" width="4.625" height="3.594" x="17.63" y="-.28" transform="matrix(1,0,0,1,0,0)"/>
 </g>
</svg>
