<svg xmlns="http://www.w3.org/2000/svg" style="isolation:isolate" width="16" height="16" viewBox="0 0 16 16">
 <path fill="#cdd3e0" d="M 16 0 L 12.308 1.231 L 4.673 9.596 L 5.73 10.27 L 6.404 11.327 L 14.769 3.692 L 16 0 Z M 2.404 8.673 L 1.596 9.481 L 3.27 11.154 L 1.288 13.673 C 1.25 13.668 1.214 13.654 1.173 13.654 C 0.525 13.655 0.001 14.18 0 14.827 C 0 15.473 0.526 16 1.173 16 C 1.82 16 2.346 15.474 2.346 14.827 C 2.346 14.786 2.332 14.75 2.327 14.711 L 4.846 12.731 L 6.519 14.404 L 7.327 13.596 L 5.289 10.711 L 2.404 8.673 Z"/>
</svg>
