<svg xmlns="http://www.w3.org/2000/svg" style="isolation:isolate" width="16" height="16" viewBox="0 0 16 16">
 <defs>
  <clipPath id="_clipPath_tcA91S29heZOvSf4fhNhyTAJV3EGPxdL">
   <rect width="16" height="16"/>
  </clipPath>
 </defs>
 <g clip-path="url(#_clipPath_tcA91S29heZOvSf4fhNhyTAJV3EGPxdL)">
  <rect fill="#cdd3e0" width="4.625" height="3.594" x="17.63" y="-.28" transform="matrix(1,0,0,1,0,0)"/>
  <path fill="#cdd3e0" d="M 7.192 2.615 C 3.154 2.615 1 7.74 1 9.508 C 1 11.77 2.077 13.385 4.5 13.385 L 5.308 13.385 C 7.087 13.385 9.244 11.231 9.885 10.154 C 10.154 10.692 10.692 13.385 12.846 13.385 C 13.768 13.385 15 12.308 15 12.308 C 12.308 13.137 11.5 8.269 11.5 8.269 L 14.731 3.154 L 12.038 3.154 L 10.692 5.442 C 10.494 4.909 9.615 2.615 7.192 2.615 Z M 7.108 3.971 C 7.933 4.062 8.673 5.106 9.077 7.731 C 8.39 9.077 6.094 12.049 4.231 12.038 C 1.404 12.02 4.635 3.7 7.108 3.971 Z"/>
 </g>
</svg>
