<svg xmlns="http://www.w3.org/2000/svg" style="isolation:isolate" width="16" height="16" viewBox="0 0 16 16">
 <defs>
  <clipPath id="_clipPath_gdssg6uB5vuYvAgr9HzYjcmYlyI93XiF">
   <rect width="16" height="16"/>
  </clipPath>
 </defs>
 <g clip-path="url(#_clipPath_gdssg6uB5vuYvAgr9HzYjcmYlyI93XiF)">
  <rect fill="#cdd3e0" width="4.625" height="3.594" x="16.34" y=".34" transform="matrix(1,0,0,1,0,0)"/>
  <path fill="#cdd3e0" fill-rule="evenodd" d="M 3.411 8.003 L 2.435 7.009 L 4.631 5.272 L 2.435 3.535 L 3.411 2.541 L 6.706 5.27 L 3.411 7.998 M 10.625 8.394 L 10.625 7.226 L 7.115 7.226 L 7.115 8.394 M 0 -0.094 L 0 16 L 16.031 16 L 16.031 -0.094 L 0 -0.094 L 0 -0.094 Z M 14.53 9.281 L 14.53 1.41 L 1.5 1.41 L 1.5 1.41 L 1.5 9.281 L 14.53 9.281 Z"/>
 </g>
</svg>
