<svg xmlns="http://www.w3.org/2000/svg" style="isolation:isolate" width="16" height="16" viewBox="0 0 16 16">
 <path fill="#cdd3e0" fill-rule="evenodd" d="M 9.274 3.383 C 8.134 3.371 6.955 3.665 5.869 4.299 C 3.92 5.433 2.765 7.37 2.607 9.349 C 2.627 9.572 2.66 9.795 2.707 10.016 C 2.723 10.09 2.761 10.156 2.816 10.206 C 4.683 11.91 7.65 12.234 10.135 10.787 C 12.083 9.652 13.239 7.715 13.396 5.737 C 13.376 5.513 13.343 5.29 13.297 5.069 C 13.281 4.996 13.243 4.93 13.187 4.879 C 12.137 3.92 10.738 3.399 9.274 3.383 L 9.274 3.383 Z M 10.462 0.535 C 15.304 0.535 15.996 1.226 15.996 6.063 L 15.996 9.937 C 15.996 14.775 15.304 15.465 10.462 15.465 L 5.534 15.465 C 0.692 15.465 0 14.775 0 9.937 L 0 6.063 C 0 1.226 0.692 0.535 5.534 0.535 L 10.462 0.535 L 10.462 0.535 Z M 5.153 9.671 C 4.246 8.099 4.785 6.086 6.357 5.178 C 7.929 4.27 9.942 4.81 10.85 6.382 C 11.758 7.954 11.218 9.967 9.646 10.875 C 8.074 11.782 6.061 11.243 5.153 9.671 Z"/>
</svg>
