<svg xmlns="http://www.w3.org/2000/svg" style="isolation:isolate" width="16" height="16" viewBox="0 0 16 16">
 <path fill="#cdd3e0" d="M 14.666327 15.619868 C 14.51674 15.597837 14.389993 15.53135 14.287314 15.42123 C 14.060878 15.17829 13.688524 14.46456 13.382954 13.687774 C 13.211435 13.251762 12.883101 12.291604 12.883101 12.226041 C 12.883101 12.205396 13.099708 12.062325 13.36445 11.908133 L 13.845796 11.627797 L 13.921377 11.698728 C 14.220284 11.979284 15.081253 13.265279 15.58317 14.180858 C 15.783917 14.547061 15.804108 14.599294 15.803279 14.750296 C 15.802233 14.951375 15.738972 15.091818 15.560035 15.29084 C 15.345554 15.529392 14.975899 15.665479 14.666324 15.619857 L 14.666327 15.619868 Z M 0.360022 15.380865 C 0.369057 15.35625 0.515574 14.695522 0.68559 13.912544 C 0.855607 13.129577 0.99842 12.484181 1.002954 12.47833 C 1.018246 12.45862 2.55635 13.53763 2.556043 13.567854 C 2.555877 13.584287 2.111275 13.966438 1.568039 14.417023 C 0.344965 15.43147 0.339934 15.435485 0.360022 15.380865 Z M 1.988939 12.618443 C 1.560366 12.322093 1.21311 12.067131 1.217261 12.051854 C 1.227208 12.015338 4.909071 5.782901 4.939448 5.751225 C 4.9562 5.733748 6.565033 6.745324 6.640435 6.820721 C 6.656679 6.836977 2.828507 13.14327 2.798134 13.15032 C 2.781652 13.154181 2.417512 12.914804 1.988939 12.618443 Z M 12.094149 10.97147 C 11.800337 10.476119 11.56432 10.067758 11.56967 10.063985 C 11.621954 10.027074 12.735283 9.387046 12.747181 9.387046 C 12.765681 9.387046 13.700236 11.248616 13.68653 11.258163 C 13.565992 11.342259 12.673946 11.874213 12.655044 11.873333 C 12.640367 11.872618 12.387961 11.46682 12.094149 10.97147 L 12.094149 10.97147 Z M 0.01166 10.878057 C 0.001464 10.791563 -0.002882 10.094067 0.002012 9.328159 L 0.010951 7.935586 L 1.554416 7.94521 C 2.403321 7.950005 3.101447 7.957792 3.105806 7.962049 C 3.110132 7.965898 2.701651 8.659589 2.197996 9.502753 L 1.282258 11.03579 L 0.656254 11.03579 L 0.03025 11.03579 L 0.01166 10.878057 Z M 4.6413 10.991014 C 4.6413 10.983337 5.060542 10.288525 5.57295 9.44755 L 6.504602 7.918505 L 8.158057 7.918505 L 9.811511 7.918505 L 10.695454 9.39073 C 11.181623 10.200458 11.596687 10.895006 11.617818 10.934195 L 11.656242 11.005412 L 8.148768 11.005412 C 6.219661 11.005412 4.6413 10.998669 4.6413 10.990992 L 4.6413 10.991014 Z M 13.663742 10.338591 C 13.485688 9.971827 13.150579 9.284021 12.91906 8.810118 L 12.498113 7.948465 L 13.642161 7.948377 C 14.271387 7.948355 15.059311 7.939732 15.393105 7.928668 L 16 7.909057 L 16 9.457284 L 16 11.0055 L 14.993739 11.0055 L 13.987478 11.0055 L 13.663742 10.338668 L 13.663742 10.338591 Z M 11.109379 9.349573 C 10.431688 8.281892 9.741449 7.027552 8.911816 5.356051 C 8.253676 4.030059 7.620324 2.659259 7.358938 1.995061 C 6.980218 1.03271 6.889821 0.434549 7.114577 0.378131 C 7.474129 0.287886 8.17787 1.104504 9.179566 2.774306 C 9.964298 4.082441 11.219924 6.368364 12.178056 8.23319 C 12.355908 8.579342 12.533139 8.918543 12.571901 8.986956 L 12.642378 9.111362 L 12.045221 9.459 C 11.716785 9.650191 11.437132 9.806626 11.423772 9.806626 C 11.410411 9.806626 11.268931 9.600949 11.109377 9.349573 L 11.109379 9.349573 Z M 5.921675 6.041295 L 5.089149 5.49243 L 5.167756 5.367902 C 5.210986 5.299474 5.429039 4.951798 5.652311 4.595422 C 5.875582 4.239041 6.061752 3.943197 6.066021 3.938011 C 6.070347 3.933215 6.445305 4.173158 6.899386 4.472104 L 7.724987 5.015635 L 7.602143 5.215817 C 7.534579 5.325909 7.331254 5.658758 7.150308 5.955461 C 6.969362 6.252152 6.806214 6.516352 6.787757 6.542551 C 6.758798 6.583676 6.640022 6.514868 5.921676 6.041295 L 5.921675 6.041295 Z M 6.984213 4.259295 C 6.552758 3.977507 6.199749 3.733588 6.199749 3.717239 C 6.199749 3.59837 6.556443 3.267605 6.732205 3.223489 C 7.021457 3.15093 7.495858 3.336457 7.760096 3.625553 C 7.964321 3.848982 8.009056 3.958271 7.989988 4.187149 C 7.9756 4.359857 7.83486 4.771633 7.79022 4.771633 C 7.778371 4.771633 7.415668 4.541077 6.984213 4.259295 L 6.984213 4.259295 Z"/>
</svg>
