<svg xmlns="http://www.w3.org/2000/svg" style="isolation:isolate" width="16" height="16" viewBox="0 0 16 16">
 <path fill="#cdd3e0" d="M 2.909091 8.858182 L 2.909091 11.767273 L 8 14.545455 L 13.090909 11.767273 L 13.090909 8.858182 L 8 11.636364 L 2.909091 8.858182 Z M 8 1.454545 L 0 5.818182 L 8 10.181818 L 14.545455 6.610909 L 14.545455 11.636364 L 16 11.636364 L 16 5.818182 L 8 1.454545 Z"/>
</svg>
