<svg xmlns="http://www.w3.org/2000/svg" width="16" height="16" version="1.1">
 <g transform="translate(-351.99997,-199.99994)">
  <path d="m 359,202 v 0.5 h 1 V 202 Z m 0,1 v 0.5 h 1 V 203 Z m 0,1 v 3 h -3.5 c -0.0334,-7.3e-4 -0.0668,0.002 -0.0996,0.008 -1.53949,0.0443 -2.88062,1.0908 -3.28125,2.58594 -0.40938,1.52781 0.26106,3.14665 1.63086,3.9375 1.35845,0.7843 3.07606,0.56329 4.19531,-0.53125 h 3.10938 c 1.11925,1.09454 2.83686,1.31555 4.19531,0.53125 1.3698,-0.79086 2.04024,-2.40969 1.63086,-3.9375 -0.40114,-1.49704 -1.74514,-2.54412 -3.28711,-2.58594 C 363.56285,207.00181 363.5314,207 363.5,207 H 360 v -3 z m -3.5,4 h 8 c 1.13393,0 2.12253,0.75823 2.41602,1.85352 0.29348,1.09529 -0.18401,2.24553 -1.16602,2.8125 -0.92813,0.53585 -2.07628,0.41206 -2.87695,-0.2793 -0.13062,-0.12963 -0.25898,-0.39005 -0.49414,-0.38672 h -3.75782 c -0.23385,-0.003 -0.39409,0.26769 -0.49218,0.38477 -0.80076,0.69295 -1.94998,0.81756 -2.87891,0.28125 -0.98202,-0.56697 -1.45755,-1.71721 -1.16406,-2.8125 C 353.37942,208.75822 354.36607,208 355.5,208 Z m -0.5,1 v 1 h -1 v 1 h 1 v 1 h 1 v -1 h 1 v -1 h -1 v -1 z m 8.5,0 c -0.27614,0 -0.5,0.22386 -0.5,0.5 0,0.27614 0.22386,0.5 0.5,0.5 0.27614,0 0.5,-0.22386 0.5,-0.5 0,-0.27614 -0.22386,-0.5 -0.5,-0.5 z m -1,1 c -0.27614,0 -0.5,0.22386 -0.5,0.5 0,0.27614 0.22386,0.5 0.5,0.5 0.27614,0 0.5,-0.22386 0.5,-0.5 0,-0.27614 -0.22386,-0.5 -0.5,-0.5 z m 2,0 c -0.27614,0 -0.5,0.22386 -0.5,0.5 0,0.27614 0.22386,0.5 0.5,0.5 0.27614,0 0.5,-0.22386 0.5,-0.5 0,-0.27614 -0.22386,-0.5 -0.5,-0.5 z m -1,1 c -0.27614,0 -0.5,0.22386 -0.5,0.5 0,0.27614 0.22386,0.5 0.5,0.5 0.27614,0 0.5,-0.22386 0.5,-0.5 0,-0.27614 -0.22386,-0.5 -0.5,-0.5 z" style="solid-color:#cdd3e0;fill:#cdd3e0"/>
 </g>
</svg>
