<svg xmlns="http://www.w3.org/2000/svg" style="isolation:isolate" width="16" height="16" viewBox="0 0 16 16">
 <defs>
  <clipPath id="_clipPath_s21Rv4iqxKWJPyXKFiUFXZp4UCYiOlHJ">
   <rect width="16" height="16"/>
  </clipPath>
 </defs>
 <g clip-path="url(#_clipPath_s21Rv4iqxKWJPyXKFiUFXZp4UCYiOlHJ)">
  <rect fill="#cdd3e0" width="4.625" height="3.594" x="17.19" y=".06" transform="matrix(1,0,0,1,0,0)"/>
  <path fill="#cdd3e0" d="M 15 1.808 L 15 12.038 C 11.231 14.192 8.539 14.731 4.769 13.654 C 2.077 10.961 1.541 8.808 1 6.072 C 4.769 9.347 10.154 9.347 15 8.264 L 5.846 10.418 L 8.932 3.699 L 12.308 9.341 L 10.154 7.187"/>
 </g>
</svg>
