<svg xmlns="http://www.w3.org/2000/svg" width="16" height="16" version="1.1" viewBox="0 0 4.23 4.23">
 <g transform="translate(0,-292.76665)">
  <path style="fill:#cdd3e0" d="M 8 0.5 A 7.5 7.5 0 0 0 0.5 8 A 7.5 7.5 0 0 0 8 15.5 A 7.5 7.5 0 0 0 15.5 8 A 7.5 7.5 0 0 0 8 0.5 z M 7.984375 2.9902344 A 4.9999998 4.9999998 0 0 1 12.984375 7.9902344 A 4.9999998 4.9999998 0 0 1 7.984375 12.990234 A 4.9999998 4.9999998 0 0 1 2.984375 7.9902344 A 4.9999998 4.9999998 0 0 1 7.984375 2.9902344 z" transform="matrix(0.26458333,0,0,0.26458333,0,292.76665)"/>
  <path style="solid-color:#cdd3e0;fill:#cdd3e0" d="M 5.2089844 4.5585938 C 4.1910205 5.3834375 3.4980469 6.590149 3.4980469 7.9980469 C 3.4980469 10.477417 5.5225944 12.501953 8.0019531 12.501953 C 10.481312 12.501953 12.498047 10.477417 12.498047 7.9980469 C 12.498047 6.5899911 11.807118 5.3834327 10.791016 4.5585938 L 10.033203 5.2207031 C 10.902018 5.8560799 11.501953 6.8341581 11.501953 7.9980469 C 11.501953 9.9369823 9.9408719 11.498047 8.0019531 11.498047 C 6.0630343 11.498047 4.5039063 9.9369823 4.5039062 7.9980469 C 4.5039062 6.835139 5.1011838 5.8581576 5.96875 5.2226562 L 5.2089844 4.5585938 z" transform="matrix(0.26458333,0,0,0.26458333,0,292.76665)"/>
 </g>
</svg>
