<svg xmlns="http://www.w3.org/2000/svg" style="isolation:isolate" width="16" height="16" viewBox="0 0 16 16">
 <defs>
  <clipPath id="_clipPath_mr20DGIwU80D2LGjAmKMWpLkJDeCeFa6">
   <rect width="16" height="16"/>
  </clipPath>
 </defs>
 <g clip-path="url(#_clipPath_mr20DGIwU80D2LGjAmKMWpLkJDeCeFa6)">
  <rect fill="#cdd3e0" width="4.625" height="3.594" x="17.19" y=".06" transform="matrix(1,0,0,1,0,0)"/>
  <path fill="#cdd3e0" d="M 9.967 9.347 L 11.956 15 L 11.957 15 L 13.923 15 L 8.898 1 L 7.104 1 L 2.077 15 L 4.043 15 L 7.989 3.728 L 9.678 8.526 C 9.049 8.358 8.362 8.417 7.771 8.685 C 7.167 8.963 6.658 9.482 6.475 10.202 C 6.366 10.641 6.408 11.114 6.599 11.523 C 6.792 11.933 7.152 12.282 7.646 12.395 C 7.936 12.461 8.246 12.425 8.515 12.288 C 8.786 12.154 9.024 11.893 9.089 11.546 C 9.126 11.346 9.097 11.142 9.003 10.955 C 8.904 10.769 8.715 10.599 8.466 10.561 C 8.325 10.54 8.191 10.566 8.062 10.64 C 7.932 10.713 7.804 10.867 7.787 11.058 L 8.447 11.121 C 8.443 11.167 8.401 11.216 8.389 11.224 C 8.374 11.232 8.384 11.228 8.37 11.226 C 8.391 11.23 8.395 11.232 8.414 11.27 C 8.435 11.308 8.446 11.377 8.437 11.421 C 8.414 11.544 8.342 11.628 8.221 11.688 C 8.097 11.747 7.926 11.767 7.792 11.741 C 7.512 11.676 7.323 11.495 7.2 11.235 C 7.078 10.978 7.049 10.648 7.119 10.37 C 7.249 9.859 7.592 9.506 8.046 9.298 C 8.501 9.089 9.058 9.045 9.544 9.184 C 9.692 9.226 9.833 9.281 9.967 9.347 Z"/>
 </g>
</svg>
