<svg xmlns="http://www.w3.org/2000/svg" style="isolation:isolate" width="16" height="16" viewBox="0 0 16 16">
 <defs>
  <clipPath id="_clipPath_7pqCJ52qX9474uK5rVXQHdAZc9MmEwgL">
   <rect width="16" height="16"/>
  </clipPath>
 </defs>
 <g clip-path="url(#_clipPath_7pqCJ52qX9474uK5rVXQHdAZc9MmEwgL)">
  <rect fill="#cdd3e0" width="4.625" height="3.594" x="17.09" y="-.09" transform="matrix(1,0,0,1,0,0)"/>
  <path fill="#cdd3e0" d="M 1 1 L 1 5.667 L 5.667 5.667 L 5.667 1 M 10.333 5.667 L 5.667 5.667 L 5.667 8 L 3.333 8 L 3.333 15 L 5.667 15 L 5.667 12.667 L 10.333 12.667 L 10.333 15 L 12.667 15 L 12.667 8 L 10.333 8 L 10.333 5.667 L 15 5.667 L 15 1 L 10.333 1"/>
 </g>
</svg>
