<svg xmlns="http://www.w3.org/2000/svg" style="isolation:isolate" width="16" height="16" viewBox="0 0 16 16">
 <path fill="#cdd3e0" fill-rule="evenodd" d="M 8.778728 1.805273 L 4.035454 5.769818 L 0 12.778728 L 3.681455 12.778728 L 8.778728 1.805273 L 8.778728 1.805273 Z M 7.292001 8.247819 L 11.185819 12.849454 L 3.681455 14.194727 L 16 14.194727 L 9.34509 2.65491 L 7.292001 8.247819 L 7.292001 8.247819 Z"/>
</svg>
