<svg xmlns="http://www.w3.org/2000/svg" style="isolation:isolate" width="16" height="16" viewBox="0 0 16 16">
 <defs>
  <clipPath id="_clipPath_eUeFpIeKmFAjmko5gzCqb8BzAp2P5sVW">
   <rect width="16" height="16"/>
  </clipPath>
 </defs>
 <g clip-path="url(#_clipPath_eUeFpIeKmFAjmko5gzCqb8BzAp2P5sVW)">
  <rect fill="#cdd3e0" width="4.625" height="3.594" x="17.09" y="-.09" transform="matrix(1,0,0,1,0,0)"/>
  <path fill="#cdd3e0" d="M 2.462 0 C 1.106 0 0 1.106 0 2.462 L 0 10.462 C 0 11.817 1.106 12.923 2.462 12.923 L 6.769 12.923 L 6.769 13.538 C 6.769 14.894 7.875 16 9.231 16 L 13.538 16 C 14.894 16 16 14.894 16 13.538 L 16 7.385 C 16 6.73 15.652 6.457 14.577 5.404 C 14.428 5.257 14.286 5.094 14.135 4.942 C 13.983 4.791 13.82 4.649 13.673 4.5 C 12.62 3.425 12.346 3.077 11.692 3.077 L 9.231 3.077 C 9.031 3.077 8.841 3.108 8.654 3.154 C 8.442 2.928 8.178 2.687 7.808 2.327 C 7.658 2.18 7.517 2.017 7.365 1.865 C 7.214 1.714 7.05 1.572 6.903 1.423 C 5.852 0.349 5.578 0 4.923 0 L 2.462 0 Z M 2.462 1.231 L 4.788 1.231 C 5.202 1.231 5.538 1.442 5.538 1.942 L 5.538 3.077 C 5.538 3.415 5.815 3.692 6.154 3.692 L 7.327 3.692 C 7.982 3.692 8 4.106 8 4.366 L 8 10.904 C 8 11.144 7.449 11.692 6.769 11.692 L 2.462 11.692 C 1.782 11.692 1.231 11.141 1.231 10.462 L 1.308 2.058 C 1.475 1.563 1.939 1.231 2.462 1.231 Z M 9.231 4.308 L 11.558 4.308 C 11.974 4.308 12.308 4.519 12.308 5.019 L 12.308 6.154 C 12.308 6.492 12.585 6.769 12.923 6.769 L 14.096 6.769 C 14.751 6.769 14.769 7.183 14.769 7.442 L 14.769 13.981 C 14.769 14.221 14.218 14.769 13.538 14.769 L 9.231 14.769 C 8.551 14.769 8 14.218 8 13.538 L 8 12.577 C 8.615 12.224 9.043 11.62 9.173 10.923 L 11.654 12.808 L 11.654 11.077 L 13.5 11.077 L 13.5 9.846 L 11.654 9.846 L 11.654 8.115 L 9.231 9.961 L 9.231 4.308 Z M 4.269 5.039 L 4.269 6.769 L 2.423 6.769 L 2.423 8 L 4.269 8 L 4.269 9.731 L 7.346 7.385 L 4.269 5.039 Z"/>
 </g>
</svg>
