<svg xmlns="http://www.w3.org/2000/svg" width="16" height="16.001">
 <g transform="translate(-512 -52)">
  <path fill="#cdd3e0" d="M519.5 52c-1.1 0-2.145.32-2.145.32l-.355.108v1.683a13.88 13.88 0 0 0-2.998.889L514 56h-1v1h1l.004 9c0 .439.04.788.15 1.082.111.294.311.528.563.668.503.28 1.12.25 1.953.25h5.664c.833 0 1.45.03 1.953-.25.252-.14.45-.374.56-.668.11-.294.153-.643.153-1.082l-.002-8h-1l.002 8c0 .376-.04.603-.088.729-.034.09-.078.129-.11.146-.173.097-.611.125-1.468.125h-5.664c-.857 0-1.295-.028-1.469-.125a.267.267 0 0 1-.113-.146v-.002c-.046-.122-.084-.348-.084-.727v-.002L515 57h11v-1h-1.002l.002-1a13.855 13.855 0 0 0-3-.889V52.45l-.33-.119s-.913-.33-2.17-.33zm0 1c.89 0 1.29.155 1.5.22v.739a14.05 14.05 0 0 0-1.498-.084c-.502 0-1.003.032-1.502.086v-.734c.266-.07.772-.227 1.5-.227zm-2.5 5v6h1v-6zm2 0v6h1v-6zm2 0v6h1v-6z" font-family="Ubuntu" font-size="15" font-weight="400" letter-spacing="0" text-anchor="middle" word-spacing="0"/>
 </g>
</svg>
