<svg xmlns="http://www.w3.org/2000/svg" style="isolation:isolate" width="16" height="16" viewBox="0 0 16 16">
 <path fill="#cdd3e0" fill-rule="evenodd" d="M 13.525 4.275 L 13.525 2.882 C 13.525 2.003 12.812 1.29 11.934 1.29 L 1.591 1.29 C 0.713 1.29 0 2.003 0 2.882 L 0 13.224 C 0 14.102 0.713 14.815 1.591 14.815 L 11.934 14.815 C 12.812 14.815 13.525 14.102 13.525 13.224 L 13.525 11.83 L 16 13.775 L 16 2.331 L 13.525 4.275 Z M 7.914 7.226 L 7.914 7.226 L 4.645 7.226 L 4.645 5.161 L 4.645 5.161 L 7.914 5.161 C 8.376 5.161 8.774 5.736 8.774 6.194 C 8.774 6.651 8.376 7.231 7.914 7.226 L 7.914 7.226 L 7.914 7.226 Z M 4.645 8.774 L 4.645 8.774 L 4.645 10.839 L 7.914 10.839 C 8.376 10.844 8.774 10.264 8.774 9.806 C 8.774 9.349 8.376 8.774 7.914 8.774 L 7.914 8.774 L 7.914 8.774 L 4.645 8.774 L 4.645 8.774 L 4.645 8.774 Z M 9.557 8 C 10.037 8.465 10.323 9.129 10.323 9.806 C 10.323 11.122 9.244 12.387 7.914 12.387 L 3.097 12.387 L 3.097 8.774 L 3.097 7.226 L 3.097 7.226 L 3.097 7.226 L 3.097 3.613 L 3.097 3.613 L 7.914 3.613 C 9.244 3.613 10.323 4.878 10.323 6.194 C 10.323 6.871 10.037 7.535 9.557 8 L 9.557 8 L 9.557 8 Z"/>
</svg>
