<svg xmlns="http://www.w3.org/2000/svg" width="16" height="16" version="1.1">
 <path d="M 7.6303173,14.754941 C 7.4578575,14.62039 6.9003318,14.177921 6.3913278,13.771659 5.8823237,13.365398 5.3319489,12.930299 5.1682689,12.804818 4.7881467,12.513417 4.8081933,12.493763 6.1775123,11.813788 7.583867,11.115521 7.8909271,11.025341 8.3791702,11.1673 c 0.5255963,0.152693 2.7353868,1.233109 2.7353868,1.337235 0,0.04687 -0.330255,0.33411 -0.733881,0.638135 -0.4036387,0.304252 -0.9740677,0.758022 -1.2676198,1.008756 -0.673663,0.575358 -1.0300573,0.848164 -1.1081007,0.848164 -0.033638,0 -0.2022048,-0.109984 -0.3746268,-0.244536 z M 3.7602928,11.41913 C 3.3238973,11.018425 3.0247666,10.482412 3.0215351,10.095351 c -0.00117,-0.1285037 0.098117,-0.4998797 0.220422,-0.8248437 0.1223055,-0.32504 0.2223874,-0.663383 0.2223874,-0.752013 0,-0.09222 -0.5910538,-0.723666 -1.3820447,-1.476397 C 1.3221768,6.3187338 0.64341081,5.6169512 0.57393181,5.482589 0.39111581,5.1292031 0.53447181,4.7084661 1.1485868,3.7970709 1.8026678,2.8262992 2.9131004,1.3901544 3.048861,1.3394331 3.106159,1.3167561 3.6775741,1.3942361 4.318718,1.5091339 L 5.4844377,1.7177638 6.7427633,1.3590867 8.001089,1.0004095 9.2550606,1.3575749 10.509024,1.7147402 11.708242,1.5023308 c 0.980028,-0.1738583 1.224166,-0.1916221 1.335734,-0.099402 0.193474,0.1606299 1.817669,2.3409259 2.155971,2.8942488 0.185235,0.3031181 0.287622,0.5915716 0.297449,0.8385259 0.01512,0.376063 0.01361,0.3779528 -1.473321,1.8064254 -0.818585,0.786406 -1.487871,1.48063 -1.487296,1.54269 4.61e-4,0.06198 0.101102,0.399307 0.223407,0.749404 0.267024,0.764334 0.2767,1.0398621 0.05197,1.4803661 -0.236976,0.464503 -0.926468,1.082154 -1.208032,1.082154 -0.124308,0 -0.634461,-0.204851 -1.133695,-0.455471 C 9.8008055,11.005272 9.4045863,10.733071 8.9597964,10.303678 8.6281806,9.9835519 8.3568673,9.6548469 8.3568673,9.5732849 c 0,-0.08164 0.44033,-0.558501 0.9785121,-1.059893 0.6020938,-0.56092 0.9785156,-0.978633 0.9785156,-1.085821 0,-0.096 -0.140107,-0.537033 -0.311357,-0.9804469 C 9.6375488,5.5020535 9.6150342,5.192548 9.8913441,4.9184567 10.001442,4.8092283 10.761912,4.4608315 11.58131,4.1441449 12.400716,3.8274205 13.071219,3.5407811 13.071321,3.5070677 13.071555,3.4122016 12.31393,3.320737 11.520456,3.3199811 10.917342,3.319263 10.677357,3.3672252 10.013109,3.6215874 9.5655602,3.793178 9.1748213,4.0013543 9.1117598,4.1021165 9.0188968,4.250652 9.0531018,4.520926 9.3179331,5.7323023 c 0.359433,1.644095 0.3846992,1.542614 -0.4273512,1.717153 -0.6056995,0.130016 -1.1468485,0.12926 -1.7807206,-0.0036 C 6.2999463,7.2765323 6.3246645,7.3763153 6.6841126,5.731953 6.9484528,4.5229291 6.9830355,4.2499717 6.8907394,4.101852 6.8253158,3.9967811 6.4192849,3.7877732 5.9004389,3.5921449 5.1057404,3.2924284 4.9610185,3.2648378 4.3983224,3.3060347 3.3507092,3.3831367 2.9282903,3.4481449 2.9759275,3.5252473 3.0008725,3.5656883 3.7015779,3.8654047 4.5328245,4.191389 6.088221,4.8010646 6.309913,4.9503559 6.3118783,5.3894236 6.3123394,5.5130142 6.1670468,6.0007244 5.9887665,6.4731275 5.7832358,7.0177193 5.6842122,7.4083343 5.7180767,7.5405793 c 0.02948,0.114898 0.4750073,0.58114 0.990274,1.036422 0.5522117,0.487975 0.9368542,0.895219 0.9368542,0.991975 0,0.09033 -0.300737,0.4450017 -0.6683149,0.7882577 -0.7074822,0.660699 -2.0973317,1.439433 -2.5690809,1.439433 -0.1536,0 -0.3794759,-0.131905 -0.6475956,-0.378066 z" style="fill:#cdd3e0"/>
</svg>
