<svg xmlns="http://www.w3.org/2000/svg" style="enable-background:new" width="16" height="16" version="1.1">
 <g transform="translate(-64,-204)">
  <path d="m 74,204 c -1.061833,0 -1.916217,0.82178 -1.986328,1.86523 l -0.900391,0.90039 -0.554687,0.55469 -0.791016,0.79102 C 69.521089,208.04623 69.267504,208 69,208 c -1.662,0 -3,1.338 -3,3 0,0.8887 0.389896,1.67622 1,2.22461 l 0,2.27539 0,1.5 4,0 0,-1.5 0,-2.27539 c 0.610104,-0.54839 1,-1.33591 1,-2.22461 0,-0.2675 -0.04623,-0.52109 -0.111328,-0.76758 l 0.791016,-0.79101 0.554687,-0.55469 0.900391,-0.90039 c 0.129123,-0.009 0.253803,-0.0309 0.375,-0.0625 l 0.773437,0.77344 0.0098,0.01 0.144531,0.14453 -0.291016,0.29102 c -0.09377,0.0937 -0.146457,0.22092 -0.146484,0.35351 l 0,2 c 2.8e-5,0.27613 0.223869,0.49998 0.5,0.5 l 2,0.004 c 0.676161,0.01 0.676161,-1.00956 0,-1 l -1.5,-0.002 0,-1.29297 1.707031,-1.70899 1.292969,0 0,1.5 c -0.0096,0.67617 1.009563,0.67617 1,0 l 0,-2 c -2.8e-5,-0.27613 -0.223869,-0.49997 -0.5,-0.5 l -2,0 c -0.1326,3e-5 -0.259761,0.0527 -0.353516,0.14649 l -0.294922,0.29492 -0.144531,-0.14453 -0.0098,-0.01 -0.771485,-0.77148 C 75.96944,206.34752 76,206.17864 76,206 c 0,-1.108 -0.892,-2 -2,-2 z m 0,1 c 0.554,0 1,0.446 1,1 0,0.554 -0.446,1 -1,1 -0.554,0 -1,-0.446 -1,-1 0,-0.554 0.446,-1 1,-1 z m -5,4 c 1.108,0 2,0.892 2,2 0,0.36693 -0.104291,0.705 -0.275391,1 -0.169746,0.29267 -0.412746,0.53593 -0.701171,0.71094 -0.01474,0.009 -0.02993,0.0169 -0.04492,0.0254 -0.118062,0.0675 -0.245136,0.11985 -0.376954,0.16211 -0.03902,0.0123 -0.07716,0.0252 -0.117187,0.0352 -0.155483,0.0392 -0.31604,0.0663 -0.484377,0.0663 -0.168337,0 -0.328896,-0.0272 -0.484375,-0.0664 -0.04003,-0.01 -0.07817,-0.023 -0.117187,-0.0352 -0.131818,-0.0423 -0.258892,-0.0947 -0.376954,-0.16211 -0.01499,-0.008 -0.03018,-0.0166 -0.04492,-0.0254 -0.288428,-0.17501 -0.531427,-0.41822 -0.701173,-0.71089 -0.1711,-0.295 -0.275391,-0.63307 -0.275391,-1 0,-1.108 0.892,-2 2,-2 z m 0,1 c -0.554,0 -1,0.446 -1,1 0,0.554 0.446,1 1,1 0.554,0 1,-0.446 1,-1 0,-0.554 -0.446,-1 -1,-1 z m -3,8 c 0,0 -1,0 -1,1 l 0,1 8,0 0,-1 c 0,0 0,-1 -1,-1 l -6,0 z" style="solid-color:#cdd3e0;fill:#cdd3e0;fill-rule:evenodd"/>
 </g>
</svg>
