<svg xmlns="http://www.w3.org/2000/svg" width="16" height="16" version="1.1">
 <g transform="translate(-27,127.6378)">
  <path d="m 40.755656,-123.13556 c 0.162882,0.32584 0.24433,0.62748 0.244344,0.90497 -1.4e-5,0.31981 -0.08146,0.62145 -0.244344,0.90502 -0.162909,0.27749 -0.38312,0.49774 -0.660632,0.66063 -0.283573,0.16289 -0.585231,0.24434 -0.904976,0.24434 -0.325804,0 -0.627462,-0.0815 -0.904976,-0.24434 -0.114642,-0.0664 -0.223239,-0.14482 -0.325792,-0.23533 l -2.180992,1.25794 2.180992,1.26695 c 0.102553,-0.0905 0.21115,-0.16892 0.325792,-0.23528 0.277514,-0.16289 0.579172,-0.24434 0.904976,-0.24434 0.319745,0 0.621403,0.0815 0.904976,0.24434 0.277512,0.16289 0.497723,0.38314 0.660632,0.66063 0.162882,0.28357 0.24433,0.58521 0.244344,0.90497 -1.4e-5,0.31374 -0.08146,0.61239 -0.244344,0.89591 -0.168943,0.28357 -0.389153,0.5068 -0.660632,0.66969 -0.283573,0.16289 -0.585231,0.24434 -0.904976,0.24434 -0.307704,0 -0.609362,-0.0815 -0.904976,-0.24434 -0.283571,-0.15687 -0.506798,-0.37706 -0.669683,-0.66063 -0.156873,-0.27749 -0.235304,-0.57919 -0.235293,-0.90497 -1.1e-5,-0.13272 0.01206,-0.26241 0.0362,-0.38911 l -2.180992,-1.267 0,2.52489 c 0.126688,0.0422 0.247352,0.0965 0.36199,0.16289 0.277517,0.16289 0.497728,0.38314 0.660633,0.66063 0.162886,0.27755 0.244334,0.57918 0.244343,0.90497 -9e-6,0.32584 -0.08146,0.62748 -0.244343,0.90497 -0.162905,0.27754 -0.383116,0.49774 -0.660633,0.66068 -0.277534,0.16289 -0.579192,0.24434 -0.904976,0.24434 -0.325799,0 -0.627457,-0.0815 -0.904976,-0.24434 -0.277532,-0.16294 -0.497743,-0.38314 -0.660632,-0.66068 -0.162902,-0.27749 -0.24435,-0.57913 -0.244344,-0.90497 -6e-6,-0.32579 0.08144,-0.62742 0.244344,-0.90497 0.162889,-0.27749 0.3831,-0.49774 0.660632,-0.66063 0.114623,-0.0664 0.235287,-0.12063 0.361991,-0.16289 l 0,-2.52489 -2.180993,1.267 c 0.02413,0.1267 0.03619,0.25639 0.0362,0.38911 -5e-6,0.32578 -0.07844,0.62748 -0.235294,0.90497 -0.1629,0.28357 -0.386127,0.50376 -0.669682,0.66063 -0.283563,0.16289 -0.585221,0.24434 -0.904976,0.24434 -0.325794,0 -0.627453,-0.0815 -0.904976,-0.24434 -0.277528,-0.15687 -0.497739,-0.37706 -0.660633,-0.66063 -0.162897,-0.27749 -0.244345,-0.57919 -0.244343,-0.90497 -2e-6,-0.31976 0.08145,-0.6214 0.244343,-0.90497 0.162894,-0.27749 0.383105,-0.49774 0.660633,-0.66063 0.283556,-0.16289 0.585215,-0.24434 0.904976,-0.24434 0.319755,0 0.621413,0.0815 0.904976,0.24434 0.114626,0.0664 0.223223,0.14482 0.325791,0.23528 l 2.180992,-1.26695 -2.180992,-1.25794 c -0.09654,0.0905 -0.205132,0.16897 -0.325791,0.23533 -0.295629,0.16289 -0.597288,0.24434 -0.904976,0.24434 -0.325794,0 -0.627453,-0.0815 -0.904976,-0.24434 -0.277528,-0.16289 -0.497739,-0.38314 -0.660633,-0.66063 -0.162897,-0.27754 -0.244345,-0.57918 -0.244343,-0.90502 -2e-6,-0.32573 0.08145,-0.62742 0.244343,-0.90497 0.162894,-0.28352 0.383105,-0.50376 0.660633,-0.66063 0.283556,-0.16289 0.585215,-0.24434 0.904976,-0.24434 0.307688,0 0.609347,0.0815 0.904976,0.24434 0.283555,0.15687 0.506782,0.37711 0.669682,0.66063 0.156857,0.27755 0.235289,0.57924 0.235294,0.90497 -5e-6,0.13277 -0.01207,0.26246 -0.0362,0.38916 l 2.180993,1.26695 0,-2.52489 c -0.126704,-0.0422 -0.247368,-0.0965 -0.361991,-0.16289 -0.277532,-0.16284 -0.497743,-0.38309 -0.660632,-0.66063 -0.162902,-0.27749 -0.24435,-0.57913 -0.244344,-0.90497 -6e-6,-0.32579 0.08144,-0.62742 0.244344,-0.90497 0.162889,-0.27749 0.3831,-0.49774 0.660632,-0.66063 0.283552,-0.16289 0.585211,-0.24434 0.904976,-0.24434 0.325784,0 0.627442,0.0815 0.904976,0.24434 0.277517,0.16289 0.497728,0.38314 0.660633,0.66063 0.162886,0.27755 0.244334,0.57918 0.244343,0.90497 -9e-6,0.32584 -0.08146,0.62748 -0.244343,0.90497 -0.162905,0.27754 -0.383116,0.49779 -0.660633,0.66063 -0.114638,0.0664 -0.235302,0.12068 -0.36199,0.16289 l 0,2.52489 2.180992,-1.26695 c -0.02415,-0.1267 -0.03621,-0.25639 -0.0362,-0.38916 -1.1e-5,-0.32573 0.07842,-0.62742 0.235293,-0.90497 0.156852,-0.27147 0.380079,-0.49166 0.669683,-0.66063 0.277514,-0.16289 0.579172,-0.24434 0.904976,-0.24434 0.319745,0 0.621403,0.0815 0.904976,0.24434 0.307678,0.18101 0.527889,0.40126 0.660632,0.66063" style="fill:#cdd3e0"/>
 </g>
</svg>
