<svg xmlns="http://www.w3.org/2000/svg" width="16" height="16" version="1.1">
 <g transform="translate(5,111.6378)">
  <path d="m 9.9999999,-104.57519 c -1.56e-5,0.32587 -0.1705858,0.54229 -0.511711,0.64917 -0.2138643,0.0662 -0.5855539,0.0993 -1.1150711,0.0993 -0.6110114,0 -1.0539843,-0.0382 -1.3289206,-0.11457 -0.4277107,-0.11201 -0.6568346,-0.34876 -0.6873725,-0.7103 0.7688263,0.0866 1.5223896,0.12987 2.2606923,0.12987 0.4633252,0 0.9241191,-0.0178 1.3823829,-0.0535 m 0,-0.25969 c -0.4378972,0.0356 -0.7866746,0.0535 -1.0463338,0.0535 -0.2189556,0 -1.1481808,-0.0484 -2.7876782,-0.14512 -0.061111,-0.3462 -0.430256,-0.56006 -1.1074337,-0.64157 l 0.030549,0.76379 c 0.6466281,0.43279 1.2423507,1.17107 1.7871693,2.21484 0.529518,0.99798 0.7942838,1.83302 0.7942973,2.50508 -1.35e-5,0.641566 -0.1731294,0.962348 -0.5193485,0.962348 l -9.1955187,0 c -0.437885,0 -0.6568257,-0.267297 -0.6568227,-0.801934 -3e-6,-0.661894 0.2724,-1.522404 0.8172097,-2.581464 0.575352,-1.10998 1.17871185,-1.87629 1.81008141,-2.29887 l 0,-0.76379 c -0.66191946,0.0764 -1.02597201,0.29024 -1.09215881,0.64157 -0.5499022,0.0968 -1.3212862,0.14512 -2.3141547,0.14512 -0.5957246,0 -1.1023432,-0.0178 -1.5198573,-0.0535 0.056007,-1.01322 0.4989805,-1.7031 1.3289205,-2.06972 0.5498956,-0.24949 1.545312,-0.44296 2.98625234,-0.58048 1.04887351,-0.1018 2.11302746,-0.15272 3.19246406,-0.15272 2.9684206,0 5.0228991,0.2444 6.1634416,0.7332 0.8553819,0.35641 1.2983548,1.04633 1.3289206,2.06972 M 4.52393,-105.64442 c -0.7179322,-0.14768 -1.4002121,-0.2215 -2.0468428,-0.2215 -0.6211888,0 -1.3034691,0.0738 -2.04684322,0.2215 l 0.37423617,0.65682 3.36048855,0 0.3589613,-0.65682 m 0.5040732,3.20774 c -1.04e-5,-0.41242 -0.2825967,-0.74593 -0.8477596,-1.00054 -0.4633492,-0.20873 -1.0208843,-0.31309 -1.6726067,-0.31314 -0.6313719,5e-5 -1.188907,0.10949 -1.67260663,0.32843 -0.57536257,0.2444 -0.86304016,0.57283 -0.86303451,0.98525 -5.65e-6,0.4175 0.28767194,0.74844 0.86303451,0.99284 0.48369963,0.21899 1.04123473,0.32843 1.67260663,0.32843 0.6313558,0 1.188891,-0.10944 1.6726067,-0.32843 0.5651629,-0.2444 0.8477492,-0.57534 0.8477596,-0.99284 m 1.2678208,2.535622 0.1527497,-0.106932 -0.1527497,-0.10692 -7.5381868,0 -0.1603869,0.10692 0.1603869,0.106932 7.5381868,0 m -1.6573318,-3.039722 c -1.04e-5,0.16806 -0.1247557,0.25205 -0.3742362,0.25205 -0.2647753,0 -0.3971584,-0.084 -0.3971488,-0.25205 -9.6e-6,-0.17818 0.1323735,-0.26729 0.3971488,-0.26729 0.2494805,0 0.3742258,0.0891 0.3742362,0.26729 m -0.8019347,-0.38951 c -9.6e-6,0.17822 -0.1298466,0.26734 -0.3895114,0.26734 -0.2494997,0 -0.3742449,-0.0891 -0.3742362,-0.26734 -8.7e-6,-0.16289 0.1247365,-0.24436 0.3742362,-0.2444 0.2596648,4e-5 0.3895018,0.0815 0.3895114,0.2444 m 1.0463339,1.00818 c -1.04e-5,0.17818 -0.1298475,0.2673 -0.389511,0.2673 -0.249501,0 -0.3742462,-0.0891 -0.3742366,-0.2673 -9.6e-6,-0.16806 0.1247356,-0.25204 0.3742366,-0.25204 0.2596635,0 0.3895006,0.084 0.389511,0.25204 m -2.2148674,-1.11511 c -8.7e-6,0.17823 -0.1323913,0.26734 -0.3971488,0.26734 -0.2494984,0 -0.3742436,-0.0891 -0.3742362,-0.26734 -7.4e-6,-0.16802 0.1247378,-0.252 0.3742362,-0.252 0.2647575,0 0.3971401,0.084 0.3971488,0.252 m 1.6878815,1.71079 c -1e-5,0.17315 -0.129847,0.2597 -0.389511,0.2597 -0.2495001,0 -0.3742457,-0.0866 -0.3742362,-0.2597 -9.5e-6,-0.16801 0.1247361,-0.252 0.3742362,-0.252 0.259664,0 0.389501,0.084 0.389511,0.252 m -0.2825863,-0.72555 c -9.9e-6,0.22407 -0.1884006,0.42263 -0.5651734,0.59573 -0.3258742,0.13747 -0.6695603,0.20621 -1.0310586,0.20621 -0.3513317,0 -0.6848342,-0.0687 -1.0005093,-0.20621 -0.3666053,-0.15785 -0.54990468,-0.35641 -0.54989816,-0.59573 -6.52e-6,-0.2291 0.19856766,-0.41241 0.59572306,-0.54988 0.3207664,-0.10185 0.6593607,-0.15273 1.0157842,-0.15277 0.3513152,4e-5 0.679726,0.056 0.9852341,0.16806 0.3665892,0.12218 0.5498882,0.3004 0.5498981,0.53459 m -2.4898166,-0.7179 c -7.4e-6,0.16802 -0.1247526,0.25205 -0.3742362,0.25205 -0.25968092,0 -0.38951792,-0.084 -0.38951097,-0.25205 -6.95e-6,-0.17823 0.12983005,-0.2673 0.38951097,-0.26734 0.2494836,4e-5 0.3742288,0.0891 0.3742362,0.26734 m 1.8177189,1.74898 c -9.1e-6,0.1731 -0.1298461,0.25965 -0.3895114,0.25965 -0.2494992,0 -0.3742444,-0.0866 -0.3742362,-0.25965 -8.2e-6,-0.16801 0.124737,-0.25204 0.3742362,-0.25204 0.2596653,0 0.3895023,0.084 0.3895114,0.25204 m -2.47454176,-1.20674 c -6.52e-6,0.16806 -0.12475177,0.25205 -0.37423617,0.25205 -0.25968009,0 -0.3895171,-0.084 -0.38951102,-0.25205 -6.08e-6,-0.1731 0.12983093,-0.25965 0.38951102,-0.25965 0.2494844,0 0.37422965,0.0865 0.37423617,0.25965 m 1.23727116,1.16091 c -8.3e-6,0.16801 -0.1247535,0.25204 -0.3742367,0.25204 -0.2596813,0 -0.3895179,-0.084 -0.389511,-0.25204 -6.9e-6,-0.1731 0.1298297,-0.25965 0.389511,-0.2597 0.2494832,5e-5 0.3742284,0.0866 0.3742367,0.2597 m -1.0157843,-0.38187 c -6.9e-6,0.16801 -0.1247522,0.25204 -0.37423613,0.25204 -0.25968052,0 -0.38951752,-0.084 -0.38951144,-0.25204 -6.08e-6,-0.1731 0.12983092,-0.25965 0.38951144,-0.2597 0.24948393,5e-5 0.37422923,0.0866 0.37423613,0.2597 m -2.4898165,-2.80297 c -0.030554,0.35133 -0.2902281,0.59321 -0.7790224,0.72555 -0.3004106,0.0662 -0.7586586,0.0993 -1.3747453,0.0993 -0.4684335,0 -0.8121195,-0.0408 -1.031059,-0.12222 -0.3054998,-0.11709 -0.4582492,-0.32586 -0.4582484,-0.62627 0.4480639,0.0304 0.8604871,0.0458 1.2372707,0.0458 0.8248445,0 1.6267784,-0.0408 2.4058044,-0.12222" style="fill:#cdd3e0"/>
 </g>
</svg>
