<svg xmlns="http://www.w3.org/2000/svg" width="16" height="16" version="1.1" style="enable-background:new">
 <g transform="translate(-618.99999,-286)">
  <path style="fill:#cdd3e0" d="m 626.99999,286 c -4.41832,0 -8,3.58168 -8,8 0,4.41815 3.58168,8 8,8 4.41832,0 8,-3.58185 8,-8 0,-4.41832 -3.58168,-8 -8,-8 z m 2.84375,2.21875 c 0.13766,0.0171 0.27853,0.0826 0.40625,0.15625 0.51088,0.29509 0.70134,0.92662 0.40625,1.4375 -0.29474,0.5109 -0.95785,0.70134 -1.46875,0.40625 -0.51053,-0.29474 -0.70099,-0.95821 -0.40625,-1.46875 0.22132,-0.38316 0.64951,-0.58239 1.0625,-0.53125 z m -2.84375,1.15625 c 0.42953,0 0.85529,0.0473 1.25,0.15625 0.0696,0.42918 0.31266,0.82809 0.71875,1.0625 0.4054,0.23372 0.87518,0.24715 1.28125,0.0937 0.78978,0.77678 1.3002,1.82345 1.375,3 l -1.53125,0.0312 c -0.14032,-1.59352 -1.4639,-2.84365 -3.09375,-2.84365 -0.46953,0 -0.91331,0.0954 -1.3125,0.28125 l -0.75,-1.3125 c 0.61974,-0.30679 1.32409,-0.46875 2.0625,-0.46875 z m -2.5625,0.75 0.78125,1.3125 c -0.80217,0.56462 -1.34375,1.50694 -1.34375,2.5625 0,1.05556 0.54158,1.99819 1.34375,2.5625 l -0.78125,1.3125 c -0.93489,-0.62463 -1.64896,-1.60045 -1.9375,-2.71875 0.33713,-0.27509 0.5625,-0.68701 0.5625,-1.15625 0,-0.46953 -0.22537,-0.88116 -0.5625,-1.15625 0.28886,-1.1179 1.00295,-2.0941 1.9375,-2.71875 z m -2.875,2.8125 c 0.58983,0 1.0625,0.47232 1.0625,1.0625 0,0.5899 -0.47267,1.0625 -1.0625,1.0625 -0.59018,0 -1.0625,-0.4726 -1.0625,-1.0625 0,-0.59018 0.47232,-1.0625 1.0625,-1.0625 z m 8.53125,1.34375 1.53125,0.0312 c -0.0748,1.17655 -0.58522,2.22333 -1.375,3 -0.40607,-0.1534 -0.87551,-0.14032 -1.28125,0.0937 -0.40609,0.23476 -0.64912,0.63332 -0.71875,1.0625 -0.39471,0.10929 -0.82047,0.15625 -1.25,0.15625 -0.73833,0 -1.44268,-0.1616 -2.0625,-0.46875 l 0.75,-1.3125 c 0.39919,0.18582 0.84297,0.28125 1.3125,0.28125 1.6298,0 2.95379,-1.24978 3.09375,-2.84375 z m -0.5,3.375 c 0.41293,-0.0512 0.84143,0.14834 1.0625,0.53125 0.29507,0.51088 0.10463,1.14274 -0.40625,1.4375 -0.51088,0.29507 -1.17399,0.1359 -1.46875,-0.375 -0.29507,-0.51054 -0.10463,-1.17368 0.40625,-1.46875 0.12764,-0.0737 0.26861,-0.10795 0.40625,-0.125 z"/>
 </g>
</svg>
