<svg xmlns="http://www.w3.org/2000/svg" style="isolation:isolate" width="16" height="16" viewBox="0 0 16 16">
 <path fill="#cdd3e0" fill-rule="evenodd" d="M 1.954 0 L 7.299 0 C 7.888 0 8.367 0.479 8.367 1.069 L 8.367 6.413 C 8.367 7.003 7.888 7.482 7.299 7.482 L 1.954 7.482 C 1.364 7.482 0.885 7.003 0.885 6.413 L 0.885 1.069 C 0.885 0.479 1.364 0 1.954 0 Z M 8.701 8.518 L 14.046 8.518 C 14.636 8.518 15.115 8.997 15.115 9.587 L 15.115 14.931 C 15.115 15.521 14.636 16 14.046 16 L 8.701 16 C 8.112 16 7.633 15.521 7.633 14.931 L 7.633 9.587 C 7.633 8.997 8.112 8.518 8.701 8.518 Z"/>
</svg>
