<svg xmlns="http://www.w3.org/2000/svg" style="isolation:isolate" width="16" height="16" viewBox="0 0 16 16">
 <path fill="#cdd3e0" fill-rule="evenodd" d="M 13.108 4.795 C 13.166 4.301 13.212 3.806 13.25 3.31 L 13.25 3.31 L 9.645 2.177 L 8.828 3.047 L 8.828 5.793 L 12.023 5.793 L 13.108 4.795 Z M 12.55 7.936 C 12.385 8.575 12.184 9.204 11.95 9.82 C 11.54 10.89 10.95 11.89 10.19 12.75 C 9.929 13.032 9.645 13.29 9.34 13.522 L 8.828 12.953 L 8.828 7.448 L 12.023 7.448 L 12.55 7.936 Z M 6.676 13.505 C 6.371 13.271 6.084 13.011 5.82 12.73 C 5.06 11.87 4.46 10.88 4.05 9.81 C 3.812 9.202 3.607 8.58 3.438 7.949 L 3.977 7.448 L 7.172 7.448 L 7.172 12.953 L 6.676 13.505 Z M 2.87 4.772 L 3.977 5.793 L 7.172 5.793 L 7.172 3.047 L 6.353 2.175 L 2.74 3.31 C 2.772 3.8 2.88 4.861 2.87 4.772 Z M 14.897 2.168 C 14.663 7.478 13.5 14.142 8 16 C 2.558 14.084 1.272 7.536 1.103 2.168 C 3.402 1.445 5.701 0.721 8 0 C 10.299 0.721 12.598 1.444 14.897 2.168 L 14.897 2.168 Z"/>
</svg>
