<svg xmlns="http://www.w3.org/2000/svg" style="isolation:isolate" width="16" height="16" viewBox="0 0 16 16">
 <path fill="#cdd3e0" d="M 3.062 3.111 L 2.297 5.778 L 12.923 5.778 L 11.077 10.222 L 0.766 10.222 L 0 12.889 L 11.024 12.889 C 12.252 12.867 13.514 12.127 13.996 10.956 L 15.924 5.201 C 16.379 3.338 14.699 3.111 13.399 3.111 L 3.062 3.111 Z M 0.923 6.667 L 0 9.333 L 6.154 9.333 L 7.077 6.667 L 0.923 6.667 Z"/>
</svg>
