<svg xmlns="http://www.w3.org/2000/svg" style="isolation:isolate" width="16" height="16" viewBox="0 0 16 16">
 <path fill="#cdd3e0" d="M 15.9 4.28 L 11.721 0.1 C 11.657 0.036 11.57 0 11.479 0 C 11.388 0 11.302 0.036 11.238 0.1 L 9.998 1.339 L 11.317 2.657 L 10.834 3.141 L 9.515 1.822 L 8.632 2.706 L 10.975 5.049 L 10.492 5.532 L 8.149 3.189 L 7.265 4.072 L 8.584 5.391 L 8.1 5.874 L 6.782 4.555 L 5.898 5.439 L 8.242 7.782 L 7.759 8.265 L 5.415 5.922 L 4.532 6.806 L 5.85 8.124 L 5.367 8.607 L 4.049 7.289 L 3.165 8.172 L 5.509 10.516 L 5.025 10.999 L 2.682 8.655 L 1.798 9.539 L 3.117 10.857 L 2.634 11.34 L 1.315 10.022 L 0.1 11.237 C 0.036 11.301 0 11.388 0 11.479 C 0 11.569 0.036 11.656 0.1 11.72 L 4.28 15.9 C 4.344 15.964 4.431 16 4.522 16 C 4.612 16 4.699 15.964 4.763 15.9 L 15.9 4.762 C 16.033 4.629 16.033 4.413 15.9 4.28 Z"/>
</svg>
