<svg xmlns="http://www.w3.org/2000/svg" width="16" height="16" version="1.1">
 <path d="M 8.3571409,0.50000215 V 5.4899992 L 5.5,8.3471452 l 0.010003,0.01 H 5.5 V 15.5 H 6.9285729 V 8.9385682 l 1.428568,-1.428568 V 15.5 H 9.7857138 V 0.50000215 Z" style="fill:#cdd3e0"/>
</svg>
