<svg xmlns="http://www.w3.org/2000/svg" width="16" height="16" version="1.1" viewBox="0 0 4.23 4.23">
 <g transform="translate(0,-292.76665)">
  <path d="m 2.1190406,292.89862 c -0.2454818,0 -0.4439515,0.1972 -0.4438782,0.44062 -5.63e-5,0.18915 0.170682,0.34539 0.3394363,0.40798 2.129e-4,0.0304 -2.129e-4,0.0609 0,0.0914 H 1.228021 c -0.027265,0 -0.048958,0.0217 -0.048958,0.0489 v 0.11096 c 0,0.0273 0.021692,0.0489 0.048958,0.0489 h 0.7865777 c 0.00358,0.71144 0.00447,1.42306 0,2.13453 0.00107,0.0175 -0.0575,0.0353 -0.071804,0.0457 -0.040478,0.0301 -0.087342,0.0411 -0.1370807,0.0424 -0.079095,-4.8e-4 -0.1299405,-0.0217 -0.2056197,-0.0424 -0.1709074,-0.0496 -0.3329428,-0.11928 -0.4895708,-0.20236 -0.065945,-0.0363 -0.1306267,-0.0704 -0.18930081,-0.1175 -0.0252884,-0.0215 -0.0549063,-0.0527 -0.0522227,-0.0881 0.003399,-0.0268 0.0159674,-0.0539 0.0456927,-0.0588 0.0267912,-0.004 0.0513729,0.007 0.0750691,0.0163 0.0204221,0.009 0.0359065,-0.0125 0.0326414,-0.0293 -0.00331,-0.0445 -0.019259,-0.0855 -0.0424276,-0.12403 -0.0482063,-0.0788 -0.12209192,-0.13891 -0.1990923,-0.1893 -0.0822164,-0.0522 -0.16985453,-0.10914 -0.22193952,-0.19256 -0.0103587,-0.0154 -0.0224796,-0.0409 -0.0456927,-0.0326 -0.0322747,0.0104 -0.0494676,0.0414 -0.065274,0.0685 -0.0444672,0.0841 -0.0680738,0.1754 -0.0881203,0.26764 -0.0164862,0.0734 -0.018812,0.15042 -0.0130512,0.2252 0.005993,0.0748 0.0119331,0.14881 0.0424276,0.21867 0.0192056,0.0459 0.0544501,0.0848 0.0881203,0.12077 0.0214866,-0.0226 0.0400303,-0.0464 0.0620089,-0.0685 0.0284819,-0.0284 0.0660164,-0.0479 0.10770517,-0.0424 0.0567401,0.007 0.10880724,0.0424 0.15339874,0.0751 0.062814,0.0486 0.12204003,0.0997 0.1860375,0.14687 0.10126642,0.0768 0.21163642,0.13145 0.32638062,0.18603 0.095598,0.0441 0.1945374,0.0881 0.2937427,0.12403 0.017765,0.008 0.0374,0.006 0.055488,0.0131 0.1785467,0.0738 0.3300812,0.15944 0.4536697,0.31332 2.129e-4,0.002 -2.129e-4,0.008 0,0.01 0.00143,-0.002 0.00188,-0.002 0.00322,-0.004 0.00143,0.002 0.00188,0.002 0.00322,0.004 9.84e-4,-0.004 -8.945e-4,-0.009 0,-0.0131 0.1232011,-0.15209 0.2762063,-0.23674 0.4536697,-0.31005 0.018087,-0.006 0.037722,-0.005 0.055488,-0.0131 0.099204,-0.0359 0.198145,-0.0799 0.2937427,-0.12403 0.1147433,-0.0546 0.2251133,-0.10915 0.3263805,-0.18604 0.063995,-0.0471 0.1232253,-0.0983 0.1860366,-0.14687 0.044592,-0.0326 0.096656,-0.0678 0.1533997,-0.075 0.041685,-0.005 0.07922,0.014 0.1077051,0.0424 0.021979,0.0221 0.040522,0.046 0.062009,0.0685 0.03367,-0.036 0.068915,-0.0749 0.08812,-0.12076 0.030504,-0.0699 0.03647,-0.14386 0.042428,-0.21868 0.00573,-0.0748 0.0034,-0.15182 -0.013051,-0.2252 -0.020047,-0.0922 -0.043653,-0.18355 -0.08812,-0.26763 -0.015806,-0.0271 -0.033008,-0.0581 -0.065274,-0.0685 -0.023213,-0.008 -0.035334,0.0172 -0.045693,0.0326 -0.052088,0.0835 -0.1397276,0.1404 -0.2219395,0.19256 -0.077001,0.0504 -0.1508833,0.11052 -0.1990923,0.1893 -0.023168,0.0385 -0.039145,0.0796 -0.042428,0.12402 -0.00331,0.0169 0.01221,0.0381 0.032641,0.0293 0.023696,-0.009 0.048269,-0.0206 0.075069,-0.0163 0.029725,0.004 0.042276,0.0319 0.045693,0.0588 0.00268,0.0354 -0.026934,0.0666 -0.052223,0.0881 -0.058672,0.0471 -0.1233567,0.0812 -0.1893016,0.11749 -0.156628,0.0831 -0.3186634,0.15272 -0.4895708,0.20236 -0.075677,0.0208 -0.1265226,0.042 -0.2056197,0.0424 -0.049745,-0.002 -0.096601,-0.0123 -0.1370807,-0.0424 -0.014304,-0.0104 -0.072922,-0.0282 -0.071804,-0.0457 0,-1.37089 0,-1.65161 0,-2.13453 h 0.7865777 c 0.027265,0 0.048958,-0.0217 0.048958,-0.0489 v -0.11097 c 0,-0.0273 -0.021692,-0.0489 -0.048958,-0.0489 H 2.22341 c 0,-0.0221 0,-0.0683 0,-0.0914 0.1687534,-0.0626 0.3394935,-0.21883 0.3394354,-0.40798 7.33e-5,-0.24342 -0.1983973,-0.44062 -0.4438773,-0.44062 z m -0.00979,0.21542 c 0.119165,0 0.2187112,0.094 0.2186754,0.21214 3.58e-5,0.11817 -0.09951,0.21542 -0.2186754,0.21542 -0.1191659,0 -0.2154479,-0.0972 -0.2154112,-0.21542 -3.58e-5,-0.11815 0.096245,-0.21214 0.2154112,-0.21214 z" style="fill:#cdd3e0"/>
 </g>
</svg>
