<svg xmlns="http://www.w3.org/2000/svg" style="isolation:isolate" width="16" height="16" viewBox="0 0 16 16">
 <defs>
  <clipPath id="_clipPath_tTKfIxoSPERteHcEorAJe30tukxD2f1e">
   <rect width="16" height="16"/>
  </clipPath>
 </defs>
 <g clip-path="url(#_clipPath_tTKfIxoSPERteHcEorAJe30tukxD2f1e)">
  <rect style="fill:#000000" fill-opacity="0" width="16" height="16"/>
  <path fill="#cdd3e0" d="M 4.87 0 C 3.896 0 3.13 0.765 3.13 1.739 L 3.13 14.261 C 3.13 15.235 3.896 16 4.87 16 L 11.13 16 C 12.104 16 12.87 15.235 12.87 14.261 L 12.87 1.739 C 12.87 0.765 12.104 0 11.13 0 L 4.87 0 Z M 4.87 0.696 L 11.13 0.696 C 11.722 0.696 12.174 1.148 12.174 1.739 L 12.174 12.522 L 3.826 12.522 L 3.826 1.739 C 3.826 1.148 4.278 0.696 4.87 0.696 Z M 5.5 3.13 C 5.309 3.148 5.167 3.319 5.185 3.511 C 5.202 3.702 5.374 3.844 5.565 3.826 L 10.435 3.826 C 10.56 3.827 10.677 3.762 10.741 3.654 C 10.803 3.545 10.803 3.411 10.741 3.303 C 10.677 3.194 10.56 3.129 10.435 3.13 L 5.5 3.13 Z M 5.5 4.87 C 5.309 4.887 5.167 5.058 5.185 5.25 C 5.202 5.441 5.374 5.583 5.565 5.565 L 9.391 5.565 C 9.517 5.567 9.633 5.501 9.697 5.393 C 9.76 5.284 9.76 5.151 9.697 5.042 C 9.633 4.934 9.516 4.868 9.391 4.87 L 5.5 4.87 Z M 5.5 6.609 C 5.309 6.626 5.167 6.798 5.185 6.989 C 5.202 7.181 5.374 7.322 5.565 7.304 L 10.435 7.304 C 10.56 7.306 10.677 7.24 10.741 7.132 C 10.803 7.023 10.803 6.89 10.741 6.781 C 10.677 6.673 10.56 6.607 10.435 6.609 L 5.5 6.609 Z M 5.5 8.348 C 5.309 8.365 5.167 8.537 5.185 8.728 C 5.202 8.92 5.374 9.061 5.565 9.043 L 9.391 9.043 C 9.517 9.045 9.633 8.979 9.697 8.871 C 9.76 8.762 9.76 8.629 9.697 8.52 C 9.633 8.412 9.516 8.346 9.391 8.348 L 5.5 8.348 Z M 5.5 10.087 C 5.309 10.104 5.167 10.276 5.185 10.467 C 5.202 10.659 5.374 10.8 5.565 10.783 L 10.435 10.783 C 10.56 10.784 10.677 10.719 10.741 10.61 C 10.803 10.502 10.803 10.368 10.741 10.259 C 10.677 10.151 10.56 10.086 10.435 10.087 L 5.5 10.087 Z M 8 13.565 C 8.383 13.565 8.696 13.878 8.696 14.261 C 8.696 14.644 8.383 14.957 8 14.957 C 7.617 14.957 7.304 14.644 7.304 14.261 C 7.304 13.878 7.617 13.565 8 13.565 Z"/>
 </g>
</svg>
