<svg xmlns="http://www.w3.org/2000/svg" width="16" height="16" version="1.1">
 <g transform="translate(-292,-398.64789)">
  <path style="fill:#cdd3e0" d="M 8 0.5 A 7.5 7.5 0 0 0 1.0625 5.1601562 L 6.0410156 6.0136719 L 5.8730469 7 L 0.75 6.1210938 A 7.5 7.5 0 0 0 0.5234375 7.5 L 6 7.5 L 6 8.5 L 0.52539062 8.5 A 7.5 7.5 0 0 0 0.75195312 9.8769531 L 5.8730469 9 L 6.0410156 9.9863281 L 1.0742188 10.837891 A 7.5 7.5 0 0 0 8 15.5 A 7.5 7.5 0 0 0 15.5 8 A 7.5 7.5 0 0 0 8 0.5 z" transform="translate(292,398.64789)"/>
 </g>
</svg>
