<svg xmlns="http://www.w3.org/2000/svg" width="16" height="16" version="1.1">
 <g transform="translate(-532,-180)">
  <path d="m 533,182.00001 v 13 l 1,-1e-5 v -1 l 1,1e-5 v 3.3e-4 0.99967 h 1 9 1 V 194.00033 194 h 1 v 1 h 1 v -13 h -1 v 1 h -1 V 182.99967 182 h -10 -1 v 0.99967 3.4e-4 L 534,183 v -1 z M 536,183 h 9 v 5 h -9 z m -2,1 1,1e-5 v 1 L 534,185 Z m 12,1e-5 h 1 v 1 h -1 z M 534,186 l 1,1e-5 v 1 L 534,187 Z m 12,1e-5 h 1 v 1 h -1 z M 534,188 l 1,1e-5 v 0.16667 0.66634 0.16699 L 534,189 Z m 12,1e-5 h 1 v 1 h -1 z M 536,189 h 9 v 5 h -9 z m -2,1 1,1e-5 v 1 L 534,191 Z m 12,1e-5 h 1 v 1 h -1 z M 534,192 l 1,1e-5 v 1 L 534,193 Z m 12,1e-5 h 1 v 1 h -1 z" style="fill:#cdd3e0"/>
 </g>
</svg>
