<svg xmlns="http://www.w3.org/2000/svg" style="isolation:isolate" width="16" height="16" viewBox="0 0 16 16">
 <path fill="#cdd3e0" d="M 3.994 0.996 C 2.736 1.01 1.815 0.965 1.063 1.381 C 0.873 1.485 0.705 1.627 0.563 1.797 L 0.5 1.797 L 0.5 1.885 C 0.389 2.033 0.293 2.196 0.225 2.379 C 0.06 2.817 0 3.338 0 3.996 L 0 11.996 C 0 12.654 0.06 13.175 0.225 13.613 C 0.389 14.052 0.686 14.402 1.063 14.609 C 1.815 15.024 2.736 14.981 3.994 14.996 L 3.996 14.996 L 12.002 14.996 L 12.006 14.996 C 13.264 14.981 14.185 15.027 14.938 14.611 C 15.314 14.404 15.611 14.052 15.776 13.613 C 15.94 13.175 16 12.654 16 11.996 L 16 3.996 C 16 3.338 15.94 2.817 15.775 2.379 C 15.707 2.196 15.61 2.035 15.5 1.887 L 15.5 1.797 L 15.438 1.797 C 15.295 1.628 15.126 1.487 14.938 1.383 C 14.185 0.968 13.264 1.011 12.006 0.996 L 12.004 0.996 L 3.998 0.996 L 3.994 0.996 Z M 1 3.996 L 15 3.996 L 15 11.996 C 15 12.588 14.937 13.002 14.84 13.262 C 14.742 13.522 14.638 13.633 14.455 13.734 C 14.089 13.936 13.259 13.981 12 13.996 L 4.006 13.996 L 4 13.996 C 2.741 13.981 1.911 13.936 1.545 13.734 C 1.361 13.633 1.258 13.521 1.16 13.262 C 1.063 13.002 1 12.588 1 11.996 L 1 3.996 Z"/>
 <g opacity=".5">
  <rect fill="#cdd3e0" width="9" height="1" x="5" y="5" transform="matrix(1,0,0,1,0,0)"/>
 </g>
 <g opacity=".5">
  <rect fill="#cdd3e0" width="9" height="1" x="5" y="7" transform="matrix(1,0,0,1,0,0)"/>
 </g>
 <g opacity=".5">
  <rect fill="#cdd3e0" width="9" height="1" x="5" y="9" transform="matrix(1,0,0,1,0,0)"/>
 </g>
 <g opacity=".5">
  <rect fill="#cdd3e0" width="5" height="1" x="5" y="11" transform="matrix(1,0,0,1,0,0)"/>
 </g>
 <g opacity=".5">
  <rect fill="#cdd3e0" width="1" height="10" x="3" y="4" transform="matrix(1,0,0,1,0,0)"/>
 </g>
</svg>
