<svg xmlns="http://www.w3.org/2000/svg" style="isolation:isolate" width="16" height="16" viewBox="0 0 16 16">
 <g opacity=".6">
  <path fill="#cdd3e0" fill-rule="evenodd" d="M 1.535 11.826 C 0.498 10.364 0.122 9.061 0.144 7.99 C 0.182 6.067 1.286 4.894 1.286 4.894 C 1.286 4.894 1.232 5.901 1.703 5.997 C 2.174 6.093 2.191 5.471 2.161 4.422 C 2.131 3.372 2.704 2.855 2.704 2.855 C 2.704 2.855 2.645 4.835 4.169 4.139 C 5.692 3.443 4.45 1.714 4.45 1.714 C 4.45 1.714 5.947 1.708 7.192 3.417 C 8.181 4.776 10.399 5.518 10.178 4.034 C 9.957 2.551 11.3 2.571 11.3 2.571 C 11.3 2.571 10.764 3.4 13.136 4.945 C 15.017 6.171 16.017 8.791 14.832 11.725 L 14.398 12.8 L 1.535 11.826 Z M 6.954 0 C 6.954 0 6.183 1.133 7.407 1.704 C 9.464 2.663 9.387 3.143 9.387 3.143 C 9.387 3.143 9.997 1.739 8.998 0.921 C 8 0.102 6.954 0 6.954 0 Z"/>
 </g>
 <path fill="#cdd3e0" d="M 7.821 7.475 C 7.084 6.576 5.966 6 4.714 6 C 2.507 6 0.714 7.792 0.714 10 C 0.714 12.208 2.507 14 4.714 14 C 5.446 14 6.133 13.803 6.721 13.456 C 7.549 14.969 9.155 16 11 16 C 13.681 16 15.857 13.824 15.857 11.143 C 15.857 8.462 13.681 6.286 11 6.286 C 9.784 6.286 8.671 6.734 7.821 7.475 Z"/>
</svg>
