<svg xmlns="http://www.w3.org/2000/svg" style="isolation:isolate" width="16" height="16" viewBox="0 0 16 16">
 <path fill="#cdd3e0" fill-rule="evenodd" d="M 0 0 L 0 16 L 1.333 16 L 1.333 9.333 L 8 8 L 8 9.333 L 16 8 L 13.333 6.667 L 16 5.333 L 8 2.667 L 8 1.333 L 1.333 0 L 0 0 Z"/>
</svg>
