<svg xmlns="http://www.w3.org/2000/svg" style="isolation:isolate" width="16" height="16" viewBox="0 0 16 16">
 <path fill="#cdd3e0" d="M 15.905 5.959 C 15.344 3.908 12.544 3.677 11.527 3.663 C 11.226 2.838 10.105 0.212 8.011 0.212 C 5.929 0.212 4.808 2.81 4.5 3.649 C 4.419 3.647 4.338 3.645 4.258 3.645 C 3.212 3.645 0.716 3.87 0.119 5.955 C -0.52 8.183 1.589 9.868 2.311 10.368 C 2.054 11.2 1.431 13.798 3.118 15.204 C 3.583 15.592 4.142 15.788 4.779 15.788 C 6.154 15.788 7.525 14.869 8.029 14.493 C 8.56 14.826 9.997 15.639 11.381 15.639 C 11.95 15.639 12.452 15.501 12.873 15.228 C 14.586 14.117 13.937 11.215 13.7 10.359 C 14.373 9.836 16.467 8.014 15.905 5.959 Z M 8.247 8.322 C 8.247 8.322 10.248 9.76 9.526 10.342 C 8.803 10.924 8 8.502 8 8.502 C 8 8.502 7.13 10.907 6.474 10.342 C 5.818 9.778 7.753 8.322 7.753 8.322 C 7.753 8.322 5.207 8.306 5.531 7.44 C 5.855 6.574 7.847 8.032 7.847 8.032 C 7.847 8.032 7.087 5.646 8 5.646 C 8.914 5.646 8.153 8.032 8.153 8.032 C 8.153 8.032 10.131 6.576 10.469 7.44 C 10.807 8.303 8.247 8.322 8.247 8.322 Z"/>
</svg>
