<svg xmlns="http://www.w3.org/2000/svg" width="16" height="16" version="1.1" viewBox="0 0 4.23 4.23">
 <g transform="translate(0,-292.76665)">
  <g style="fill:#cdd3e0" transform="matrix(0.06569212,0,0,0.06569212,-0.09387254,277.63027)">
   <path d="m 76.947266,239.96484 c 4.414053,0.11108 8.397419,0.32032 13.367187,0.32032 h 75.371097 c 9.25696,0 17.52167,-0.16447 24.89843,-0.59766 3.68838,-0.21659 7.15505,-0.49967 10.41211,-0.86328 3.25707,-0.36362 6.30468,-0.8073 9.15625,-1.34375 0.13605,-0.0256 0.24571,-0.0638 0.38086,-0.0898 18.00562,-37.36234 14.7987,-67.74775 -0.13867,-90.21874 -16.27414,-24.48201 -45.72908,-39.67661 -74.94726,-45.9668 -0.22043,-0.0419 -0.44951,-0.0419 -0.66993,0 -0.66973,0.12812 -1.2023,0.68527 -1.33593,1.36914 -0.13365,0.68455 0.15849,1.35801 0.72851,1.74023 14.99465,9.72254 22.74494,21.59824 24.96289,34.39844 2.21795,12.80028 -1.11955,26.69214 -8.80664,40.30664 -13.55128,24.00042 -40.66235,46.93885 -73.378904,60.94531 z" transform="matrix(0.26458333,0,0,0.26458333,0.75317894,229.26666)" style="fill:#cdd3e0;fill-rule:evenodd"/>
   <path d="m 90.314453,11.947266 c -9.256964,0 -17.521676,0.164477 -24.898437,0.597656 -1.636278,0.09609 -3.069164,0.259206 -4.619141,0.382812 -16.294536,19.357389 -24.712503,37.205613 -27.083984,53.320313 -2.455654,16.686803 1.586617,31.469312 9.658203,43.976563 16.143152,25.01461 48.131585,41.03801 77.376956,47.33398 0.80114,0.12284 1.57943,-0.35015 1.88281,-1.11914 0.30338,-0.76932 0.053,-1.6341 -0.60742,-2.11523 -14.99891,-9.72525 -22.974527,-21.38049 -25.994143,-33.89844 -3.019631,-12.51779 -1.011165,-26.012567 4.494143,-39.373046 11.01066,-26.720995 36.05481,-52.638655 61.40429,-67.550781 0.55963,-0.320126 0.90571,-0.921654 0.91016,-1.554687 z" transform="matrix(0.26458333,0,0,0.26458333,0.75317894,229.26666)" style="fill:#cdd3e0;fill-rule:evenodd"/>
   <path d="M 39.882916,268.89569 A 7.5438417,4.5495463 46.463895 1 1 29.343928,258.10246 7.5438417,4.5495463 46.463895 1 1 39.882916,268.89569 Z" style="fill:#cdd3e0"/>
  </g>
 </g>
</svg>
