<svg xmlns="http://www.w3.org/2000/svg" style="isolation:isolate" width="16" height="16" viewBox="0 0 16 16">
 <path fill="#cdd3e0" d="M 8 0.694 L 7.509 1.163 L 0 8.672 L 0.982 9.654 L 8 2.635 L 15.018 9.653 L 16 8.672 L 8.491 1.163 L 8 0.694 Z M 8 3.914 L 1.856 10.058 L 1.856 15.306 L 14.144 15.306 L 14.144 10.058 L 8 3.914 Z"/>
</svg>
