<svg xmlns="http://www.w3.org/2000/svg" width="16" height="16" version="1.1">
 <g>
  <path d="m 5.910156,6.3624783 c -0.097259,0.00879 -0.1933206,0.02894 -0.2890625,0.060547 C 4.8551575,6.6758839 4.4646623,7.5879485 4.7519529,8.4581814 5.0392435,9.3284152 5.8961736,9.8301808 6.6621092,9.5773221 7.4280439,9.324464 7.8165879,8.4123983 7.5292966,7.5421658 7.2779181,6.7807114 6.5909686,6.300977 5.910156,6.3624783 Z m 4.179687,0 C 9.4090309,6.300977 8.7220822,6.7807114 8.4707029,7.5421658 8.1834117,8.4123983 8.5719542,9.324464 9.3378904,9.5773221 10.103825,9.8301808 10.960755,9.3284152 11.248046,8.4581814 c 0.28729,-0.870233 -0.103205,-1.7822975 -0.86914,-2.0351562 -0.09574,-0.031607 -0.191804,-0.051761 -0.289063,-0.060547 z" style="fill:#cdd3e0"/>
  <ellipse cx="8" cy="8" rx="7.013" ry="7.013" style="fill:none;stroke:#cdd3e0;stroke-linecap:square"/>
 </g>
</svg>
