<svg xmlns="http://www.w3.org/2000/svg" width="16" height="16" version="1.1">
 <g style="fill:#cdd3e0" transform="translate(-1153,267)">
  <path style="fill:#cdd3e0" d="M 1155.5,-266 C 1154.7,-266 1154,-265.32 1154,-264.5 V -253.5 C 1154,-252.68 1154.7,-252 1155.5,-252 H 1166.5 C 1167.3,-252 1168,-252.68 1168,-253.5 V -264.5 C 1168,-265.32 1167.3,-266 1166.5,-266 Z M 1155.5,-265 H 1166.5 C 1166.8,-265 1167,-264.79 1167,-264.5 V -253.5 C 1167,-253.21 1166.8,-253 1166.5,-253 H 1155.5 A 0.488,0.488 0 0 1 1155,-253.5 V -264.5 C 1155,-264.79 1155.2,-265 1155.5,-265 Z M 1160.2,-263 V -261.81 L 1160,-261.75 C 1159.9,-261.72 1159.9,-261.67 1159.7,-261.62 L 1159.6,-261.54 1158.7,-262.37 C 1158.7,-262.38 1158.7,-262.38 1158.7,-262.38 1158.7,-262.38 1158.7,-262.38 1158.7,-262.37 L 1157.6,-261.27 C 1157.6,-261.29 1157.6,-261.25 1157.6,-261.25 L 1158.5,-260.42 1158.4,-260.25 A 3.07,3.07 0 0 0 1158.3,-259.98 L 1158.2,-259.8 H 1157 V -258.2 H 1158.2 L 1158.3,-258.02 C 1158.3,-257.94 1158.3,-257.85 1158.4,-257.75 L 1158.5,-257.58 1157.6,-256.74 C 1157.6,-256.75 1157.6,-256.71 1157.6,-256.72 L 1158.7,-255.62 C 1158.7,-255.63 1158.8,-255.63 1158.7,-255.62 L 1159.6,-256.46 1159.7,-256.37 C 1159.8,-256.33 1159.9,-256.28 1160,-256.25 L 1160.2,-256.19 V -255 H 1161.8 V -256.19 L 1162,-256.25 C 1162.1,-256.28 1162.2,-256.33 1162.3,-256.37 L 1162.4,-256.46 1163.3,-255.62 C 1163.2,-255.63 1163.3,-255.63 1163.3,-255.62 L 1164.4,-256.72 C 1164.4,-256.71 1164.4,-256.75 1164.4,-256.74 L 1163.5,-257.58 1163.6,-257.75 C 1163.7,-257.85 1163.7,-257.94 1163.7,-258.02 L 1163.8,-258.2 H 1165 V -259.8 H 1163.8 L 1163.7,-259.98 A 2.75,2.75 0 0 0 1163.6,-260.25 L 1163.5,-260.42 1164.4,-261.26 C 1164.4,-261.25 1164.4,-261.29 1164.4,-261.28 L 1163.3,-262.37 C 1163.3,-262.37 1163.2,-262.37 1163.3,-262.37 L 1162.4,-261.54 1162.3,-261.62 C 1162.2,-261.67 1162.1,-261.72 1162,-261.75 L 1161.8,-261.81 V -263 Z M 1161,-260.33 C 1161.7,-260.33 1162.3,-259.73 1162.3,-259 1162.3,-258.27 1161.7,-257.67 1161,-257.67 1160.3,-257.67 1159.7,-258.27 1159.7,-259 1159.7,-259.73 1160.3,-260.33 1161,-260.33 Z"/>
 </g>
</svg>
