<svg xmlns="http://www.w3.org/2000/svg" width="16" height="16" version="1.1">
 <g transform="translate(0,-32)">
  <g transform="translate(1.2397766e-5,0.49999956)">
   <g style="fill:#cdd3e0" transform="matrix(0.35433071,0,0,0.35433071,-3.9282038,-53.320708)">
    <rect width="21.167" height="21.167" x="12.5" y="261.96" rx="3.024" ry="3.024" style="fill:#cdd3e0"/>
    <rect width="21.167" height="21.167" x="33.66" y="240.79" rx="3.024" ry="3.024" style="fill:#cdd3e0"/>
    <rect width="12.095" height="12.095" x="17.54" y="245.83" rx="1.512" ry="1.512" style="fill:#cdd3e0"/>
    <rect width="12.095" height="12.095" x="37.7" y="265.99" rx="1.512" ry="1.512" style="fill:#cdd3e0"/>
   </g>
  </g>
 </g>
</svg>
