<svg xmlns="http://www.w3.org/2000/svg" style="isolation:isolate" width="16" height="16" viewBox="0 0 16 16">
 <defs>
  <clipPath id="_clipPath_P8xwzHpE41q2GWkd1uGED2kKrAKCmKMj">
   <rect width="16" height="16"/>
  </clipPath>
 </defs>
 <g clip-path="url(#_clipPath_P8xwzHpE41q2GWkd1uGED2kKrAKCmKMj)">
  <rect style="fill:#cdd3e0" fill-opacity="0" width="16" height="16"/>
  <g opacity=".6">
   <path fill="#cdd3e0" d="M 12 6.8 L 16 9.1 L 16 13.7 L 12 16 L 8 13.7 L 4 16 L 0 13.7 L 0 9.1 L 4 6.8 L 4 2.3 L 8 0 L 12 2.3 L 12 6.8 Z"/>
  </g>
  <g opacity=".8">
   <path fill="#cdd3e0" d="M 12.031 6.844 L 16 9.1 L 16 13.7 L 12 16 L 12 11.45 L 15.984 9.141 L 12.016 6.859 L 8 9.2 L 8 13.7 L 4 16 L 4 11.563 L 8 9.1 L 8 4.55 L 12 2.3 L 12.031 6.844 Z"/>
  </g>
  <g opacity=".3">
   <path fill="#cdd3e0" fill-rule="evenodd" d="M 12 6.8 L 8 9.1 L 12 11.4 L 16 9.1 L 12 6.8 L 12 6.8 Z M 4 6.8 L 0 9.1 L 4 11.4 L 8 9.1 L 4 6.8 L 4 6.8 Z M 8 0 L 4 2.3 L 8 4.6 L 12 2.3 L 8 0 Z"/>
  </g>
 </g>
</svg>
