<svg xmlns="http://www.w3.org/2000/svg" width="16" height="16" version="1.1">
 <path style="fill:none;stroke:#8f8f8f;stroke-width:0.628416" d="m 5.843567,8.1576635 1.485834,-0.022677 -0.0079,-5.7036472 1.685537,-0.00756"/>
 <path style="fill:none;stroke:#8f8f8f;stroke-width:0.628416" d="m 5.843567,8.1097013 1.485834,0.022677 -0.0079,5.7036087 1.685537,0.0076"/>
 <path style="fill:#cdd3e0" d="M 1,6.5509486 H 5.920816 V 9.6823631 H 1 Z"/>
 <path style="fill:#cdd3e0" d="m 9.103893,0.81423064 h 4.92082 V 3.9456447 h -4.92082 z"/>
 <path style="fill:#cdd3e0" d="M 9.0160341,12.368586 H 13.936854 V 15.5 H 9.0160341 Z"/>
</svg>
