<svg xmlns="http://www.w3.org/2000/svg" style="isolation:isolate" width="16" height="16" viewBox="0 0 16 16">
 <path fill="#cdd3e0" fill-rule="evenodd" d="M 8 1.777 C 11.432 1.777 14.221 4.476 14.222 7.612 C 14.22 8.961 13.613 10.266 12.545 11.363 C 12.212 11.704 12.03 12.165 12.04 12.642 C 12.052 13.163 12.253 13.646 12.455 14.097 C 11.881 13.964 11.327 13.732 10.787 13.376 C 10.386 13.112 9.895 13.021 9.427 13.124 C 8.861 13.25 8.388 13.331 8 13.333 C 4.535 13.333 1.778 10.751 1.778 7.614 C 1.778 4.477 4.567 1.777 8 1.777 L 8 1.777 Z M 8 0 C 3.632 0 0 3.445 0 7.614 C 0 11.783 3.632 15.111 8 15.111 L 8.002 15.111 C 8.614 15.109 9.215 14.992 9.811 14.86 C 11.039 15.668 12.539 16.221 14.241 15.915 C 15.022 15.772 15.334 15 14.79 14.423 C 14.207 13.807 13.836 13.424 13.818 12.603 C 15.148 11.237 15.998 9.496 16 7.614 C 16 3.445 12.368 0 8 0 L 8 0 Z M 10.203 9.006 C 10.403 8.882 10.648 8.846 10.874 8.9 C 11.105 8.953 11.301 9.1 11.425 9.3 C 11.55 9.5 11.585 9.744 11.532 9.971 C 11.474 10.202 11.332 10.397 11.128 10.522 C 10.817 10.713 10.492 10.882 10.154 11.024 C 9.839 11.162 9.514 11.277 9.181 11.371 C 8.799 11.477 8.399 11.535 7.999 11.54 C 7.599 11.535 7.203 11.477 6.816 11.371 C 6.488 11.277 6.163 11.162 5.848 11.024 C 5.51 10.882 5.185 10.713 4.87 10.522 C 4.67 10.397 4.523 10.202 4.47 9.971 C 4.412 9.744 4.452 9.5 4.576 9.3 C 4.696 9.1 4.896 8.953 5.123 8.9 C 5.354 8.846 5.594 8.882 5.799 9.006 C 6.039 9.153 6.292 9.282 6.554 9.393 C 6.794 9.5 7.043 9.588 7.301 9.66 C 7.528 9.722 7.763 9.757 7.999 9.762 C 8.239 9.757 8.474 9.722 8.701 9.66 C 8.954 9.588 9.208 9.5 9.448 9.393 C 9.71 9.282 9.963 9.153 10.203 9.006 Z"/>
</svg>
