<svg xmlns="http://www.w3.org/2000/svg" width="16" height="16" version="1.1" viewBox="0 0 4.23 4.23">
 <g transform="translate(0,-292.76665)">
  <g style="fill:#cdd3e0" transform="matrix(0.07499958,0,0,0.07499958,-0.46924316,275.31855)">
   <path style="fill:#cdd3e0" d="m 34.383134,240.12665 c -0.565771,0.38831 -1.091373,0.79614 -1.582174,1.21948 -2.78e-4,3.5e-4 -7.5e-4,6.5e-4 -0.001,0.001 v 3.5e-4 l -0.0027,0.003 c 0,0 -1.347301,1.24325 -1.903695,1.96619 -0.803434,1.04393 -1.488699,2.18817 -2.040753,3.38422 -0.547468,1.18611 -0.959045,2.44183 -1.24108,3.71738 -0.295535,1.33661 -0.453516,2.71163 -0.463031,4.08049 -0.01394,2.00576 0.15208,4.08891 0.59529,5.98792 l 0.0024,0.0254 h 0.0038 c 0.424099,1.80762 0.50465,2.66119 1.312608,4.10412 9.163681,-1.60632 15.237038,5.47638 13.18827,13.12252 -1.080818,4.03365 -4.408924,5.97627 -7.600249,6.70488 -4.497617,0.78204 -8.289828,-1.6457 -9.202786,-5.05294 -0.178237,-1.12361 0.09916,-2.63381 0.741625,-3.01492 -0.371023,0.12926 -0.822679,0.27779 -1.363706,0.78797 -0.911133,0.85899 -0.933514,1.16249 -2.12457,1.496 0.582905,-1.64271 -2.61685,-2.97822 -2.038852,-6.5019 0.01318,-0.0816 -0.144577,0.67468 -0.132107,0.59088 -1.409745,7.78621 6.565608,16.55116 15.414363,14.18014 5.995366,-1.49646 9.569262,-5.8987 10.750959,-10.86775 0.682386,-2.86943 0.471447,-5.82834 -0.148378,-8.31174 -0.504904,-2.02271 -1.536038,-4.15679 -3.087405,-6.11638 -0.497046,-0.62784 -1.015181,-1.2026 -1.543702,-1.73711 l -0.01217,-0.0152 -0.04512,-0.0406 c -1.189687,-1.19509 -2.423239,-2.18269 -3.605022,-3.11697 0,0 -2.390943,-1.95563 -3.50064,-3.02729 -0.06831,-0.066 -0.13271,-0.13611 -0.193749,-0.20886 -0.386629,-0.46079 -0.75716,-0.93712 -1.089674,-1.43836 -0.09123,-0.13752 -0.178611,-0.27883 -0.247332,-0.42887 -0.351507,-0.76743 -0.656318,-1.56575 -0.834713,-2.39079 -0.232668,-1.07604 -0.327216,-2.18888 -0.296809,-3.28937 0.02589,-0.9372 0.15417,-1.88025 0.407066,-2.78306 0.457813,-1.07194 1.202525,-2.06191 1.885036,-3.02983 z"/>
   <path style="fill:#cdd3e0" d="m 37.034471,244.09633 c -0.301067,0.48158 -0.528365,1.02431 -0.792466,1.53651 -0.234433,0.45466 -0.508011,0.89119 -0.703154,1.36405 -0.426904,1.03444 -0.675731,2.1337 -1.014015,3.20041 -0.04062,0.12809 -0.138102,0.25084 -0.121967,0.38425 0.122058,1.00922 0.969347,1.79718 1.589042,2.60304 0.23825,0.30982 0.810324,0.84744 0.810324,0.84744 0.09672,0.10696 0.19598,0.21241 0.301574,0.31582 0,0 -0.1971,-1.22259 -0.28373,-1.83565 -0.0076,-0.054 -0.01701,-0.10784 -0.02078,-0.16222 -0.150803,-2.17524 -0.253472,-4.36807 -0.07214,-6.54098 0.04823,-0.578 0.307312,-1.71267 0.307312,-1.71267 z"/>
   <path style="fill:#cdd3e0" d="m 21.398194,261.41914 c 0,0 0.364314,2.40056 0.107165,3.55936 -0.121694,0.54839 -0.619709,0.96055 -0.758455,1.50488 -0.218813,0.85845 -0.290644,1.79441 -0.08587,2.65632 0.116788,0.49157 0.490778,0.88344 0.725134,1.33105 0.05474,0.10455 0.105239,0.21393 0.159025,0.31633 0.290015,-1.29942 1.238975,-2.35427 1.614125,-3.62157 0.145061,-0.49003 0.264298,-1.00405 0.238714,-1.51446 -0.0456,-0.90964 -0.278804,-1.83189 -0.693193,-2.64294 -0.312,-0.61065 -1.306645,-1.58897 -1.306645,-1.58897 z"/>
   <path style="fill:#cdd3e0" d="m 31.953827,266.01594 c -5.092698,0 -9.221136,4.1284 -9.221136,9.22113 0.0019,0.47449 0.04055,0.94847 0.115276,1.41723 0.104174,0.16171 0.211796,0.32139 0.298633,0.49223 0.07741,0.15208 0.116442,0.3295 0.167642,0.50287 0.02788,-0.0203 0.100677,-0.0355 0.128355,-0.0578 0.19821,-0.16526 0.450814,-0.45725 0.932592,-0.91166 0.625604,-0.58976 1.209756,-0.86153 1.592737,-0.94041 0.849506,-0.17489 1.076256,-0.0203 1.813324,0.0938 -0.60043,0.24891 -0.78515,0.52275 -1.247477,1.11398 -0.01622,0.0203 -0.269941,0.32495 -0.377207,0.80162 -0.105189,0.46739 -0.118115,1.04772 -0.04968,1.50629 0.833908,3.01396 4.242326,5.25186 8.427384,4.52416 0.885021,-0.20429 1.76442,-0.51677 2.601303,-0.92738 2.52317,-1.71404 4.035427,-4.56497 4.039483,-7.61527 0,-5.09274 -4.128439,-9.22114 -9.221132,-9.22114 z"/>
   <path style="fill:#cdd3e0" d="m 37.515143,234.40654 c 0,0 0.03784,1.24015 -0.163485,1.81233 -0.09528,0.2708 -0.373089,0.44951 -0.476769,0.71721 -0.163508,0.42217 -0.257284,0.89262 -0.206119,1.34245 0.02918,0.25652 0.190926,0.47975 0.286467,0.71959 0.07691,0.19307 0.154767,0.40453 0.230857,0.57917 l 0.15284,0.38425 0.338681,-1.19336 c 0.05211,-0.17794 0.103261,-0.35587 0.153194,-0.541 0,0 0.402434,-1.01485 0.440017,-1.55091 0.03255,-0.46429 -0.02937,-0.94646 -0.189948,-1.38331 -0.120936,-0.329 -0.565735,-0.88642 -0.565735,-0.88642 z"/>
  </g>
 </g>
</svg>
