<svg xmlns="http://www.w3.org/2000/svg" width="16" height="16" version="1.1">
 <path style="fill:#cdd3e0" d="M 1,0.9999999 H 3.9696969 L 7.7878804,4.8181944 11.606061,0.9999999 h 2.969697 V 11.606065 L 11.606061,14.57574 V 5.2424186 L 9.0606064,7.3636457 V 12.030289 H 6.5151516 V 7.3636457 L 3.9696969,5.2424186 V 15 L 1,11.606065 Z"/>
</svg>
