<svg xmlns="http://www.w3.org/2000/svg" style="isolation:isolate" width="16" height="16" viewBox="0 0 16 16">
 <g opacity=".7">
  <path fill="#cdd3e0" fill-rule="evenodd" d="M 13.774 3.986 L 14.315 4.903 L 2.226 12.014 L 1.685 11.097 L 13.774 3.986 Z M 1.685 4.903 L 2.226 3.986 L 14.315 11.097 L 13.774 12.014 L 1.685 4.903 Z"/>
 </g>
 <path fill="#cdd3e0" d="M 1.956 2.489 C 0.876 2.489 0 3.364 0 4.444 C 0 5.524 0.876 6.4 1.956 6.4 C 3.036 6.4 3.911 5.524 3.911 4.444 C 3.911 3.364 3.036 2.489 1.956 2.489 L 1.956 2.489 Z M 14.044 2.489 C 13.526 2.489 13.028 2.695 12.662 3.062 C 12.295 3.428 12.089 3.926 12.089 4.444 C 12.089 4.963 12.295 5.461 12.662 5.827 C 13.028 6.194 13.526 6.4 14.044 6.4 C 14.563 6.4 15.061 6.194 15.427 5.827 C 15.794 5.461 16 4.963 16 4.444 C 16 3.926 15.794 3.428 15.427 3.062 C 15.061 2.695 14.563 2.489 14.044 2.489 L 14.044 2.489 Z M 8 4.978 C 6.331 4.978 4.978 6.331 4.978 8 C 4.978 9.669 6.331 11.022 8 11.022 C 9.669 11.022 11.022 9.669 11.022 8 C 11.022 6.331 9.669 4.978 8 4.978 L 8 4.978 Z M 1.956 9.6 C 0.876 9.6 0 10.476 0 11.556 C 0 12.636 0.876 13.511 1.956 13.511 C 3.036 13.511 3.911 12.636 3.911 11.556 C 3.911 10.476 3.036 9.6 1.956 9.6 L 1.956 9.6 Z M 14.044 9.6 C 13.526 9.6 13.028 9.806 12.662 10.173 C 12.295 10.539 12.089 11.037 12.089 11.556 C 12.089 12.074 12.295 12.572 12.662 12.938 C 13.028 13.305 13.526 13.511 14.044 13.511 C 14.563 13.511 15.061 13.305 15.427 12.938 C 15.794 12.572 16 12.074 16 11.556 C 16 11.037 15.794 10.539 15.427 10.173 C 15.061 9.806 14.563 9.6 14.044 9.6 L 14.044 9.6 Z"/>
</svg>
