<svg xmlns="http://www.w3.org/2000/svg" width="16" height="16" version="1">
 <path d="M 7.723077,1.0764534 7.745617,15.49953 H 8.876928 V 1.0764534 Z" style="fill:#cdd3e0"/>
 <path style="fill:#cdd3e0;fill-rule:evenodd" d="M 5.415385,3.3841458 V 4.2495304 H 6.569231 V 3.3841458 Z M 4.261538,5.114915 V 5.9802996 H 6.569231 V 5.114915 Z M 1.9538462,6.8456842 V 7.7110689 H 6.569231 V 6.8456842 Z M 0.8,8.5764535 V 9.4418381 H 6.569231 V 8.5764535 Z m 1.1538462,1.7307695 v 0.865384 H 6.569231 v -0.865384 z m 2.3076918,1.730769 v 0.865385 h 2.307693 v -0.865385 z"/>
 <path style="fill:#cdd3e0" d="M 10.607692,0.49953032 H 8.299999 5.992308 L 7.146154,2.2302996 8.299999,3.9610689 9.453846,2.2302996 Z"/>
 <path d="m 10.479412,4.94237 c -0.21246,0.011458 -0.441233,0.1982665 -0.440699,0.4052636 l -0.0079,6.1115604 c 0,0.276018 0.406246,0.516196 0.638642,0.352222 l 4.378431,-3.0662275 c 0.233913,-0.1619469 0.23338,-0.5418381 0,-0.7045033 l -4.37031,-3.0452758 c -0.05833,-0.040633 -0.127126,-0.056821 -0.197977,-0.053037 z" style="fill:#cdd3e0"/>
</svg>
