<svg xmlns="http://www.w3.org/2000/svg" width="16" height="16" version="1.1">
 <g transform="matrix(0.43609935,0,0,0.43609935,-5.9675823,-103.51794)" style="fill:#cdd3e0">
  <path style="fill:#cdd3e0" d="m 14.830524,255.56943 v -15.9695 h 8.598724 l 2.35e-4,7.37054 -2.35e-4,24.56844 h -8.598724 z"/>
  <path style="fill:#cdd3e0" d="m 40.627398,255.56943 v -15.9695 h 8.598725 l 2.34e-4,7.37054 -2.34e-4,24.56844 h -8.598725 z"/>
  <path d="M 40.627164,261.71154 32.028205,254.341 v 9.82737 l 8.599193,7.37054 h -2.34e-4 z m -17.197916,0 8.598957,-7.37054 v 9.82737 l -8.599191,7.37054 h 2.34e-4 z" style="fill:#cdd3e0"/>
 </g>
</svg>
