<svg xmlns="http://www.w3.org/2000/svg" style="isolation:isolate" width="16" height="16" viewBox="0 0 16 16">
 <path fill="#cdd3e0" d="M 8.605 0.444 C 8.51 0.444 8.528 0.818 8.628 0.903 C 8.741 0.998 8.907 1.332 8.956 1.562 L 8.994 1.743 L 8.684 1.809 C 7.943 1.966 7.799 2.476 8.277 3.25 C 8.445 3.521 8.445 3.529 8.413 4.118 C 8.388 4.559 8.401 4.783 8.463 4.995 C 8.559 5.323 8.826 5.625 9.105 5.72 C 9.415 5.826 10.254 5.776 10.566 5.634 C 10.907 5.478 11.352 5.014 11.475 4.684 C 11.621 4.295 11.566 3.758 11.333 3.29 C 11.109 2.839 10.526 2.226 10.121 2.017 C 9.907 1.907 9.806 1.812 9.734 1.654 C 9.632 1.429 8.714 0.444 8.605 0.444 Z M 3.295 2.222 C 3.282 2.221 3.271 2.225 3.26 2.236 C 3.149 2.347 3.059 2.932 3.069 3.477 C 3.078 3.994 3.065 4.1 2.963 4.272 C 2.623 4.844 2.566 5.892 2.841 6.486 C 3.085 7.012 3.488 7.333 4.104 7.486 C 4.533 7.593 4.823 7.578 5.227 7.431 C 6.34 7.023 6.532 6.23 5.734 5.335 C 5.41 4.972 5.26 4.676 5.26 4.408 C 5.26 4.081 5.14 3.762 4.939 3.547 C 4.757 3.353 4.747 3.351 4.4 3.382 C 4.206 3.399 3.977 3.43 3.892 3.451 C 3.75 3.487 3.728 3.468 3.626 3.241 C 3.565 3.105 3.514 2.876 3.513 2.731 C 3.512 2.507 3.384 2.23 3.295 2.222 Z M 14.59 3.113 C 14.45 3.085 14.407 3.41 14.519 3.646 C 14.571 3.754 14.605 3.939 14.595 4.055 L 14.578 4.267 L 14.279 4.272 C 14.048 4.277 13.936 4.314 13.774 4.437 C 13.584 4.582 13.294 5.071 13.293 5.25 C 13.293 5.289 13.116 5.674 12.901 6.104 C 12.685 6.534 12.491 6.972 12.468 7.076 C 12.347 7.635 12.685 8.053 13.493 8.344 C 13.834 8.467 14.191 8.476 14.578 8.373 C 15.207 8.206 15.611 7.889 15.856 7.37 C 15.985 7.096 16.002 6.985 16 6.488 C 15.996 5.843 15.875 5.436 15.545 4.972 C 15.442 4.827 15.316 4.545 15.265 4.345 C 15.162 3.937 14.724 3.139 14.59 3.113 Z M 0.07 7.557 C 0.056 7.554 0.045 7.556 0.038 7.564 C -0.079 7.689 0.096 8.899 0.272 9.188 C 0.315 9.258 0.376 9.5 0.409 9.724 C 0.559 10.739 1.267 11.686 2.071 11.95 C 2.345 12.04 2.941 12.006 3.326 11.88 C 3.644 11.776 3.751 11.704 3.991 11.434 C 4.489 10.873 4.58 10.319 4.246 9.87 C 4.157 9.751 3.887 9.529 3.645 9.377 C 3.404 9.224 2.983 8.943 2.711 8.752 C 1.915 8.192 1.832 8.14 1.612 8.075 C 1.334 7.992 1.05 8.08 0.819 8.321 L 0.636 8.509 L 0.524 8.309 C 0.461 8.198 0.409 8.052 0.409 7.984 C 0.409 7.863 0.172 7.581 0.07 7.557 L 0.07 7.557 Z M 10.225 8.444 C 9.876 8.446 9.472 8.502 9.007 8.615 C 7.691 8.932 7.069 9.31 6.786 9.964 C 6.663 10.246 6.654 10.344 6.687 10.885 C 6.721 11.436 6.712 11.515 6.583 11.79 C 6.452 12.069 6.3 12.227 5.605 12.811 C 5.385 12.996 5.365 13.04 5.34 13.38 C 5.317 13.697 5.34 13.802 5.499 14.141 C 5.841 14.865 6.456 15.351 7.227 15.502 C 7.592 15.573 7.833 15.573 8.46 15.504 C 10.895 15.232 13.695 14.355 14.495 13.611 C 14.913 13.223 15.079 12.864 15.107 12.295 C 15.161 11.209 14.671 10.558 13.798 10.554 C 13.115 10.551 12.427 10.154 12.145 9.599 C 11.937 9.188 11.513 8.778 11.118 8.604 C 10.87 8.495 10.575 8.443 10.225 8.444 Z"/>
</svg>
