<svg xmlns="http://www.w3.org/2000/svg" style="isolation:isolate" width="16" height="16" viewBox="0 0 16 16">
 <path fill="#cdd3e0" d="M 2.754 0 C 1.83 0 1.367 1.124 2.02 1.781 L 2.857 2.867 L 2.857 12.174 L 2.857 13.133 L 2.02 14.219 C 1.367 14.876 1.83 16 2.754 16 L 6.618 16 L 11.971 16 C 12.298 16 12.605 15.845 12.801 15.582 L 14.077 13.6 C 14.589 12.912 14.101 12 13.247 12 L 7.714 12 L 7.714 1.043 C 7.714 0.467 7.277 0 6.704 0 L 2.754 0 Z"/>
</svg>
