<svg xmlns="http://www.w3.org/2000/svg" style="isolation:isolate" width="16" height="16" viewBox="0 0 16 16">
 <path fill="#cdd3e0" fill-rule="evenodd" d="M 2.689 3 L 13.572 3 C 13.817 3 14.016 3.199 14.017 3.444 L 14.017 12.356 C 14.016 12.601 13.817 12.8 13.572 12.8 L 2.689 12.8 C 2.444 12.8 2.245 12.601 2.245 12.356 L 2.245 3.444 C 2.245 3.199 2.444 3 2.689 3 L 2.689 3 L 2.689 3 Z M 10.465 0.533 C 15.308 0.533 16 1.224 16 6.063 L 16 9.938 C 16 14.776 15.308 15.467 10.465 15.467 L 5.535 15.467 C 0.692 15.467 0 14.776 0 9.938 L 0 6.063 C 0 1.224 0.692 0.533 5.535 0.533 L 10.465 0.533 L 10.465 0.533 Z M 5.099 11.556 L 5.099 4.689 L 6.351 4.689 L 6.351 11.556 L 5.099 11.556 L 5.099 11.556 Z M 9.638 10.305 L 9.638 10.305 L 9.638 8.836 L 9.638 8.836 Q 9.638 8.662 9.572 8.602 L 9.572 8.602 L 9.572 8.602 Q 9.507 8.542 9.333 8.542 L 9.333 8.542 L 8.451 8.542 L 8.451 8.542 Q 7.33 8.542 7.33 7.454 L 7.33 7.454 L 7.33 5.767 L 7.33 5.767 Q 7.33 4.689 8.506 4.689 L 8.506 4.689 L 9.703 4.689 L 9.703 4.689 Q 10.878 4.689 10.878 5.767 L 10.878 5.767 L 10.878 6.724 L 9.616 6.724 L 9.616 5.941 L 9.616 5.941 Q 9.616 5.767 9.551 5.707 L 9.551 5.707 L 9.551 5.707 Q 9.485 5.647 9.311 5.647 L 9.311 5.647 L 8.898 5.647 L 8.898 5.647 Q 8.713 5.647 8.647 5.707 L 8.647 5.707 L 8.647 5.707 Q 8.582 5.767 8.582 5.941 L 8.582 5.941 L 8.582 7.323 L 8.582 7.323 Q 8.582 7.497 8.647 7.557 L 8.647 7.557 L 8.647 7.557 Q 8.713 7.617 8.898 7.617 L 8.898 7.617 L 9.757 7.617 L 9.757 7.617 Q 10.9 7.617 10.9 8.683 L 10.9 8.683 L 10.9 10.479 L 10.9 10.479 Q 10.9 11.556 9.714 11.556 L 9.714 11.556 L 8.538 11.556 L 8.538 11.556 Q 7.352 11.556 7.352 10.479 L 7.352 10.479 L 7.352 9.532 L 8.604 9.532 L 8.604 10.305 L 8.604 10.305 Q 8.604 10.479 8.669 10.539 L 8.669 10.539 L 8.669 10.539 Q 8.734 10.599 8.919 10.599 L 8.919 10.599 L 9.333 10.599 L 9.333 10.599 Q 9.507 10.599 9.572 10.539 L 9.572 10.539 L 9.572 10.539 Q 9.638 10.479 9.638 10.305 L 9.638 10.305 Z"/>
</svg>
