<svg xmlns="http://www.w3.org/2000/svg" viewBox="0 0 16 16">
 <defs>
  <style id="current-color-scheme" type="text/css">
   .ColorScheme-Text { color:#cdd3e0; }
  </style>
 </defs>
 <path style="fill:currentColor" class="ColorScheme-Text" d="M 2 3 L 2 11 L 5 14 L 5 11 L 14 11 L 14 3 L 2 3 z M 3 4 L 13 4 L 13 10 L 3 10 L 3 4 z"/>
</svg>
