<svg xmlns="http://www.w3.org/2000/svg" style="isolation:isolate" width="16" height="16" viewBox="0 0 16 16">
 <path fill="#cdd3e0" fill-rule="evenodd" d="M 7.234 7.24 L 7.234 7.24 Q 8.167 7.24 8.674 7.798 L 8.674 7.798 L 8.674 7.798 Q 9.181 8.357 9.181 9.682 L 9.181 9.682 L 9.181 12.17 L 9.181 12.17 Q 9.181 12.642 8.887 12.878 L 8.887 12.878 L 8.887 12.878 Q 8.593 13.114 8.156 13.114 L 8.156 13.114 L 8.156 13.114 Q 7.718 13.114 7.424 12.878 L 7.424 12.878 L 7.424 12.878 Q 7.13 12.642 7.13 12.17 L 7.13 12.17 L 7.13 9.636 L 7.13 9.636 Q 7.13 9.175 6.969 8.991 L 6.969 8.991 L 6.969 8.991 Q 6.808 8.806 6.497 8.806 L 6.497 8.806 L 6.497 8.806 Q 6.094 8.806 5.852 9.094 L 5.852 9.094 L 5.852 9.094 Q 5.61 9.382 5.61 9.889 L 5.61 9.889 L 5.61 12.17 L 5.61 12.17 Q 5.61 12.642 5.322 12.878 L 5.322 12.878 L 5.322 12.878 Q 5.034 13.114 4.585 13.114 L 4.585 13.114 L 4.585 13.114 Q 4.147 13.114 3.853 12.878 L 3.853 12.878 L 3.853 12.878 Q 3.559 12.642 3.559 12.17 L 3.559 12.17 L 3.559 9.636 L 3.559 9.636 Q 3.559 9.175 3.398 8.991 L 3.398 8.991 L 3.398 8.991 Q 3.237 8.806 2.926 8.806 L 2.926 8.806 L 2.926 8.806 Q 2.523 8.806 2.287 9.094 L 2.287 9.094 L 2.287 9.094 Q 2.05 9.382 2.05 9.889 L 2.05 9.889 L 2.05 12.17 L 2.05 12.17 Q 2.05 12.642 1.757 12.878 L 1.757 12.878 L 1.757 12.878 Q 1.463 13.114 1.025 13.114 L 1.025 13.114 L 1.025 13.114 Q 0.587 13.114 0.294 12.878 L 0.294 12.878 L 0.294 12.878 Q 0 12.642 0 12.17 L 0 12.17 L 0 8.184 L 0 8.184 Q 0 7.735 0.305 7.499 L 0.305 7.499 L 0.305 7.499 Q 0.611 7.263 1.037 7.263 L 1.037 7.263 L 1.037 7.263 Q 1.44 7.263 1.711 7.476 L 1.711 7.476 L 1.711 7.476 Q 1.981 7.689 1.993 8.092 L 1.993 8.092 L 1.993 8.092 Q 2.557 7.24 3.721 7.24 L 3.721 7.24 L 3.721 7.24 Q 4.953 7.24 5.368 8.242 L 5.368 8.242 L 5.368 8.242 Q 5.656 7.781 6.14 7.51 L 6.14 7.51 L 6.14 7.51 Q 6.623 7.24 7.234 7.24 L 7.234 7.24 Z M 15.32 5.017 L 15.32 5.017 Q 15.608 5.017 15.804 5.212 L 15.804 5.212 L 15.804 5.212 Q 16 5.408 16 5.696 L 16 5.696 L 16 5.696 Q 16 5.984 15.804 6.186 L 15.804 6.186 L 15.804 6.186 Q 15.608 6.387 15.32 6.387 L 15.32 6.387 L 13.869 6.387 L 13.869 7.827 L 13.869 7.827 Q 13.869 8.115 13.679 8.311 L 13.679 8.311 L 13.679 8.311 Q 13.489 8.507 13.189 8.507 L 13.189 8.507 L 13.189 8.507 Q 12.901 8.507 12.706 8.311 L 12.706 8.311 L 12.706 8.311 Q 12.51 8.115 12.51 7.827 L 12.51 7.827 L 12.51 6.387 L 11.058 6.387 L 11.058 6.387 Q 10.77 6.387 10.575 6.186 L 10.575 6.186 L 10.575 6.186 Q 10.379 5.984 10.379 5.696 L 10.379 5.696 L 10.379 5.696 Q 10.379 5.408 10.575 5.212 L 10.575 5.212 L 10.575 5.212 Q 10.77 5.017 11.058 5.017 L 11.058 5.017 L 12.51 5.017 L 12.51 3.565 L 12.51 3.565 Q 12.51 3.277 12.706 3.081 L 12.706 3.081 L 12.706 3.081 Q 12.901 2.886 13.189 2.886 L 13.189 2.886 L 13.189 2.886 Q 13.477 2.886 13.673 3.081 L 13.673 3.081 L 13.673 3.081 Q 13.869 3.277 13.869 3.565 L 13.869 3.565 L 13.869 5.017 L 15.32 5.017 Z"/>
</svg>
