<svg xmlns="http://www.w3.org/2000/svg" width="16.042" height="16" version="1.1">
 <g transform="translate(-422.95857,125)">
  <path d="m 432.95091,-123.98258 c -1.8307,0 -3.33216,1.41876 -3.33216,3.15912 0,2.58877 2.62238,6.78847 3.33216,6.84042 0.70978,0.052 3.30612,-4.3036 3.30612,-6.84042 0,-1.74036 -1.47541,-3.15912 -3.30612,-3.15912 z m -0.026,2.48031 c 0.46006,0 0.83304,0.37405 0.83304,0.83547 0,0.46141 -0.37298,0.83547 -0.83304,0.83547 -0.46007,0 -0.83304,-0.37406 -0.83304,-0.83547 0,-0.46142 0.37297,-0.83547 0.83304,-0.83547 z" style="fill:none;stroke:#cdd3e0"/>
  <path style="fill:none;stroke:#cdd3e0;stroke-width:1px;stroke-linecap:round" d="m 424.0002,-110 4.53735,-2.82651 4.46265,2.82651 5,-3"/>
 </g>
</svg>
