<svg xmlns="http://www.w3.org/2000/svg" style="isolation:isolate" width="16" height="16" viewBox="0 0 16 16">
 <defs>
  <clipPath id="_clipPath_ulO3YNIjTaGtz6Ye3BTImXIldSeOEoPE">
   <rect width="16" height="16"/>
  </clipPath>
 </defs>
 <g clip-path="url(#_clipPath_ulO3YNIjTaGtz6Ye3BTImXIldSeOEoPE)">
  <rect style="fill:#cdd3e0" fill-opacity="0" width="16" height="16"/>
  <path fill="#cdd3e0" fill-rule="evenodd" d="M 8 5.949 L 0 1.33 L 0 4.251 L 0 4.466 L 0 10.827 L 2.667 12.428 L 2.667 8.778 L 1.778 8.275 L 1.778 5.492 L 1.778 5.492 L 1.778 5.492 L 1.778 5.492 L 7.992 9.08 L 8 9.075 L 8.008 9.08 L 14.23 5.488 L 16 4.466 L 16 1.33 L 8 5.949 Z M 8 11.749 L 12.444 9.183 L 12.444 9.183 L 12.444 12.103 L 10.53 13.209 L 10.53 13.209 L 10.117 13.447 L 8 14.67 L 5.47 13.209 L 5.471 13.209 L 3.556 12.103 L 3.556 9.183 L 8 11.749 L 8 11.749 L 8 11.749 Z M 16 4.469 L 14.219 5.5 L 14.222 8.275 L 13.333 8.778 L 13.333 12.428 L 16 10.827 L 16 4.469 L 16 4.469 Z"/>
 </g>
</svg>
