<svg xmlns="http://www.w3.org/2000/svg" width="16" height="16" version="1.1">
 <path d="m 13.904348,11.97213 v 2.71776 C 12.240573,15.22996 10.646504,15.5 9.1221233,15.5 6.7266383,15.5 4.8407583,14.81184 3.464448,13.43553 2.088155,12.06795 1.4,10.19513 1.4,7.8170698 c 0,-2.22123 0.601045,-3.99388 1.803134,-5.31793 1.1933783,-1.33274 2.7874473,-1.99912002 4.7822243,-1.99914002 2.3170677,2e-5 3.9329057,0.84932002 4.8475657,2.54792002 0.688136,1.28049 1.045273,3.18815 1.071424,5.7229798 H 5.4766473 c 0.113297,0.83624 0.265678,1.4677904 0.457321,1.8946104 0.679426,1.47213 1.959915,2.20819 3.841466,2.20819 1.1846497,0 2.5609597,-0.30052 4.1289137,-0.90157 M 5.4374563,6.5888498 H 10.10209 c -0.02619,-1.1411 -0.1612177,-1.98605 -0.4050557,-2.53483 -0.348442,-0.75783 -0.910295,-1.13675 -1.685543,-1.13677 -0.871087,2e-5 -1.533109,0.44861 -1.986066,1.34582 -0.261332,0.52266 -0.457321,1.29792 -0.587969,2.32578" style="clip-rule:evenodd;fill:#cdd3e0;fill-rule:evenodd;image-rendering:optimizeQuality;shape-rendering:geometricPrecision;text-rendering:geometricPrecision"/>
</svg>
