<svg xmlns="http://www.w3.org/2000/svg" style="isolation:isolate" width="16" height="16" viewBox="0 0 16 16">
 <path fill="#cdd3e0" fill-rule="evenodd" d="M 0 1.778 L 0 14.222 L 4.444 14.222 L 4.444 6.222 L 11.556 6.222 L 11.556 14.222 L 16 14.222 L 16 5.667 C 16 2.529 12.918 1.778 11.636 1.778 L 0 1.778 Z M 6.222 8.889 L 6.222 12.444 L 9.778 12.444 L 9.778 8.889 L 6.222 8.889 Z"/>
</svg>
