<svg xmlns="http://www.w3.org/2000/svg" width="16" height="16" version="1.1">
 <g style="fill:#cdd3e0" transform="matrix(0.14153614,0,0,0.14153614,-0.27123043,0.45140589)">
  <path style="fill:#cdd3e0" d="m 73.104,20.512 c -1.177,1.005 -1.833,2.065 -2.726,2.661 -0.401,0.27 -1.233,0.594 -1.426,1.122 -0.032,0.089 0.278,0.179 0.436,0.124 1.545,-0.54 3.036,-1.176 4.552,-1.796 1.695,-0.694 3.455,-1.109 5.234,-1.526 1.749,-0.408 3.486,-0.901 5.291,-0.974 1.72,-0.068 3.623,0.438 5.309,0.017 1.337,-0.335 1.879,-1.592 2.815,-2.466 1.129,-1.054 2.491,-1.178 3.961,-0.966 1.326,0.192 2.638,0.495 3.688,-0.555 0.83,-0.829 1.259,-2.259 2.636,-2.248 1.476,0.012 2.874,1.323 4.365,0.679 0.641,-0.277 1.136,-0.839 1.691,-1.246 0.688,-0.504 1.449,-0.859 2.231,-1.189 -5.797,-0.887 -11.666,-1.985 -17.544,-2.088 -5.199,-0.091 -9.99,1.153 -14.156,4.344 -1.199,0.918 -2.32,1.935 -3.4,2.989 -1.165,1.139 -2.112,2.501 -3.417,3.494"/>
  <path style="fill:#cdd3e0" d="m 72.406,27.937 c 1.534,-0.716 3.245,-0.941 4.881,-1.332 1.706,-0.407 3.432,-0.72 5.171,-0.937 3.801,-0.474 7.669,-0.609 11.496,-0.579 3.219,0.026 6.812,0.119 9.506,2.115 2.753,2.04 4.252,5.519 5.452,8.617 1.15,2.975 1.977,6.02 2.517,9.159 -1.109,-0.984 -2.236,-1.991 -3.602,-2.607 -1.144,-0.516 -2.588,-0.583 -3.597,-1.361 -1.067,-0.822 -1.179,-2.269 -1.972,-3.287 -0.948,-1.217 -2.446,-0.929 -3.806,-1.024 -1.615,-0.114 -2.243,-1.056 -2.954,-2.386 -0.728,-1.359 -1.597,-2.123 -3.186,-2.188 -1.623,-0.067 -3.155,0.115 -4.749,-0.335 -1.646,-0.466 -3.155,-1.298 -4.736,-1.932 -1.799,-0.723 -3.622,-0.964 -5.55,-1.012 -0.984,-0.024 -1.97,-0.02 -2.953,-0.08 -0.527,-0.032 -1.569,0.1 -2.098,-0.211 -0.146,-0.087 0.09,-0.642 0.18,-0.62"/>
  <path style="fill:#cdd3e0" d="m 68.24,33.001 c 0.592,-0.081 1.258,0.096 1.837,0.154 0.612,0.063 1.301,0.048 1.92,0.11 0.604,0.061 1.166,0.306 1.739,0.447 0.538,0.133 1.114,0.221 1.646,0.384 1.177,0.363 2.326,0.809 3.475,1.17 1.192,0.376 2.374,0.567 3.437,1.287 1.235,0.837 2.441,1.548 3.319,2.716 0.133,0.176 0.446,0.283 0.608,0.47 0.195,0.224 0.357,0.477 0.515,0.728 0.35,0.559 0.68,1.123 1.061,1.669 0.67,0.961 1.334,1.944 2.002,2.919 1.331,1.943 2.668,3.786 3.503,5.943 0.442,1.145 0.961,2.205 1.456,3.356 0.433,1.006 0.919,2.068 1.354,3.084 0.327,0.766 0.634,1.6 0.846,2.423 0.009,0.034 -0.438,-0.102 -0.49,-0.145 -0.178,-0.149 -0.317,-0.326 -0.426,-0.534 -0.171,-0.328 -0.35,-0.543 -0.562,-0.656 -0.415,-0.223 -0.683,-0.439 -1.147,-0.579 -0.453,-0.136 -0.955,-0.071 -1.42,-0.119 -0.604,-0.062 -1.292,-0.002 -1.876,-0.154 -1.108,-0.289 -1.068,-1.705 -1.51,-2.55 -0.58,-1.112 -1.525,-1.255 -2.704,-1.316 -0.973,-0.051 -2.627,0.089 -3.034,-0.987 -0.196,-0.52 -0.22,-1.117 -0.411,-1.657 C 83.217,50.71 82.893,50.29 82.579,49.895 81.965,49.123 81.02,48.467 80.06,48.196 79.137,47.934 77.847,47.561 77.463,46.508 77.272,45.983 77.442,45.342 77.268,44.82 c -0.16,-0.476 -0.391,-0.778 -0.625,-1.169 -0.297,-0.493 -0.455,-1.057 -0.744,-1.553 -0.456,-0.78 -1.174,-1.427 -1.6,-2.233 -0.264,-0.499 -0.512,-0.994 -0.896,-1.447 -0.334,-0.392 -0.687,-0.719 -1.023,-1.121 -0.314,-0.374 -0.633,-0.729 -0.947,-1.123 -0.334,-0.418 -0.617,-0.871 -0.957,-1.307 -0.33,-0.422 -0.771,-0.727 -1.187,-1.038 -0.292,-0.063 -0.651,-0.173 -0.9,-0.311 -0.192,-0.107 -0.606,-0.692 -0.069,-0.556"/>
  <path style="fill:#cdd3e0" d="m 58.177,23.405 c 0.104,-0.133 0.181,-0.256 0.232,-0.481 0.45,-1.961 -0.828,-3.861 -1.668,-5.544 -1.011,-2.024 -1.378,-4.778 -0.565,-6.936 0.748,-1.985 2.094,-3.475 3.271,-5.181 0.453,-0.656 1.242,-1.484 2.056,-1.641 0.089,1.322 -0.287,2.409 -0.351,3.664 -0.11,2.172 1.313,4.282 2.095,6.2 0.933,2.288 0.463,4.367 -1.091,6.254 -1.168,1.42 -2.673,2.404 -3.979,3.665"/>
  <path style="fill:#cdd3e0" d="M 46.62,25.933 C 46.167,25.353 45.526,24.87 44.968,24.395 44.373,23.888 43.763,23.398 43.158,22.902 42.055,21.996 40.919,21.13 39.726,20.346 38.56,19.58 37.34,18.895 36.066,18.325 34.802,17.76 33.488,17.308 32.143,16.982 c -1.364,-0.331 -2.756,-0.534 -4.156,-0.629 -1.435,-0.097 -2.876,-0.08 -4.31,0.02 -1.464,0.102 -2.921,0.289 -4.367,0.535 -1.458,0.247 -2.905,0.554 -4.344,0.896 -1.435,0.341 -2.86,0.717 -4.281,1.111 -1.412,0.393 -2.819,0.803 -4.226,1.217 -0.337,0.099 -0.674,0.198 -1.01,0.297 0.661,0.27 1.305,0.559 1.911,0.938 0.599,0.376 1.173,0.813 1.845,1.055 0.679,0.244 1.363,0.21 2.038,-0.031 0.678,-0.243 1.311,-0.605 2.036,-0.696 1.517,-0.189 2.469,0.874 3.669,1.568 0.584,0.338 1.251,0.55 1.931,0.444 0.679,-0.105 1.239,-0.511 1.848,-0.797 0.637,-0.3 1.317,-0.407 2.004,-0.219 0.689,0.189 1.267,0.618 1.813,1.063 0.542,0.44 1.081,0.884 1.718,1.183 0.657,0.309 1.369,0.443 2.09,0.482 1.565,0.084 3.144,-0.094 4.707,-0.16 1.558,-0.065 3.147,-0.097 4.704,0.008 1.509,0.102 2.991,0.521 4.463,0.849 0.791,0.176 1.565,0.406 2.351,0.601 0.568,0.142 1.384,0.379 1.902,-0.021 0.125,-0.097 0.255,-0.234 0.337,-0.368 0.125,-0.212 0.008,-0.307 -0.196,-0.395"/>
  <path style="fill:#cdd3e0" d="m 46.867,30.978 c -0.634,-0.076 -1.072,-0.235 -1.658,-0.389 -1.348,-0.353 -2.798,-0.232 -4.179,-0.273 -1.552,-0.046 -3.102,-0.13 -4.652,-0.207 -3.1,-0.155 -6.206,-0.277 -9.306,-0.065 -1.755,0.121 -3.508,0.371 -5.22,0.782 -2.892,0.695 -5.631,2.023 -7.577,4.329 -1.94,2.3 -2.917,5.233 -3.544,8.133 -0.789,3.646 -0.67,5.358 -1.029,9.066 0.872,-1.241 1.328,-0.469 2.521,-1.427 1.002,-0.805 2.215,-1.2 3.256,-1.925 0.963,-0.67 1.176,-1.666 1.513,-2.723 0.408,-1.276 1.13,-2.03 2.449,-2.36 1.256,-0.314 2.811,-0.246 3.785,-1.235 0.848,-0.86 0.789,-2.16 1.463,-3.111 0.749,-1.057 2.234,-1.032 3.389,-1.201 1.513,-0.221 2.798,-0.728 4.014,-1.661 1.348,-1.034 2.584,-2 4.219,-2.552 2.127,-0.718 4.348,-1.077 6.538,-1.538 0.564,-0.119 1.148,-0.166 1.717,-0.262 0.735,-0.123 1.535,-0.25 2.21,-0.583 0.127,-0.063 0.261,-0.14 0.372,-0.229 0.066,-0.054 0.144,-0.115 0.155,-0.206 0.037,-0.31 -0.402,-0.338 -0.606,-0.407"/>
  <path style="fill:#cdd3e0" d="m 44.99,37.04 c -2.973,0.636 -6.159,2.733 -8.246,4.861 -0.741,0.755 -1.597,1.455 -2.219,2.297 -0.712,0.965 -1.322,1.961 -2.018,2.938 -0.776,1.092 -1.362,2.347 -1.842,3.593 -0.475,1.233 -0.606,2.656 -1.078,3.893 -0.507,1.327 -1.082,2.154 -1.469,3.529 -0.626,2.225 -1.369,2.318 -1.717,6.372 1.328,-1.101 1.654,-1.216 1.998,-1.294 0.687,-0.156 1.037,0.054 1.688,-0.078 0.683,-0.138 0.606,-0.246 1.133,-0.722 0.483,-0.437 0.643,-1.187 0.855,-1.755 0.254,-0.684 0.337,-1.238 1.004,-1.656 0.567,-0.355 1.216,-0.495 1.83,-0.732 0.58,-0.224 1.28,-0.363 1.787,-0.775 0.539,-0.439 0.722,-1.01 0.973,-1.634 0.567,-1.409 0.919,-2.756 2.21,-3.614 0.515,-0.343 1.129,-0.592 1.559,-1.004 0.455,-0.437 0.718,-1.074 0.929,-1.629 0.938,-2.465 1.722,-5.015 2.633,-7.508 0.426,-1.166 1.065,-2.449 2.133,-3.238 0.468,-0.347 1.048,-0.645 1.457,-1.152 0.254,-0.317 1,-1.001 0.864,-1.449 -0.214,-0.701 -1.898,-0.325 -2.354,-0.133 -0.671,0.285 -1.396,0.663 -2.11,0.89"/>
  <path style="fill:#cdd3e0" d="m 56.51,30.271 c -0.113,-0.182 -0.084,-0.456 0.187,-0.54 0.335,-0.104 0.505,-0.06 0.842,-0.159 0.356,-0.105 0.792,-0.003 1.155,-0.085 0.418,-0.094 1.218,-0.25 1.644,-0.168 0.913,0.176 0.9,0.906 1.232,1.684 0.205,0.479 0.393,0.968 0.551,1.464 0.105,0.33 0.485,1.184 0.192,1.397 -0.616,0.45 -1.607,0.337 -2.178,0.31 -0.549,-0.026 -1.212,0.212 -1.73,0.022 -0.268,-0.098 -0.507,-0.26 -0.669,-0.696 -0.18,-0.485 -0.319,-0.636 -0.546,-1.071 -0.168,-0.321 -0.401,-0.947 -0.498,-1.294 -0.094,-0.337 -0.21,-0.852 -0.213,-1.205"/>
  <path style="fill:#cdd3e0" d="m 59.977,42.021 c -0.293,-0.38 -0.484,-0.797 -0.648,-1.241 -0.16,-0.434 -0.481,-0.798 -0.797,-1.114 -0.082,-0.082 -0.382,-0.397 -0.351,-0.525 0.047,-0.187 0.646,-0.157 0.813,-0.175 0.598,-0.061 1.227,-0.035 1.834,-0.063 0.634,-0.03 1.25,-0.031 1.875,-0.064 0.273,-0.015 0.552,-0.002 0.827,-0.016 0.232,-0.011 0.545,-0.089 0.704,0.092 0.348,0.394 0.642,0.972 0.856,1.453 0.209,0.472 0.355,0.789 0.617,1.257 0.25,0.449 0.303,1.137 0.51,1.608 0.195,0.444 0.371,1.004 0.371,1.519 0,0.498 0.029,0.854 -0.117,1.311 -0.156,0.49 -0.83,0.37 -1.285,0.37 -0.529,0 -1.06,0.032 -1.576,0.031 -0.562,-10e-4 -1.036,-0.041 -1.549,-0.202 -0.375,-0.119 -0.723,-0.616 -0.883,-0.963 -0.42,-0.906 -0.714,-1.864 -1.075,-2.782 -0.123,-0.314 -0.228,-0.739 -0.426,-1.003"/>
  <path style="fill:#cdd3e0" d="m 62.258,54.728 c -0.214,-0.848 -0.294,-1.563 -0.742,-2.374 -0.543,-0.983 -0.089,-1.022 0.085,-1.16 0.346,-0.271 0.864,-0.303 1.283,-0.329 0.622,-0.039 1.249,-0.021 1.871,0 0.974,0.031 1.636,0.26 2.647,0.287 1.348,0.037 1.493,0.905 1.63,2.487 0.101,1.166 0.36,2.321 0.447,3.487 0.078,1.042 0.17,2.14 -0.014,3.176 -0.136,0.764 0.014,1.36 -0.824,1.368 -1,0.009 -2.572,-0.446 -3.485,-0.806 -0.768,-0.303 -1.277,-0.585 -2.122,-0.776 -0.977,-0.222 -0.627,-1.229 -0.565,-3.488 0.013,-0.453 0.028,-0.918 -0.083,-1.362 -0.043,-0.175 -0.112,-0.333 -0.128,-0.51 -0.048,-0.557 0.014,-0.28 -0.079,-0.43"/>
  <path style="fill:#cdd3e0" d="m 60.901,70.793 c 0,-0.855 0.145,-1.674 0.108,-2.532 -0.036,-0.888 -0.177,-1.81 -0.179,-2.7 -0.002,-1.037 0.529,-1.031 1.262,-0.729 1.024,0.423 1.972,0.971 3.029,1.329 1.189,0.402 2.006,0.801 3.256,0.992 1.083,0.166 1.351,0.456 0.999,2.591 -0.259,1.574 -0.52,3.587 -0.734,5.173 -0.128,0.94 -0.935,4.233 -1.446,4.269 -1.077,0.074 -2.379,-0.686 -3.474,-1.122 -1.261,-0.502 -2.022,-0.89 -3.074,-1.229 -1.737,-0.562 -0.72,-1.153 -0.114,-4.117 0.143,-0.698 0.264,-1.355 0.331,-2.068"/>
  <path style="fill:#cdd3e0" d="m 54.641,88.677 c 0.473,-0.4 0.537,-1.414 0.698,-1.982 0.275,-0.978 0.244,-2.004 0.453,-2.992 0.11,-0.523 0.401,-2.294 0.876,-2.638 0.42,-0.302 1.497,0.78 1.932,0.929 0.865,0.294 0.992,0.392 1.866,0.661 1.065,0.327 2.188,0.91 3.271,1.169 0.866,0.205 2.253,0.422 3.023,0.893 1.981,1.21 0.648,2.425 0.191,4.102 -1.075,3.945 -2.764,7.746 -5.164,11.066 -0.811,1.121 -1.505,3.286 -3.095,2.848 -0.814,-0.225 -1.98,-1.369 -2.643,-1.87 -0.859,-0.649 -1.692,-1.335 -2.519,-2.026 -2.122,-1.774 -3.702,-1.892 -2.833,-3.229 0.393,-0.605 0.825,-1.634 1.182,-2.244 0.534,-0.913 1.095,-1.811 1.636,-2.72 0.487,-0.822 0.945,-1.425 1.285,-2.322 0.017,-0.046 0.352,-0.789 0.366,-0.834"/>
 </g>
</svg>
