<svg xmlns="http://www.w3.org/2000/svg" style="isolation:isolate" width="16" height="16" viewBox="0 0 16 16">
 <path fill="#cdd3e0" d="M 1.346 0.923 C 0.608 0.923 0 1.226 0 2.212 C 0 8.18 0.668 9.231 5.039 9.231 C 1.899 9.231 1.423 11.454 1.73 12.193 C 2.346 13.731 3.685 15.077 4.731 15.077 C 5.127 15.077 7.211 13.906 8 11.327 C 8.788 13.906 10.873 15.077 11.27 15.077 C 12.315 15.077 13.654 13.73 14.27 12.192 C 14.577 11.454 14.101 9.231 10.962 9.231 C 15.331 9.231 16 8.18 16 2.212 C 16 1.226 15.392 0.923 14.654 0.923 C 13.072 0.923 9.109 4.305 8 7.596 C 6.892 4.305 2.928 0.923 1.346 0.923 L 1.346 0.923 Z"/>
</svg>
