<svg xmlns="http://www.w3.org/2000/svg" style="isolation:isolate" width="16" height="16" viewBox="0 0 16 16">
 <path fill="#cdd3e0" d="M 8 14.711 L 5.92 13.697 L 5.92 7.61 L 4.535 8.963 L 3.469 8.443 L 2.08 5.737 L 2.08 11.824 L 0 10.809 L 0 1.289 L 2.08 2.303 L 4 6.049 L 5.92 4.176 L 8 5.191 L 10.08 4.176 L 12 6.049 L 13.92 2.303 L 16 1.289 L 16 10.809 L 13.92 11.824 L 13.92 5.737 L 12.531 8.443 L 11.465 8.963 L 10.08 7.61 L 10.08 13.697 L 8 14.711 Z"/>
</svg>
