<svg xmlns="http://www.w3.org/2000/svg" style="isolation:isolate" width="16" height="16" version="1.1" viewBox="0 0 16 16">
 <defs>
  <clipPath id="_clipPath_M4AmaoOY3wnQsuXY8sUsLf1ozzva695o">
   <rect width="16" height="16"/>
  </clipPath>
 </defs>
 <g clip-path="url(#_clipPath_M4AmaoOY3wnQsuXY8sUsLf1ozzva695o)">
  <g>
   <path d="M 8.701 2.328 C 8.424 2.912 7.904 3.143 7.252 3.117 C 6.323 3.08 5.433 3.608 4.879 4.361 C 4.527 4.84 4.083 5.447 3.426 5.345 C 2.865 5.257 2.219 5.659 2.777 6.194 C 3.167 6.569 3.759 6.538 4.115 6.92 C 4.789 7.644 5.791 7.921 6.75 8.01 C 6.899 9.003 7.448 10.222 8.509 10.366 C 9.469 10.496 8.67 9.391 8.755 8.857 C 8.887 8.04 9.529 8.667 9.914 8.839 C 10.411 9.061 10.928 9.387 11.167 9.878 C 11.589 10.746 10.294 10.279 9.942 10.637 C 9.514 11.072 9.963 11.829 10.419 12.113 C 10.92 12.424 11.338 12.818 11.509 13.413 C 11.659 13.933 11.759 15.342 12.466 14.924 C 13.14 14.525 13.217 13.545 13.303 12.791 C 13.388 12.054 13.326 11.292 13.014 10.605 C 13.825 8.895 13.417 6.79 12.246 5.347 C 11.841 4.847 11.371 4.393 10.821 4.058 C 11.196 3.624 11.284 2.984 11.036 2.494 C 10.742 1.91 11.917 1.087 10.947 1.006 C 10.053 0.931 9.247 1.557 8.743 2.277 C 8.256 2.971 8.728 2.295 8.721 2.304 C 8.714 2.312 8.937 1.832 8.701 2.328 Z" style="fill:#cdd3e0"/>
  </g>
 </g>
</svg>
