<svg xmlns="http://www.w3.org/2000/svg" style="isolation:isolate" width="16" height="16" viewBox="0 0 16 16">
 <defs>
  <clipPath id="_clipPath_I3Ddxpk8RSXBReF4RwGVSnqfX8CFcjG9">
   <rect width="16" height="16"/>
  </clipPath>
 </defs>
 <g clip-path="url(#_clipPath_I3Ddxpk8RSXBReF4RwGVSnqfX8CFcjG9)">
  <rect style="fill:#cdd3e0" fill-opacity="0" width="16" height="16"/>
  <path fill="#cdd3e0" d="M 11.733 0 L 11.733 16 L 14.933 16 L 14.933 0 L 11.733 0 Z M 1.067 4.267 L 1.067 16 L 4.267 16 L 4.267 4.267 L 1.067 4.267 Z M 6.4 8.533 L 6.4 16 L 9.6 16 L 9.6 8.533 L 6.4 8.533 Z"/>
 </g>
</svg>
