<svg xmlns="http://www.w3.org/2000/svg" style="isolation:isolate" width="16" height="16" viewBox="0 0 16 16">
 <path fill="#cdd3e0" d="M 11.500028 9.79295 L 11.500028 0 L 15 2.857191 L 15 2.857191 L 15 13.142923 L 14.301934 13.712764 L 14.30301 13.71427 L 11.500028 16 L 11.500028 16 L 11.500028 16 L 4.499972 6.206935 L 4.499972 16 L 1 13.142923 L 1 2.857191 L 1 2.857191 L 1.69818 2.287234 L 1.697105 2.28573 L 4.499972 0 L 4.499972 0 L 4.499972 0 L 11.500028 9.79295 Z"/>
</svg>
