<svg xmlns="http://www.w3.org/2000/svg" style="isolation:isolate" width="16" height="16" viewBox="0 0 16 16">
 <path fill="#cdd3e0" fill-rule="evenodd" d="M 8 0 C 3.582 0 0 3.582 0 8 C 0 12.418 3.582 16 8 16 C 8.968 15.997 9.927 15.818 10.832 15.472 L 10.4 13.804 C 9.639 14.12 8.824 14.284 8 14.286 C 4.529 14.286 1.714 11.472 1.714 8 C 1.714 6.333 2.377 4.734 3.555 3.555 C 4.734 2.377 6.333 1.714 8 1.714 C 8.825 1.715 9.641 1.879 10.403 2.195 L 10.837 0.523 C 9.931 0.178 8.97 0.001 8 0 L 8 0 Z M 8 2.526 C 4.977 2.526 2.526 4.977 2.526 8 C 2.526 11.023 4.977 13.474 8 13.474 C 8.743 13.473 9.479 13.322 10.162 13.028 L 9.744 11.411 C 9.204 11.687 8.606 11.831 8 11.832 C 6.984 11.832 6.009 11.428 5.291 10.709 C 4.572 9.991 4.168 9.016 4.168 8 C 4.168 6.984 4.572 6.009 5.291 5.291 C 6.009 4.572 6.984 4.168 8 4.168 C 8.607 4.17 9.204 4.315 9.744 4.593 L 10.162 2.979 C 9.479 2.682 8.744 2.529 8 2.526 L 8 2.526 Z M 9.445 5.429 C 8.548 4.926 7.453 4.927 6.556 5.432 L 6.957 6.957 L 5.429 6.555 C 4.926 7.452 4.927 8.547 5.432 9.444 L 6.957 9.043 L 6.555 10.571 C 7.452 11.074 8.547 11.073 9.444 10.568 L 9.043 9.043 L 10.571 9.445 C 11.074 8.548 11.073 7.453 10.568 6.556 L 9.043 6.957 L 9.445 5.429 Z"/>
</svg>
