<svg xmlns="http://www.w3.org/2000/svg" style="isolation:isolate" width="16" height="16" viewBox="0 0 16 16">
 <path fill="#cdd3e0" d="M 2.222 0 L 2.222 7.385 C 2.222 9.023 2.836 10.602 3.873 11.556 L 2.222 14.222 C 3.903 15.517 5.925 16 8 16 C 10.075 16 12.097 15.517 13.778 14.222 L 12.127 11.556 C 13.164 10.602 13.778 9.023 13.778 7.385 L 13.778 0 L 11.556 0 L 11.556 2.954 C 11.091 2.655 10.188 2.089 9.333 1.928 L 9.333 0 L 6.667 0 L 6.667 1.928 C 6.255 2.016 4.909 2.655 4.444 2.954 L 4.444 0 L 2.222 0 Z M 8 4.444 C 9.558 4.444 10.565 5.162 11.556 5.778 L 11.556 8 C 11.556 9.561 9.156 10.94 8 11.556 C 6.844 10.94 4.444 9.561 4.444 8 L 4.444 5.778 C 5.435 5.162 6.442 4.444 8 4.444 Z"/>
</svg>
