<svg xmlns="http://www.w3.org/2000/svg" style="isolation:isolate" width="16" height="16" viewBox="0 0 16 16">
 <defs>
  <clipPath id="_clipPath_AMDRUEaOOjk3hRWtGeQIG4eTbAEoYGZV">
   <rect width="16" height="16"/>
  </clipPath>
 </defs>
 <g clip-path="url(#_clipPath_AMDRUEaOOjk3hRWtGeQIG4eTbAEoYGZV)">
  <rect style="fill:#cdd3e0" fill-opacity="0" width="16" height="16"/>
  <path fill="#cdd3e0" d="M 0.529 0.147 L 1.072 0.555 C -0.651 1.349 3.775 4.977 3.775 4.977 C 3.775 4.977 4.636 4.201 5.898 4.12 C 7.15 2.837 12.359 3.813 12.164 4.866 C 10.413 4.893 9.858 4.67 9.858 4.67 C 9.858 4.67 9.945 4.769 9.981 5.111 C 9.853 5.217 8.042 4.811 7.663 4.84 C 6.586 4.922 5.859 4.949 5.086 5.035 C 5.618 5.21 9.854 5.965 11.209 7.274 C 10.848 7.414 10.69 7.357 10.569 7.401 C 10.463 7.44 10.356 7.656 10.123 7.657 C 9.956 7.658 10.013 7.509 9.668 7.347 C 7.525 7.432 6.829 6.124 6.618 5.964 C 5.672 5.738 4.077 5.227 4.077 5.227 C 4.077 5.227 5.427 6.304 6.167 6.902 C 6.229 6.952 7.244 7.14 8.533 7.769 C 9.227 7.202 11.096 8.165 10.749 9.047 C 10.439 9.833 8.364 9.023 8.44 7.954 C 7.966 7.807 7.091 7.384 6.531 7.182 C 7.068 7.6 9.177 9.358 9.601 9.855 C 11.458 9.627 14.261 10.091 16 11.205 C 15.603 11.31 13.716 11.668 13.338 11.567 C 12.636 11.302 11.589 10.441 11.478 10.345 C 11.074 10.277 10.169 10.147 9.821 10.107 C 10.174 10.465 11.339 11.811 11.705 12.377 C 11.856 12.345 12.629 12.531 12.843 12.677 C 13.637 11.867 14.923 13.287 15.714 13.974 C 15.506 14.395 12.243 13.746 12.679 12.801 C 12.446 12.77 11.979 12.514 11.807 12.5 C 11.983 12.73 12.367 13.043 12.873 13.574 C 13.359 13.435 15.192 15.419 15.241 15.853 C 13.869 15.519 13.192 15.228 12.979 14.98 C 12.56 14.49 12.719 13.787 12.759 13.66 C 12.219 13.178 12.119 13.034 11.943 12.938 C 11.938 12.944 11.943 13.087 11.951 13.157 C 12.838 13.81 12.409 15.618 11.9 15.682 C 11.678 15.71 11.167 13.131 11.805 13.035 C 11.82 12.984 11.828 12.832 11.829 12.826 C 11.492 12.459 9.625 10.473 9.503 10.39 C 9.564 10.546 9.663 10.804 9.754 11.122 C 10.857 11.843 11.039 12.996 10.956 14.351 C 10.692 13.888 8.1 11.779 9.234 10.844 C 9.242 10.699 9.199 10.372 9.294 10.188 C 8.935 9.829 7.816 8.724 7.715 8.725 C 7.84 8.981 7.918 9.128 7.98 9.405 C 8.833 9.83 8.585 10.93 8.197 10.953 C 7.787 10.978 6.88 9.716 7.733 9.448 C 7.664 9.131 7.539 8.699 7.489 8.511 C 7.119 8.229 5.897 7.251 5.615 7.024 C 5.962 7.601 6.3 8.5 6.47 9.015 C 7.492 10.173 7.209 11.964 7.106 13.811 C 5.907 12.921 5.162 9.883 5.925 9.126 C 5.67 8.248 5.286 6.761 5.286 6.761 C 3.637 5.481 2.725 4.522 2.725 4.522 C 2.725 4.522 3.823 5.947 3.948 6.71 C 4.91 6.897 5.714 8.573 4.949 8.859 C 3.831 9.277 2.631 7.503 3.585 6.842 C 3.585 6.842 2.74 5.286 2.086 3.922 C -0.493 1.091 -0.245 0.242 0.529 0.147 L 0.529 0.147 Z"/>
 </g>
</svg>
