<svg xmlns="http://www.w3.org/2000/svg" style="isolation:isolate" width="16" height="16" viewBox="0 0 16 16">
 <path fill="#cdd3e0" fill-rule="evenodd" d="M 8 0 C 3.568 0 0 3.568 0 8 C 0 12.432 3.568 16 8 16 C 12.432 16 16 12.432 16 8 C 16 3.568 12.432 0 8 0 Z M 8 3.429 C 8.909 3.429 9.782 3.91 10.424 4.768 C 11.067 5.625 11.429 6.788 11.429 8 C 11.429 9.213 11.067 10.375 10.424 11.233 C 9.782 12.09 8.909 12.572 8 12.572 C 7.091 12.572 6.219 12.09 5.576 11.233 C 4.933 10.375 4.571 9.213 4.571 8 C 4.571 6.788 4.933 5.625 5.576 4.768 C 6.219 3.91 7.091 3.429 8 3.429 L 8 3.429 Z"/>
</svg>
