<svg xmlns="http://www.w3.org/2000/svg" style="isolation:isolate" width="16" height="16" viewBox="0 0 16 16">
 <path fill="#cdd3e0" d="M 8 0 C 3.585 0.007 0.007 3.585 0 8 C 0.007 12.415 3.585 15.993 8 16 C 12.415 15.993 15.993 12.415 16 8 C 15.993 3.585 12.415 0.007 8 0 L 8 0 Z M 5.846 1.588 C 7.528 1.977 8.997 2.995 9.952 4.433 C 10.146 3.984 10.588 3.693 11.077 3.692 C 11.754 3.692 12.308 4.246 12.308 4.923 C 12.308 5.6 11.754 6.154 11.077 6.154 C 10.951 6.154 10.837 6.116 10.72 6.081 C 10.938 6.736 11.077 7.428 11.077 8.154 C 11.077 11.154 9.12 13.692 6.412 14.577 C 3.371 13.848 1.228 11.127 1.231 8 C 1.231 5.009 3.163 2.481 5.846 1.588 Z M 4.308 4.923 C 3.968 4.923 3.692 5.199 3.692 5.538 C 3.692 5.878 3.968 6.154 4.308 6.154 C 4.648 6.154 4.923 5.878 4.923 5.538 C 4.923 5.199 4.648 4.923 4.308 4.923 Z M 4.923 8.615 C 4.246 8.615 3.692 9.169 3.692 9.846 C 3.692 10.523 4.246 11.077 4.923 11.077 C 5.6 11.077 6.154 10.523 6.154 9.846 C 6.154 9.169 5.6 8.615 4.923 8.615 Z M 12.923 8.615 C 13.263 8.615 13.538 8.891 13.538 9.231 C 13.538 9.571 13.263 9.846 12.923 9.846 C 12.76 9.847 12.603 9.782 12.487 9.667 C 12.372 9.551 12.307 9.394 12.308 9.231 C 12.308 8.89 12.582 8.615 12.923 8.615 Z"/>
</svg>
