<svg xmlns="http://www.w3.org/2000/svg" style="isolation:isolate" width="16" height="16" viewBox="0 0 16 16">
 <path fill="#cdd3e0" fill-rule="evenodd" d="M 8 1.714 C 11.471 1.714 14.286 4.529 14.286 8 C 14.286 11.471 11.471 14.286 8 14.286 C 4.528 14.286 1.714 11.471 1.714 8 C 1.714 4.529 4.528 1.714 8 1.714 L 8 1.714 Z M 8 0 C 3.582 0 0 3.582 0 8 C 0 12.418 3.582 16 8 16 C 12.418 16 16 12.418 16 8 C 16 3.582 12.418 0 8 0 L 8 0 Z M 6.857 6.313 L 9.457 6.313 C 9.944 6.313 10.286 6.758 10.286 7.228 C 10.286 7.697 9.944 8.038 9.457 8.027 L 6.857 8.027 L 6.857 6.313 L 6.857 6.313 Z M 5.771 4 C 5.106 4 4.571 4.521 4.571 5.168 L 4.571 11.402 C 4.571 12.049 5.106 12.571 5.771 12.571 C 6.436 12.571 6.826 12.048 6.857 11.402 L 6.857 10.347 L 9.371 10.347 C 11.139 10.347 12.571 8.952 12.571 7.231 C 12.571 5.51 11.139 4 9.371 4 L 5.771 4 L 5.771 4 Z"/>
</svg>
