<svg xmlns="http://www.w3.org/2000/svg" width="16" height="16" version="1.1" style="enable-background:new">
 <g transform="translate(-618.99999,-286)">
  <path d="m 620.7398,286.5 c -0.68678,0 -1.23981,0.55253 -1.23981,1.23931 v 12.52089 c 0,0.68678 0.55303,1.2398 1.23981,1.2398 h 12.52088 c 0.68679,0 1.23931,-0.55302 1.23931,-1.2398 v -12.52089 c 0,-0.68678 -0.55252,-1.23931 -1.23931,-1.23931 z m 2.41146,1.08548 3.84873,3.84873 3.84872,-3.84873 2.56582,2.56581 -3.84872,3.84873 3.84872,3.84873 -2.56582,2.56581 -3.84872,-3.84873 -3.84873,3.84873 -2.56581,-2.56581 3.84872,-3.84873 -3.84872,-3.84873 z" style="fill:#cdd3e0"/>
 </g>
</svg>
