<svg xmlns="http://www.w3.org/2000/svg" width="16" height="16" version="1">
 <path style="fill:#cdd3e0" d="m 8,3.3e-7 c -0.589478,0 -1.161739,0.067624 -1.714286,0.1875 V 3.8616075 L 3.6875,1.2622772 C 2.7129191,1.8856806 1.8856803,2.7129194 1.2622768,3.6875003 L 3.8616071,6.2857146 H 0.1875 C 0.0676243,6.8382609 0,7.4105226 0,8.0000003 0,8.589478 0.0676243,9.1617397 0.1875,9.714286 H 3.8616071 L 1.2622768,12.3125 c 0.6234035,0.974581 1.4506423,1.80182 2.4252232,2.425223 l 2.598214,-2.59933 V 15.8125 C 6.838261,15.932375 7.410522,16 8,16 8.589478,16 9.161739,15.93238 9.714286,15.8125 v -3.674107 l 2.598214,2.59933 C 13.287081,14.11432 14.11432,13.287081 14.737723,12.3125 L 12.138393,9.714286 H 15.8125 C 15.932375,9.1617397 16,8.589478 16,8.0000003 16,7.4105226 15.93238,6.8382609 15.8125,6.2857146 h -3.674107 l 2.59933,-2.5982143 C 14.11432,2.7129194 13.287081,1.8856806 12.3125,1.2622772 L 9.714286,3.8616075 V 0.18750033 C 9.161739,0.06762463 8.589478,3.3e-7 8,3.3e-7 Z M 4.2857143,5.1428574 H 5.4285714 6.571429 7.714286 V 6.2857146 H 6.571429 V 10.857143 H 5.4285714 V 6.2857146 H 4.2857143 Z m 3.9999997,0 h 1.142857 v 2.2857143 h 1.142858 V 5.1428574 h 1.142857 V 7.4285717 8.5714289 10.857143 H 10.571429 V 8.5714289 H 9.428571 V 10.857143 H 8.285714 V 8.5714289 7.4285717 Z"/>
</svg>
