<svg xmlns="http://www.w3.org/2000/svg" width="16" height="16" version="1.1">
 <g transform="matrix(0.10245552,0,0,0.10245552,-18.223106,-19.758534)" style="fill:#cdd3e0">
  <path d="M 225.512,288.535 V 253.331 L 256,235.729 l 30.488,17.602 v 35.204 L 256,306.138 Z" style="fill:#cdd3e0"/>
  <path d="m 321.936,238.733 -26.403,15.244 -0.402,33.603 26.561,15.835 z" style="fill:#cdd3e0"/>
  <path d="m 190.064,303.134 26.403,-15.244 0.402,-33.603 -26.561,-15.835 z" style="fill:#cdd3e0"/>
  <path d="m 250.919,344.136 v -30.488 l -28.9,-17.149 -26.994,15.085 z" style="fill:#cdd3e0"/>
  <path d="m 316.854,311.935 -26.403,-15.244 -29.302,16.453 -0.433,30.92 z" style="fill:#cdd3e0"/>
  <path d="m 195.146,229.932 26.403,15.244 29.302,-16.453 0.433,-30.92 z" style="fill:#cdd3e0"/>
  <path d="m 261.081,197.731 v 30.488 l 28.9,17.149 26.994,-15.085 z" style="fill:#cdd3e0"/>
 </g>
</svg>
