<svg xmlns="http://www.w3.org/2000/svg" style="isolation:isolate" width="16" height="16" viewBox="0 0 16 16">
 <path fill="#cdd3e0" d="M 6.4 0 L 6.4 0.8 C 6.4 1.438 5.9 2.069 5.7 2.3 C 5.65 2.359 5.65 2.39 5.675 2.375 C 5.896 2.247 7.038 1.6 8 1.6 C 9.203 1.6 9.91 2.09 10.35 2.375 C 10.369 2.387 10.297 2.297 10.275 2.275 C 9.931 1.931 9.6 1.243 9.6 0.8 C 9.6 0.013 8.8 0 8.8 0 L 6.4 0 Z M 8 2.4 C 6.894 2.4 5.9 3.168 5.175 4.4 C 4.519 5.516 4.075 7.006 4 8.675 C 3.994 8.782 3.975 8.813 3.975 8.725 C 3.972 6.569 4.01 5.656 4.8 4 C 4.832 3.872 4.784 3.61 4.575 3.4 C 4.444 3.269 4.31 3.2 4 3.2 C 1.79 3.2 0 5.447 0 9.2 C 0 12.953 1.79 15.2 4 15.2 C 4.684 15.2 4.975 15 5.5 14.5 C 6.175 15.412 7.068 16 8 16 C 8.931 16 9.825 15.413 10.5 14.5 C 11.025 15 11.316 15.2 12 15.2 C 14.21 15.2 16 12.953 16 9.2 C 16 5.447 14.21 3.2 12 3.2 C 11.653 3.2 11.494 3.331 11.425 3.4 C 11.216 3.61 11.169 3.872 11.2 4 C 11.984 5.647 12.003 6.575 12 8.7 C 11.928 7.034 11.503 5.518 10.85 4.4 C 10.125 3.16 9.11 2.4 8 2.4 Z"/>
</svg>
