<svg xmlns="http://www.w3.org/2000/svg" style="isolation:isolate" width="16" height="16" viewBox="0 0 16 16">
 <path fill="#cdd3e0" fill-rule="evenodd" d="M 0.627 2.824 L 3.137 2.824 C 3.483 2.824 3.765 3.08 3.765 3.397 L 3.765 12.601 C 3.765 12.918 3.483 13.176 3.137 13.176 L 0.627 13.176 C 0.282 13.176 0 12.918 0 12.601 L 0 3.397 C 0 3.08 0.282 2.824 0.628 2.824 L 0.627 2.824 Z M 5.298 2.824 C 4.97 2.824 4.706 3.08 4.706 3.397 L 4.706 12.599 C 4.706 12.916 4.97 13.174 5.298 13.174 C 7.081 13.174 8.864 13.176 10.649 13.176 C 13.604 13.176 16 10.858 16 8 C 16 5.141 13.604 2.824 10.649 2.824 L 5.298 2.824 L 5.298 2.824 Z"/>
</svg>
