<svg xmlns="http://www.w3.org/2000/svg" style="isolation:isolate" width="16" height="16" viewBox="0 0 16 16">
 <path fill="#cdd3e0" d="M 7.156 11.213 C 4.292 10.803 2.091 8.34 2.091 5.363 C 2.094 3.056 3.44 0.961 5.538 0 L 5.538 0.121 C 4.017 1 3.078 2.622 3.076 4.378 C 3.076 5.684 3.594 6.937 4.518 7.86 C 5.24 8.582 6.163 9.057 7.156 9.23 L 7.156 6.832 L 6.075 5.87 L 7.038 5.87 L 8.962 5.87 L 9.925 5.87 L 8.844 6.832 L 8.844 9.23 C 9.837 9.057 10.76 8.582 11.482 7.86 C 12.406 6.937 12.924 5.684 12.924 4.378 C 12.922 2.621 11.984 0.998 10.462 0.119 L 10.462 0.004 C 12.559 0.965 13.904 3.057 13.909 5.363 C 13.909 8.34 11.708 10.803 8.844 11.213 L 8.844 13.088 L 8 16 L 7.156 13.088 L 7.156 11.213 Z"/>
</svg>
