<svg xmlns="http://www.w3.org/2000/svg" style="isolation:isolate" width="16" height="16" viewBox="0 0 16 16">
 <path fill="#cdd3e0" fill-rule="evenodd" d="M 6.286 5.143 L 9.714 5.143 L 11.2 8 L 9.714 10.857 L 6.286 10.857 L 4.8 8 L 6.286 5.143 L 6.286 5.143 Z M 3.921 10.436 C 1.562 9.953 0 9.041 0 8 C 0 6.957 1.569 6.043 3.917 5.548 C 3.213 3.143 3.252 1.237 4.165 0.711 C 5.039 0.208 6.504 1.087 7.997 2.849 C 9.494 1.088 10.96 0.208 11.835 0.711 C 12.75 1.238 12.788 3.151 12.079 5.564 C 14.438 6.047 16 6.959 16 8 C 16 9.043 14.431 9.957 12.083 10.452 C 12.787 12.857 12.748 14.763 11.835 15.289 C 10.961 15.792 9.496 14.913 8.003 13.152 C 6.506 14.912 5.04 15.793 4.165 15.289 C 3.249 14.762 3.212 12.849 3.921 10.436 L 3.921 10.436 Z M 6.571 8 C 6.571 7.212 7.212 6.571 8 6.571 C 8.788 6.571 9.429 7.212 9.429 8 C 9.429 8.788 8.788 9.429 8 9.429 C 7.212 9.429 6.571 8.788 6.571 8 Z"/>
</svg>
