<svg xmlns="http://www.w3.org/2000/svg" style="isolation:isolate" width="16" height="16" viewBox="0 0 16 16">
 <path fill="#cdd3e0" fill-rule="evenodd" d="M 10 6.667 L 10 8.333 L 11.667 8.333 L 11.667 6.667 L 10 6.667 L 10 6.667 L 10 6.667 Z M 4.667 3.667 L 6 5.667 L 3.333 5.667 L 3 7 L 1.5 7 L 2 5 L 1 5 L 0 9 L 0.941 9 L 2.4 9 L 2 10.333 L 4.333 10.333 L 2.667 12.333 L 4.667 12.333 L 6 10.333 L 10 10.333 L 11.333 12.333 L 13.333 12.333 L 11.667 10.333 L 14 10.333 L 13.6 9 L 16 9 L 15 5 L 14 5 L 14.5 7 L 13 7 L 12.667 5.667 L 10 5.667 L 11.333 3.667 L 10.333 3.667 L 9 5.667 L 7 5.667 L 5.667 3.667 L 4.667 3.667 L 4.667 3.667 L 4.667 3.667 Z M 4.333 6.667 L 4.333 8.333 L 6 8.333 L 6 6.667 L 4.333 6.667 Z"/>
</svg>
