<svg xmlns="http://www.w3.org/2000/svg" width="16" height="16" version="1.1">
 <path d="m 4.0000302,15.500061 c -2,0 -2,-2 -2,-2 V 2.5000616 c 0,-1.99999993 1.89327,-1.99636993 2,-1.99999993 H 12.00003 c 0,0 2,0.004 2,1.99999993 V 13.500061 c 0,2 -2,2 -2,2 z m 6.9999998,-0.75 c 0.69036,0 1.25,-0.55964 1.25,-1.25 0,-0.69036 -0.55964,-1.25 -1.25,-1.25 -0.69036,0 -1.2499998,0.55964 -1.2499998,1.25 0,0.69036 0.5596398,1.25 1.2499998,1.25 z m -2.9999998,-4.25 c 2.2091398,0 3.9999998,-1.7908596 3.9999998,-3.9999994 0,-2.20914 -1.79086,-4 -3.9999998,-4 -2.20914,0 -4,1.79086 -4,4 0,2.2091398 1.79086,3.9999994 4,3.9999994 z m 0,-1.9999996 c -1.10457,0 -2,-0.89543 -2,-1.9999998 0,-1.10457 0.89543,-2 2,-2 1.10457,0 1.9999998,0.89543 1.9999998,2 0,1.1045698 -0.8954298,1.9999998 -1.9999998,1.9999998 z" style="fill:#cdd3e0"/>
</svg>
