<svg xmlns="http://www.w3.org/2000/svg" style="isolation:isolate" width="16" height="16" viewBox="0 0 16 16">
 <path fill="#cdd3e0" fill-rule="evenodd" d="M -0.031 12.5 L 15.969 12.5 L 15.969 14.5 L -0.031 14.5 L -0.031 12.5 Z"/>
 <path fill="#cdd3e0" fill-rule="evenodd" d="M 1.634 10.33 L 0.103 10.33 L 0.103 1.4 L 4.058 1.4 L 4.058 1.4 Q 5.602 1.4 6.297 2.165 L 6.297 2.165 L 6.297 2.165 Q 6.992 2.931 6.992 4.117 L 6.992 4.117 L 6.992 4.117 Q 6.992 4.946 6.52 5.674 L 6.52 5.674 L 6.52 5.674 Q 6.048 6.401 5.155 6.669 L 5.155 6.669 L 6.941 10.33 L 5.219 10.33 L 3.497 6.835 L 1.634 6.835 L 1.634 10.33 Z M 1.634 2.854 L 1.634 5.38 L 4.084 5.38 L 4.084 5.38 Q 4.772 5.38 5.091 5.023 L 5.091 5.023 L 5.091 5.023 Q 5.41 4.666 5.41 4.117 L 5.41 4.117 L 5.41 4.117 Q 5.41 3.581 5.104 3.218 L 5.104 3.218 L 5.104 3.218 Q 4.798 2.854 4.084 2.854 L 4.084 2.854 L 1.634 2.854 Z M 8.842 10.33 L 8.842 1.4 L 11.598 1.4 L 11.598 1.4 Q 12.503 1.4 13.243 1.655 L 13.243 1.655 L 13.243 1.655 Q 13.983 1.91 14.468 2.331 L 14.468 2.331 L 14.468 2.331 Q 14.953 2.752 15.278 3.333 L 15.278 3.333 L 15.278 3.333 Q 15.603 3.913 15.75 4.545 L 15.75 4.545 L 15.75 4.545 Q 15.897 5.176 15.897 5.865 L 15.897 5.865 L 15.897 5.865 Q 15.897 6.503 15.763 7.115 L 15.763 7.115 L 15.763 7.115 Q 15.629 7.728 15.303 8.321 L 15.303 8.321 L 15.303 8.321 Q 14.978 8.914 14.493 9.354 L 14.493 9.354 L 14.493 9.354 Q 14.009 9.794 13.25 10.062 L 13.25 10.062 L 13.25 10.062 Q 12.491 10.33 11.546 10.33 L 11.546 10.33 L 8.842 10.33 Z M 10.373 8.888 L 11.763 8.888 L 11.763 8.888 Q 12.439 8.888 12.956 8.621 L 12.956 8.621 L 12.956 8.621 Q 13.473 8.353 13.76 7.9 L 13.76 7.9 L 13.76 7.9 Q 14.047 7.447 14.181 6.937 L 14.181 6.937 L 14.181 6.937 Q 14.315 6.426 14.315 5.865 L 14.315 5.865 L 14.315 5.865 Q 14.315 4.615 13.702 3.728 L 13.702 3.728 L 13.702 3.728 Q 13.09 2.842 11.904 2.842 L 11.904 2.842 L 10.373 2.842 L 10.373 8.888 Z"/>
</svg>
