<svg xmlns="http://www.w3.org/2000/svg" width="16" height="16" version="1.1">
 <g transform="matrix(0.08428658,0,0,0.08428658,-2.208544,-0.8452192)" style="fill:#cdd3e0">
  <path d="m 117.13494,43.175306 a 84.999999,60.208389 0 0 0 -85.000002,60.208334 84.999999,60.208389 0 0 0 85.000002,60.20832 84.999999,60.208389 0 0 0 85,-60.20832 84.999999,60.208389 0 0 0 -85,-60.208334 z m 14.16667,21.249999 A 63.750003,38.958371 0 0 1 195.0516,103.38364 63.750003,38.958371 0 0 1 131.30161,142.34196 63.750003,38.958371 0 0 1 67.551604,103.38364 63.750003,38.958371 0 0 1 131.30161,64.425305 Z" style="opacity:0.2;fill:#cdd3e0"/>
 </g>
 <g transform="matrix(0.08428658,0,0,0.08428658,-3.124323,-2.4627893)" style="font-size:139.80078125px;line-height:1.25;letter-spacing:0px;word-spacing:0px;fill:#cdd3e0">
  <path d="m 114.88498,89.314846 h 30.92273 v 37.817204 l 32.4245,-37.817204 h 41.09378 l -36.45196,37.748944 38.09025,62.32329 h -38.09025 l -21.09299,-41.16204 -15.97333,16.72421 v 24.43783 h -30.92273 z" style="fill:#cdd3e0"/>
 </g>
</svg>
