<svg xmlns="http://www.w3.org/2000/svg" style="isolation:isolate" width="16" height="16" viewBox="0 0 16 16">
 <path fill="#cdd3e0" fill-rule="evenodd" d="M -0.031 12.5 L 15.969 12.5 L 15.969 14.5 L -0.031 14.5 L -0.031 12.5 Z"/>
 <path fill="#cdd3e0" fill-rule="evenodd" d="M 1.452 9.872 L 0 9.872 L 0 1.4 L 3.752 1.4 L 3.752 1.4 Q 5.216 1.4 5.876 2.126 L 5.876 2.126 L 5.876 2.126 Q 6.536 2.852 6.536 3.978 L 6.536 3.978 L 6.536 3.978 Q 6.536 4.765 6.088 5.454 L 6.088 5.454 L 6.088 5.454 Q 5.64 6.144 4.793 6.398 L 4.793 6.398 L 6.487 9.872 L 4.853 9.872 L 3.219 6.556 L 1.452 6.556 L 1.452 9.872 Z M 1.452 2.78 L 1.452 5.176 L 3.776 5.176 L 3.776 5.176 Q 4.43 5.176 4.732 4.837 L 4.732 4.837 L 4.732 4.837 Q 5.035 4.498 5.035 3.978 L 5.035 3.978 L 5.035 3.978 Q 5.035 3.47 4.744 3.125 L 4.744 3.125 L 4.744 3.125 Q 4.454 2.78 3.776 2.78 L 3.776 2.78 L 1.452 2.78 Z M 16 1.4 L 16 9.872 L 14.548 9.872 L 14.548 5.37 L 14.548 5.37 Q 14.548 4.813 14.596 4.353 L 14.596 4.353 L 14.596 4.353 Q 14.451 4.789 14.209 5.394 L 14.209 5.394 L 12.151 10.017 L 10.094 5.37 L 10.094 5.37 Q 9.876 4.886 9.694 4.353 L 9.694 4.353 L 9.694 4.353 Q 9.743 4.813 9.743 5.37 L 9.743 5.37 L 9.743 9.872 L 8.29 9.872 L 8.29 1.4 L 9.755 1.4 L 11.933 6.374 L 11.933 6.374 Q 12.067 6.713 12.163 7.004 L 12.163 7.004 L 12.163 7.004 Q 12.26 6.713 12.393 6.374 L 12.393 6.374 L 14.584 1.4 L 16 1.4 Z"/>
</svg>
