<svg xmlns="http://www.w3.org/2000/svg" width="16" height="16" version="1.1">
 <g label="status" transform="translate(-293.00021,135)">
  <path d="m 301.0002,-134.73828 c 0,0 -1.6364,2.73828 -6,2.73828 0,9.30952 6,12.59375 6,12.59375 0,0 6,-3.28423 6,-12.59375 -4.3636,0 -6,-2.73828 -6,-2.73828 z m 0,1.38672 c 0.2717,0.31199 0.25698,0.41895 0.78125,0.79492 0.91138,0.65362 2.36191,1.19015 4.15234,1.39062 -0.17355,3.94342 -1.43861,6.64197 -2.73047,8.35157 -0.98149,1.29891 -1.73996,1.87837 -2.20312,2.19336 -0.46316,-0.31499 -1.22161,-0.89445 -2.20313,-2.19336 -1.29183,-1.7096 -2.55691,-4.40815 -2.73046,-8.35157 1.79043,-0.20047 3.24096,-0.737 4.15234,-1.39062 0.52457,-0.37619 0.50954,-0.48285 0.78125,-0.79492 z" style="fill:#cdd3e0"/>
 </g>
</svg>
