<svg xmlns="http://www.w3.org/2000/svg" width="16" height="16" version="1.1">
 <g label="status" transform="translate(-333.00021,96)">
  <path d="m 340.99629,-94.99805 -0.002,0.002 -0.002,0.002 c -0.84339,1.81 -1.49468,3.65486 -1.86523,4.78516 -1.21897,10e-4 -3.22708,0.0466 -5.14063,0.29492 l 0.002,0.002 v 0.002 l 0.002,0.002 v 0.002 c 1.46077,1.36145 3.01412,2.55023 3.97461,3.25195 -0.37586,1.15956 -0.95348,3.08375 -1.30859,4.98047 h 0.002 0.002 0.002 0.002 c 1.74632,-0.96862 3.3581,-2.07875 4.32227,-2.77539 0.98669,0.71581 2.64001,1.85945 4.33398,2.7832 v -0.002 -0.002 -0.002 l 0.002,-0.002 c -0.38157,-1.96018 -0.9401,-3.8365 -1.30469,-4.96875 0.9857,-0.71722 2.58245,-1.93425 3.98437,-3.25976 l -0.002,-0.0021 h -0.002 l -0.002,-0.002 v -0.002 c -1.98208,-0.24282 -3.93743,-0.2918 -5.12695,-0.29492 -0.37742,-1.15878 -1.04412,-3.05264 -1.87109,-4.79493 z m 0.002,2.74219 c 7.1e-4,0.002 0.001,0.004 0.002,0.006 v 6.57422 l -0.0117,-0.008 -0.58593,0.42382 c -0.47618,0.34406 -1.39658,0.8872 -2.13086,1.36719 0.23257,-0.85452 0.45844,-1.87904 0.64453,-2.45312 l 0.22265,-0.6875 -0.58398,-0.42774 c -0.47446,-0.34663 -1.27549,-1.05353 -1.95898,-1.60351 0.88455,-0.0429 1.92963,-0.14404 2.5332,-0.14453 l 0.72265,-0.002 0.22657,-0.6875 c 0.183,-0.55818 0.60815,-1.53769 0.91992,-2.35742 z" style="fill:#cdd3e0"/>
 </g>
</svg>
