<svg xmlns="http://www.w3.org/2000/svg" style="isolation:isolate" width="16" height="16" viewBox="0 0 16 16">
 <path fill="#cdd3e0" d="M 16 0.282 L 0 8.841 L 5.038 10.497 L 12.484 4.202 L 6.968 11.155 L 9.84 12.103 L 12.875 13.082 L 16 0.282 Z M 6.599 12.42 L 6.588 15.718 L 8.336 13.013 L 7.776 12.808 L 6.599 12.42 Z"/>
</svg>
