<svg xmlns="http://www.w3.org/2000/svg" width="16" height="16" version="1.1">
 <g transform="translate(-122.99995,-175)">
  <path d="M 133.4398,177.02362 V 175.5 h -9.43985 v 11.69216 h 3.97467 l -0.92742,-3.24598 h -2.11983 v -7.45251 h 7.48564 v 0.79493 z" style="fill:#cdd3e0"/>
  <path d="m 127.01984,179.69641 2.89481,10.80359 8.72246,-2.33717 -2.89482,-10.80359 z m 1.10296,0.68853 6.91675,-1.85334 1.84514,6.88615 -6.91675,1.85334 z" style="fill:#cdd3e0"/>
 </g>
</svg>
