<svg xmlns="http://www.w3.org/2000/svg" version="1.1" viewBox="0 0 16 16">
 <defs>
  <style id="current-color-scheme" type="text/css">
   .ColorScheme-Text { color:#cdd3e0; }
  </style>
 </defs>
 <g style="fill:currentColor" class="ColorScheme-Text" transform="matrix(0.07361963,0,0,0.07361963,0.67484662,-43.570551)">
  <path style="solid-color:#cdd3e0;fill:currentColor" class="ColorScheme-Text" d="m 99.5,598.625 c -56.240404,0 -101.875,45.6346 -101.875,101.875 0,56.2404 45.634596,101.875 101.875,101.875 56.2404,0 101.875,-45.6346 101.875,-101.875 0,-56.2404 -45.6346,-101.875 -101.875,-101.875 z m 0,4 c 54.07864,0 97.875,43.79636 97.875,97.875 0,54.07864 -43.79636,97.875 -97.875,97.875 -54.078643,0 -97.875,-43.79636 -97.875,-97.875 0,-54.07864 43.796357,-97.875 97.875,-97.875 z"/>
  <path style="solid-color:#cdd3e0;fill:currentColor" class="ColorScheme-Text" d="m 97.5,600.625 c 3e-6,61.09164 -32.587229,117.53426 -85.494141,148.08008 l 2,3.46484 c 52.906909,-30.54582 118.081371,-30.54582 170.988281,0 l 2,-3.46484 C 134.08723,718.15926 101.5,661.71664 101.5,600.625 Z m 2,25.93555 c 6.55229,43.72103 29.44602,83.37302 64.0332,110.9082 -41.13961,-16.18583 -86.926792,-16.18583 -128.066403,0 C 70.053978,709.93357 92.947707,670.28158 99.5,626.56055 Z"/>
 </g>
</svg>
