<svg xmlns="http://www.w3.org/2000/svg" style="isolation:isolate" width="16" height="16" viewBox="0 0 16 16">
 <path fill="#cdd3e0" fill-rule="evenodd" d="M 7.968 0 L 7.968 12.379 C 7.604 11.859 6.121 11.78 5.082 12.353 C 3.851 13.032 3.289 14.305 3.826 15.197 C 4.364 16.09 5.797 16.265 7.029 15.586 C 7.768 15.179 8.261 14.556 8.425 13.931 C 8.5 13.587 8.456 13.409 8.451 13.168 L 8.451 4.422 C 13.854 5.791 11.361 10.536 10.874 12.212 C 15.314 6.149 8.511 3.676 8.451 0 L 7.968 0 Z"/>
</svg>
