<svg xmlns="http://www.w3.org/2000/svg" style="isolation:isolate" width="16" height="16" viewBox="0 0 16 16">
 <path fill="#cdd3e0" d="M 0 9.333 L 2.667 9.333 L 2.667 4 L 16 4 L 16 6.667 L 13.333 6.667 L 13.333 12 L 10.667 12 L 10.667 6.667 L 5.333 6.667 L 5.333 12 L 0 12 L 0 9.333 Z"/>
</svg>
