<svg xmlns="http://www.w3.org/2000/svg" style="isolation:isolate" width="16" height="16" viewBox="0 0 16 16">
 <g opacity=".4">
  <path fill="#cdd3e0" fill-rule="evenodd" d="M 4.883 1.57 C 4.557 1.57 4.293 1.828 4.293 2.147 C 4.293 4.764 3.799 6.669 3.292 7.434 C 3.004 7.867 2.785 8.096 2.439 8.258 C 2.094 8.421 1.483 8.521 0.59 8.521 C 0.264 8.521 0 8.78 0 9.098 L 0 13.82 C 0 14.138 0.264 14.397 0.59 14.397 C 3.806 14.397 6.724 13.004 8.324 10.592 C 9.895 8.223 10.307 5.35 10.307 2.147 C 10.307 1.828 10.043 1.57 9.717 1.57 L 4.883 1.57 Z"/>
 </g>
 <path fill="#cdd3e0" d="M 4.834 1.603 C 4.63 1.603 4.441 1.709 4.332 1.882 C 4.224 2.055 4.213 2.271 4.302 2.455 L 9.941 14.096 C 10.04 14.3 10.247 14.43 10.474 14.43 L 15.408 14.43 C 15.612 14.43 15.801 14.325 15.91 14.152 C 16.018 13.979 16.03 13.763 15.941 13.579 L 10.302 1.937 C 10.203 1.733 9.996 1.603 9.769 1.603 L 4.834 1.603 Z"/>
</svg>
