<svg xmlns="http://www.w3.org/2000/svg" style="isolation:isolate" width="16" height="16" viewBox="0 0 16 16">
 <defs>
  <clipPath id="_clipPath_RV36lnoQPOaSLbVqyaXHbPWO3BtvopSS">
   <rect width="16" height="16"/>
  </clipPath>
 </defs>
 <g clip-path="url(#_clipPath_RV36lnoQPOaSLbVqyaXHbPWO3BtvopSS)">
  <rect style="fill:#cdd3e0" fill-opacity="0" width="16" height="16"/>
  <path fill="#cdd3e0" d="M 14.676 0.071 L 0.071 14.676 C 0.151 14.978 0.311 15.253 0.524 15.476 C 0.747 15.689 1.022 15.849 1.324 15.929 L 15.938 1.324 C 15.769 0.711 15.289 0.231 14.676 0.071 Z M 7.893 0 L 0 7.893 L 0 10.409 L 10.409 0 L 7.893 0 Z M 1.778 0 C 0.8 0 0 0.8 0 1.778 L 0 3.556 L 3.556 0 L 1.778 0 Z M 14.222 16 C 14.711 16 15.156 15.804 15.476 15.476 C 15.804 15.156 16 14.711 16 14.222 L 16 12.444 L 12.444 16 L 14.222 16 Z M 5.591 16 L 8.107 16 L 16 8.107 L 16 5.591 L 5.591 16 Z"/>
 </g>
</svg>
