<svg xmlns="http://www.w3.org/2000/svg" style="isolation:isolate" width="16" height="16" viewBox="0 0 16 16">
 <path fill="#cdd3e0" d="M 0.889 1.714 L 0.889 4.444 L 7.111 8.119 L 0.889 11.556 L 0.889 14.286 L 3.736 16 L 15.111 9.692 L 15.111 6.421 L 3.532 0 L 0.889 1.714 Z"/>
</svg>
