<svg xmlns="http://www.w3.org/2000/svg" style="isolation:isolate" width="16" height="16" viewBox="0 0 16 16">
 <path fill="#cdd3e0" d="M 6.28 12.211 L 0.627 12.211 L 4.8 8.115 L 2.266 8.115 L 6.464 4.019 L 3.904 4.019 L 8 0 L 12.019 4.019 L 9.638 4.019 L 13.734 8.115 L 11.277 8.115 L 15.373 12.211 L 9.72 12.211 L 9.72 16 L 6.28 16 L 6.28 12.211 Z"/>
</svg>
