<svg xmlns="http://www.w3.org/2000/svg" style="isolation:isolate" width="16" height="16" viewBox="0 0 16 16">
 <path fill="#cdd3e0" d="M 2.537 9.366 L 8 15.61 L 13.463 9.366 L 10.342 9.367 L 10.342 7.024 C 10.342 7.805 9.561 7.805 9.561 7.805 C 9.561 7.805 8.78 7.805 8.78 7.024 C 8.78 6.244 8 6.244 8 6.244 C 8 6.244 7.22 6.244 7.22 7.024 C 7.22 7.805 6.439 7.805 6.439 7.805 C 6.439 7.805 5.658 7.805 5.658 7.024 L 5.658 9.366 L 2.537 9.366 Z"/>
 <g opacity=".2">
  <path fill="#cdd3e0" d="M 8 0 C 8 0 7.22 0 7.22 0.78 C 7.22 1.561 6.439 1.561 6.439 1.561 C 6.439 1.561 5.658 1.562 5.658 0.78 L 5.658 11.707 L 10.342 11.707 L 10.342 0.78 C 10.342 1.561 9.561 1.561 9.561 1.561 C 9.561 1.561 8.78 1.561 8.78 0.78 C 8.78 0 8 0 8 0 Z"/>
 </g>
 <g opacity=".5">
  <path fill="#cdd3e0" d="M 6.439 3.122 C 6.439 3.122 5.658 3.121 5.658 3.902 L 5.658 8.585 L 10.342 8.585 L 10.342 3.902 C 10.342 3.122 9.561 3.122 9.561 3.122 C 9.561 3.122 8.78 3.122 8.78 3.902 C 8.78 4.683 8 4.683 8 4.683 C 8 4.683 7.22 4.683 7.22 3.902 C 7.22 3.122 6.439 3.122 6.439 3.122 Z"/>
 </g>
</svg>
