<svg xmlns="http://www.w3.org/2000/svg" style="isolation:isolate" width="16" height="16" viewBox="0 0 16 16">
 <path fill="#cdd3e0" d="M 8 1.231 C 7.431 1.231 6.936 1.621 6.804 2.174 C 6.671 2.728 6.935 3.3 7.442 3.558 L 4.923 8.615 L 2.173 6.327 C 2.359 6.106 2.461 5.827 2.462 5.538 C 2.462 4.859 1.911 4.308 1.231 4.308 C 0.551 4.308 0 4.859 0 5.538 C 0 6.218 0.551 6.769 1.231 6.769 C 1.315 6.769 1.401 6.767 1.481 6.75 L 2.519 11.692 L 13.481 11.692 L 14.519 6.75 C 14.599 6.767 14.686 6.769 14.769 6.769 C 15.449 6.769 16 6.218 16 5.538 C 16 4.859 15.449 4.308 14.769 4.308 C 14.089 4.308 13.538 4.859 13.538 5.538 C 13.539 5.827 13.641 6.106 13.827 6.327 L 11.077 8.615 L 8.558 3.558 C 9.065 3.3 9.329 2.728 9.196 2.174 C 9.064 1.621 8.569 1.231 8 1.231 Z M 2.462 12.923 L 2.462 13.846 C 2.462 14.356 2.875 14.769 3.385 14.769 L 12.615 14.769 C 13.125 14.769 13.538 14.356 13.538 13.846 L 13.538 12.923 L 2.462 12.923 Z"/>
</svg>
