<svg xmlns="http://www.w3.org/2000/svg" width="16" height="16" version="1.1">
 <path d="m 4.0625,0.5 c -0.554,0 -1,0.446 -1,1 0,0.554 0.446,1 1,1 h 3.03125 l -0.0625,4 H 2.875 L 1,14.5 v 1 H 15.0625 V 14.5625 L 13.3125,6.5 h -4.25 v 3 h 2 L 8.09375,12.5625 5.0625,9.5 h 1.96875 l 0.0625,-3 H 9.0625 v -4 h 3 c 0.554,0 1,-0.446 1,-1 0,-0.554 -0.446,-1 -1,-1 z" style="fill:#cdd3e0;fill-rule:evenodd"/>
</svg>
