<svg xmlns="http://www.w3.org/2000/svg" width="16" height="16" version="1.1">
 <path style="fill:#cdd3e0" d="M 8.1434427,0.5 1.75,4.1885118 V 5.6410927 L 9.1978653,1.1083024 Z M 13.513926,3.5982679 1.75,10.757944 v 1.053545 L 8.1434427,15.5 14.536883,11.811489 V 4.1885118 Z"/>
</svg>
