<svg xmlns="http://www.w3.org/2000/svg" style="isolation:isolate" width="16" height="16" viewBox="0 0 16 16">
 <path fill="#cdd3e0" fill-rule="evenodd" d="M 8.786 0 L 8.786 0 Q 11.898 0 13.438 1.415 L 13.438 1.415 L 13.438 1.415 Q 14.978 2.829 14.978 5.69 L 14.978 5.69 L 14.978 5.69 Q 14.978 6.287 14.947 6.601 L 14.947 6.601 L 14.35 14.114 L 14.35 14.114 Q 14.287 14.994 13.768 15.466 L 13.768 15.466 L 13.768 15.466 Q 13.25 15.937 12.369 15.937 L 12.369 15.937 L 12.369 15.937 Q 11.552 15.937 11.065 15.418 L 11.065 15.418 L 11.065 15.418 Q 10.578 14.9 10.64 14.083 L 10.64 14.083 L 10.672 13.485 L 10.672 13.485 Q 10.043 14.68 8.912 15.34 L 8.912 15.34 L 8.912 15.34 Q 7.78 16 6.334 16 L 6.334 16 L 6.334 16 Q 4.825 16 3.615 15.418 L 3.615 15.418 L 3.615 15.418 Q 2.405 14.837 1.713 13.815 L 1.713 13.815 L 1.713 13.815 Q 1.022 12.794 1.022 11.505 L 1.022 11.505 L 1.022 11.505 Q 1.022 9.745 1.917 8.692 L 1.917 8.692 L 1.917 8.692 Q 2.813 7.639 4.794 7.151 L 4.794 7.151 L 4.794 7.151 Q 6.774 6.664 10.075 6.664 L 10.075 6.664 L 11.206 6.664 L 11.238 6.067 L 11.238 6.067 Q 11.363 4.495 10.64 3.741 L 10.64 3.741 L 10.64 3.741 Q 9.917 2.986 8.346 2.986 L 8.346 2.986 L 8.346 2.986 Q 6.491 2.986 4.102 4.212 L 4.102 4.212 L 4.102 4.212 Q 3.694 4.401 3.316 4.401 L 3.316 4.401 L 3.316 4.401 Q 2.75 4.401 2.373 4.008 L 2.373 4.008 L 2.373 4.008 Q 1.996 3.615 1.996 3.049 L 1.996 3.049 L 1.996 3.049 Q 1.996 2.64 2.248 2.216 L 2.248 2.216 L 2.248 2.216 Q 2.499 1.792 2.971 1.509 L 2.971 1.509 L 2.971 1.509 Q 4.102 0.817 5.642 0.409 L 5.642 0.409 L 5.642 0.409 Q 7.183 0 8.786 0 L 8.786 0 Z M 7.34 13.171 L 7.34 13.171 Q 8.817 13.171 9.839 12.118 L 9.839 12.118 L 9.839 12.118 Q 10.861 11.065 10.986 9.43 L 10.986 9.43 L 11.049 8.739 L 10.169 8.739 L 10.169 8.739 Q 8.157 8.739 7.01 8.959 L 7.01 8.959 L 7.01 8.959 Q 5.862 9.179 5.36 9.697 L 5.36 9.697 L 5.36 9.697 Q 4.857 10.216 4.857 11.096 L 4.857 11.096 L 4.857 11.096 Q 4.857 12.039 5.532 12.605 L 5.532 12.605 L 5.532 12.605 Q 6.208 13.171 7.34 13.171 L 7.34 13.171 Z"/>
</svg>
