<svg xmlns="http://www.w3.org/2000/svg" style="isolation:isolate" width="16" height="16" viewBox="0 0 16 16">
 <path fill="#cdd3e0" fill-rule="evenodd" d="M 1.905 0 L 1.143 3.048 L 1.143 14.476 L 4.19 14.476 L 4.19 16 L 5.714 16 L 7.238 14.476 L 9.524 14.476 L 14.857 9.143 L 14.857 0 L 1.905 0 Z M 3.429 0.762 L 14.095 0.762 L 14.095 8.762 L 12.19 10.667 L 8 10.667 L 5.714 12.952 L 5.714 10.667 L 3.429 10.667 L 3.429 0.762 Z M 6.476 3.048 L 6.476 7.619 L 8 7.619 L 8 3.048 L 6.476 3.048 Z M 10.286 3.048 L 10.286 7.619 L 11.81 7.619 L 11.81 3.048 L 10.286 3.048 Z"/>
</svg>
