<svg xmlns="http://www.w3.org/2000/svg" width="16" height="16" version="1.1" viewBox="0 0 16 16">
 <defs>
  <style id="current-color-scheme" type="text/css">
   .ColorScheme-Text { color:#cdd3e0; } .ColorScheme-Highlight { color:#cdd3e0; } .ColorScheme-ButtonBackground { color:#cdd3e0; }
  </style>
 </defs>
 <path style="fill:currentColor" class="ColorScheme-Text" d="m 1,1.0000003 v 5.6 h 5.6 v -5.6 z m 8.4,0 v 5.6 H 15 v -5.6 z m -8.4,8.4 V 15 H 6.6 V 9.4000003 Z m 8.4,0 V 15 H 15 V 9.4000003 Z"/>
</svg>
