<svg xmlns="http://www.w3.org/2000/svg" width="16" height="16" version="1.1">
 <g label="status" transform="translate(-1013.0002,147)">
  <path d="m 1021.0002,-144 c -2.7614,0 -5,2.23858 -5,5 0,2.76142 2.2386,5 5,5 2.7614,0 5,-2.23858 5,-5 0,-2.76142 -2.2386,-5 -5,-5 z m 0,1 v 8 c -2.2091,0 -4,-1.79086 -4,-4 0,-2.20914 1.7909,-4 4,-4 z" style="fill:#cdd3e0"/>
  <path d="m 1021.5002,-147 -1.0002,4.3e-4 3e-4,2.00001 1,-1.5e-4 z m 4.8032,1.98995 -1.4144,1.41401 0.707,0.70721 1.4145,-1.41402 z m -10.606,-2.1e-4 -0.7073,0.70702 1.4141,1.41441 0.7072,-0.70701 z m 13.3024,5.51005 -2,2.8e-4 10e-5,1.00001 2,-2.9e-4 z m -13.9993,1.3e-4 -2,2.9e-4 10e-5,1 2,-2.8e-4 z m 10.5957,4.38891 -0.7072,0.70701 1.414,1.41442 0.7073,-0.70702 z m -9.1918,0 -1.4145,1.41402 0.7071,0.7072 1.4144,-1.41401 z m 5.0957,2.11073 -1,1.5e-4 3e-4,2 1,-1.4e-4 z" style="fill:#cdd3e0"/>
 </g>
</svg>
