<svg xmlns="http://www.w3.org/2000/svg" width="16" height="16" version="1.1">
 <g transform="translate(-412.00004,-120)">
  <path d="M 420,121.33398 416.5,125 h -2.62891 c 0,0 -0.87109,0.89365 -0.87109,3.00195 0,2.10835 0.87109,2.99805 0.87109,2.99805 H 416.5 l 3.5,3.66602 z m -1,2.49414 v 8.34376 L 416.92773,130 h -2.51367 c -0.032,-0.0589 -0.0209,-0.0155 -0.0664,-0.11719 C 414.18513,129.51972 414,128.91852 414,128.00195 c 0,-0.91654 0.18493,-1.52071 0.34766,-1.88476 0.0454,-0.10157 0.0343,-0.0581 0.0664,-0.11719 h 2.51367 z" style="fill:#cdd3e0"/>
  <path d="m 422.52416,124.92601 -0.70703,0.70703 0.35351,0.35352 c 0.56275,0.56274 0.87891,1.32525 0.87891,2.12109 0,0.79584 -0.31616,1.55835 -0.87891,2.12109 l -0.35351,0.35352 0.70703,0.70703 0.35351,-0.35352 c 0.75001,-0.75 1.17188,-1.76745 1.17188,-2.82812 0,-1.06067 -0.42187,-2.07812 -1.17188,-2.82812 z" style="solid-color:#cdd3e0;fill:#cdd3e0"/>
  <path d="m 424.64525,122.80492 -0.70703,0.70703 0.35352,0.35351 c 1.12535,1.12536 1.75781,2.6507 1.75781,4.24219 0,1.59149 -0.63246,3.11683 -1.75781,4.24219 l -0.35352,0.35351 0.70703,0.70703 0.35352,-0.35351 c 1.31262,-1.31262 2.05078,-3.0929 2.05078,-4.94922 0,-1.85632 -0.73816,-3.6366 -2.05078,-4.94922 z" style="solid-color:#cdd3e0;fill:#cdd3e0"/>
 </g>
</svg>
