<svg xmlns="http://www.w3.org/2000/svg" style="isolation:isolate" width="16" height="16" viewBox="0 0 16 16">
 <path fill="#cdd3e0" d="M 10.183 1.972 L 6.785 9.474 L 3.641 3.062 L 0 3.062 L 5.376 14.028 L 8.334 13.982 L 13.773 1.972 L 10.183 1.972 Z M 13.82 4.152 L 13.82 6.332 L 16 6.332 L 16 4.152 L 13.82 4.152 Z M 13.82 7.967 L 13.82 13.962 L 16 13.962 L 16 7.967 L 13.82 7.967 Z"/>
</svg>
