<svg xmlns="http://www.w3.org/2000/svg" style="isolation:isolate" width="16" height="16" viewBox="0 0 16 16">
 <path fill="#cdd3e0" d="M 8.131 15.973 C 7.722 15.84 7.571 15.547 7.333 14.423 C 7.199 13.789 6.925 13.434 6.41 13.23 C 6.108 13.111 5.959 13.09 4.853 13.012 C 3.857 12.942 3.391 12.693 3.066 12.055 C 2.939 11.806 2.84 11.479 2.7 10.842 C 2.523 10.036 2.36 9.622 2.012 9.097 C 1.796 8.772 1.308 8.28 0.963 8.039 C 0.634 7.809 0.555 7.737 0.492 7.616 C 0.412 7.459 0.438 7.312 0.567 7.192 C 0.826 6.951 1.194 7.026 1.466 7.377 C 1.513 7.436 1.626 7.621 1.719 7.787 C 1.888 8.091 2.07 8.354 2.111 8.354 C 2.124 8.354 2.133 7.924 2.133 7.384 C 2.133 6.343 2.139 6.291 2.262 6.204 C 2.359 6.137 2.496 6.152 2.597 6.241 C 2.769 6.392 2.788 6.503 2.99 8.568 C 3.034 9.009 3.024 8.993 3.156 8.849 C 3.282 8.71 3.422 8.434 3.47 8.228 C 3.516 8.032 3.506 7.722 3.445 7.473 C 3.383 7.217 3.38 7.117 3.431 7.01 C 3.536 6.788 3.828 6.794 3.985 7.022 C 4.092 7.176 4.13 7.317 4.143 7.595 C 4.159 7.969 4.103 8.232 3.833 9.061 C 3.541 9.956 3.508 10.1 3.507 10.471 C 3.507 10.704 3.519 10.798 3.566 10.95 C 3.805 11.717 4.53 12.187 5.684 12.323 C 6.012 12.363 6.163 12.369 6.163 12.347 C 6.163 12.339 6.105 12.233 6.036 12.108 C 5.608 11.349 5.43 10.781 5.465 10.284 C 5.486 9.995 5.541 9.794 5.741 9.275 C 6.049 8.481 6.095 8.287 6.096 7.777 C 6.099 6.688 5.538 5.658 4.645 5.109 C 4.545 5.048 4.248 4.9 3.985 4.781 C 3.439 4.534 3.189 4.382 2.99 4.177 C 2.754 3.933 2.612 3.629 2.612 3.366 C 2.612 3.247 2.664 3.216 2.889 3.2 C 3.299 3.171 3.656 3.356 4.271 3.92 C 4.659 4.275 4.839 4.411 5.064 4.518 C 5.278 4.62 5.592 4.681 5.642 4.631 C 5.66 4.615 5.672 4.523 5.672 4.407 C 5.672 4.14 5.576 3.943 5.337 3.719 C 5.176 3.569 5.06 3.494 4.567 3.217 C 4.064 2.935 3.81 2.539 3.874 2.135 C 3.911 1.897 4.077 1.732 4.316 1.694 C 4.985 1.587 5.995 2.726 6.45 4.1 C 6.69 4.826 6.775 5.396 6.776 6.279 C 6.777 7.095 6.709 7.707 6.499 8.771 C 6.415 9.198 6.388 9.388 6.397 9.492 C 6.431 9.885 6.658 9.988 6.988 9.761 C 7.38 9.491 7.766 8.998 7.925 8.562 C 8.051 8.216 8.081 8.014 8.1 7.361 C 8.115 6.817 8.122 6.747 8.17 6.656 C 8.238 6.527 8.325 6.446 8.44 6.407 C 8.568 6.362 8.673 6.387 8.766 6.479 C 8.974 6.687 8.957 7.063 8.693 8.095 C 8.536 8.707 8.301 9.242 8.027 9.612 C 7.948 9.718 7.711 9.968 7.5 10.169 C 7.046 10.599 6.902 10.773 6.773 11.041 C 6.682 11.233 6.679 11.248 6.679 11.516 C 6.679 11.772 6.684 11.802 6.747 11.909 C 7.03 12.391 7.754 12.52 8.28 12.182 C 8.871 11.803 9.372 10.422 9.589 8.57 C 9.744 7.257 9.641 6.346 9.247 5.523 C 8.979 4.963 8.627 4.573 7.968 4.103 C 7.749 3.947 7.498 3.757 7.41 3.683 C 7.203 3.507 6.972 3.199 6.88 2.978 C 6.818 2.827 6.808 2.769 6.806 2.552 L 6.805 2.3 L 6.917 2.243 C 7.209 2.096 7.646 2.247 8.001 2.616 C 8.077 2.695 8.235 2.917 8.352 3.109 C 8.7 3.682 8.905 3.931 9.116 4.041 L 9.186 4.077 L 9.074 3.856 C 9.013 3.734 8.76 3.243 8.513 2.766 C 7.899 1.582 7.875 1.524 7.875 1.232 C 7.875 0.944 8.052 0.751 8.317 0.751 C 8.557 0.751 8.772 0.919 8.909 1.214 C 8.949 1.299 9.119 1.844 9.286 2.426 C 9.454 3.007 9.668 3.749 9.762 4.074 L 9.933 4.666 L 10.009 4.515 C 10.185 4.165 10.32 3.663 10.369 3.169 C 10.418 2.687 10.368 2.242 10.181 1.469 C 10.04 0.889 10.03 0.821 10.066 0.626 C 10.141 0.208 10.395 -0.023 10.748 0.002 C 11.185 0.034 11.512 0.387 11.575 0.9 C 11.636 1.392 11.518 1.91 11.054 3.194 C 10.639 4.343 10.514 4.738 10.422 5.196 C 10.266 5.965 10.29 6.701 10.487 7.27 L 10.534 7.406 L 10.819 6.603 C 10.975 6.161 11.133 5.74 11.169 5.666 C 11.304 5.389 11.532 5.338 11.722 5.542 C 11.814 5.641 11.833 5.749 11.789 5.924 C 11.652 6.464 10.942 8.497 9.805 11.614 C 9.269 13.08 9.264 13.096 9.356 13.009 C 9.407 12.96 10.151 12.281 11.01 11.499 C 11.869 10.717 12.635 10.007 12.713 9.921 C 12.946 9.663 13.087 9.348 13.087 9.086 C 13.086 8.787 12.952 8.434 12.615 7.849 C 12.2 7.129 12.09 6.755 12.191 6.409 C 12.261 6.168 12.479 5.988 12.697 5.989 C 12.788 5.99 12.948 6.08 13.036 6.18 C 13.145 6.305 13.357 6.751 13.476 7.109 C 13.57 7.393 13.692 7.936 13.692 8.074 C 13.692 8.116 13.701 8.157 13.711 8.163 C 13.722 8.171 13.908 7.822 14.126 7.39 C 14.544 6.56 14.643 6.41 14.833 6.318 C 15.118 6.18 15.422 6.338 15.53 6.679 C 15.603 6.909 15.5 7.305 15.229 7.839 C 14.912 8.462 14.296 9.423 13.723 10.189 C 13.56 10.406 13.424 10.592 13.419 10.602 C 13.415 10.61 13.503 10.565 13.616 10.496 C 14.117 10.195 14.528 10.177 14.831 10.443 C 15.008 10.599 15.075 10.855 14.986 11.032 C 14.851 11.3 14.616 11.388 13.934 11.429 C 13.434 11.457 13.082 11.522 12.73 11.645 C 12.153 11.845 11.703 12.13 11.26 12.572 C 10.9 12.932 10.71 13.206 10.305 13.959 C 9.852 14.798 9.672 15.066 9.314 15.438 C 9.066 15.695 8.838 15.868 8.653 15.938 C 8.481 16.004 8.266 16.019 8.131 15.975 L 8.131 15.973 Z"/>
</svg>
