<svg xmlns="http://www.w3.org/2000/svg" style="isolation:isolate" width="16" height="16" viewBox="0 0 16 16">
 <path fill="#cdd3e0" fill-rule="evenodd" d="M 2.56 2.162 L 2.56 5.622 L 6.02 5.622 L 6.02 2.162 L 2.56 2.162 L 2.56 2.162 L 2.56 2.162 L 2.56 2.162 L 2.56 2.162 Z M 9.047 2.162 L 9.047 5.622 L 12.506 5.622 L 12.506 2.162 L 9.047 2.162 L 9.047 2.162 L 9.047 2.162 Z M 13.804 0 L 13.804 1.297 L 15.101 1.297 L 15.101 11.676 L 13.804 11.676 L 13.804 12.973 L 11.209 12.973 L 11.209 14.703 L 13.804 14.703 L 13.804 16 L 2.56 16 L 2.56 14.703 L 5.155 14.703 L 5.155 12.973 L 2.56 12.973 L 2.56 11.676 L 1.263 11.676 L 1.263 1.297 L 2.56 1.297 L 2.56 0 L 13.804 0 L 13.804 0 L 13.804 0 L 13.804 0 L 13.804 0 Z M 2.56 8.649 L 2.56 10.378 L 4.29 10.378 L 4.29 11.676 L 9.479 11.676 L 9.479 10.378 L 11.209 10.378 L 11.209 8.649 L 2.56 8.649 Z"/>
</svg>
