<svg xmlns="http://www.w3.org/2000/svg" style="isolation:isolate" width="16" height="16" viewBox="0 0 16 16">
 <path fill="#cdd3e0" d="M 9.296 0.694 C 6.981 0.694 4.941 1.867 3.736 3.65 L 3.723 3.686 L 3.152 3.686 C 2.621 3.686 2.19 4.117 2.19 4.648 C 0.561 5.049 0 6.09 0 6.09 L 3.456 6.09 C 7.651 7.256 5.856 10.354 4.06 11.406 C 2.19 12.501 1.256 10.124 1.256 10.124 C 0.561 12.715 2.164 15.306 2.164 15.306 L 14.409 11.736 C 15.401 10.567 16 9.053 16 7.399 C 16 3.697 12.998 0.695 9.296 0.695 L 9.296 0.694 Z M 9.124 8.795 C 9.279 8.795 9.428 8.857 9.537 8.966 C 9.647 9.076 9.708 9.224 9.708 9.379 C 9.708 9.534 9.647 9.682 9.537 9.792 C 9.428 9.901 9.279 9.963 9.124 9.963 C 8.802 9.963 8.541 9.701 8.541 9.379 C 8.541 9.224 8.602 9.076 8.712 8.966 C 8.821 8.857 8.97 8.795 9.124 8.795 L 9.124 8.795 Z"/>
</svg>
