<svg xmlns="http://www.w3.org/2000/svg" style="isolation:isolate" width="16" height="16" viewBox="0 0 16 16">
 <path fill="#cdd3e0" d="M 14.589 0.007 C 14.519 0.022 14.454 0.058 14.405 0.111 L 7.628 6.871 C 7.49 7.009 7.49 7.232 7.628 7.37 L 8.661 8.401 C 8.727 8.467 8.817 8.504 8.911 8.504 C 9.005 8.504 9.095 8.466 9.161 8.4 L 15.898 1.609 C 16.035 1.471 16.034 1.249 15.896 1.112 L 14.904 0.111 C 14.837 0.045 14.748 0.007 14.654 0.007 C 14.633 0.003 14.611 0.003 14.589 0.007 Z M 6.722 7.402 C 6.633 7.399 6.547 7.43 6.479 7.488 L 2.599 10.791 C 2.524 10.855 2.479 10.947 2.474 11.045 C 2.47 11.144 2.507 11.239 2.577 11.309 L 2.686 11.418 C 2.031 12.087 0.029 14.234 0.007 15.638 L 0 15.996 L 0.358 15.996 C 1.806 15.996 3.923 13.984 4.587 13.32 L 4.692 13.425 C 4.758 13.491 4.848 13.528 4.941 13.528 L 4.958 13.528 C 5.057 13.523 5.149 13.477 5.213 13.401 L 8.475 9.476 C 8.592 9.335 8.581 9.13 8.453 9.002 L 6.957 7.506 C 6.895 7.443 6.811 7.406 6.722 7.402 L 6.722 7.402 Z M 3.181 11.914 L 4.092 12.824 C 3.329 13.575 1.84 14.883 0.796 15.214 C 1.139 14.188 2.436 12.688 3.181 11.914 Z"/>
</svg>
