<svg xmlns="http://www.w3.org/2000/svg" style="isolation:isolate" width="16" height="16" viewBox="0 0 16 16">
 <path fill="#cdd3e0" d="M 0 3.294 L 0 5.311 L 0 10.689 C 0 11.806 0.892 12.706 2 12.706 L 9.333 12.706 L 11.294 12.706 L 11.294 10.689 L 11.294 5.311 C 11.294 4.194 10.441 3.294 9.333 3.294 L 2 3.294 L 0 3.294 Z M 16 3.294 L 12.235 5.647 L 12.235 10.353 L 16 12.706 L 16 8 L 16 3.294 Z"/>
</svg>
