<svg xmlns="http://www.w3.org/2000/svg" style="isolation:isolate" width="16" height="16">
 <path style="isolation:isolate" fill="#cdd3e0" d="M2.651 12.97v-1.543L5.746 8.03l3.095-3.396-3.052-.022-3.052-.023V1.486H13.35v1.575l-.002 1.574L10.294 8c-1.68 1.85-3.036 3.394-3.014 3.43.022.035 1.397.064 3.054.064h3.015v3.02H2.65z"/>
</svg>
