<svg xmlns="http://www.w3.org/2000/svg" style="isolation:isolate" width="16" height="16" viewBox="0 0 16 16">
 <path fill="#cdd3e0" fill-rule="evenodd" d="M 0 14.057 L 4.571 7.2 L 16 15.2 L 0 14.057 Z M 0 0.8 L 16 2.514 L 10.857 8.8 L 0 0.8 Z"/>
</svg>
