<svg xmlns="http://www.w3.org/2000/svg" width="16" height="16" version="1.1">
 <g transform="translate(-351.99997,-159.99994)">
  <path d="m 356.99414,161 c -1.2582,0.0145 -2.17889,-0.0306 -2.93164,0.38477 -0.37637,0.20766 -0.67323,0.55938 -0.83789,0.99804 C 353.05994,162.82148 353,163.34239 353,164 v 8.20703 l 0.14648,0.14649 2.64649,2.64648 h 7.20898 0.004 c 1.25819,-0.0146 2.17889,0.0306 2.93164,-0.38477 0.37637,-0.20765 0.67322,-0.55938 0.83789,-0.99804 C 366.94006,173.17853 367,172.65761 367,172 v -8 c 0,-0.65761 -0.0599,-1.17852 -0.22461,-1.61719 -0.16466,-0.43866 -0.46152,-0.79038 -0.83789,-0.99804 -0.75275,-0.41533 -1.67344,-0.37023 -2.93164,-0.38477 h -0.004 -6.0039 z m 0.006,1 h 6 c 1.25853,0.0147 2.08912,0.0598 2.45508,0.26172 0.18341,0.10119 0.2872,0.21275 0.38476,0.47266 C 365.93741,162.99428 366,163.40761 366,164 v 8 c 0,0.59239 -0.0626,1.00572 -0.16016,1.26562 -0.0976,0.25991 -0.20135,0.37147 -0.38476,0.47266 -0.36682,0.20239 -1.19739,0.24709 -2.46094,0.26172 h -6.78711 L 354,171.79297 V 164 c 0,-0.59239 0.0626,-1.00571 0.16016,-1.26562 0.0976,-0.25992 0.20331,-0.37146 0.38672,-0.47266 C 354.91283,162.0598 355.74148,162.01469 357,162 Z" style="solid-color:#cdd3e0;fill:#cdd3e0"/>
  <path d="m 356,169 v 5 h 2 v -4 h 2 v 4 h 4 v -5 z" style="fill:#cdd3e0"/>
 </g>
</svg>
