<svg xmlns="http://www.w3.org/2000/svg" width="16" height="16">
 <g color="#000" transform="translate(-492 -200)">
  <path fill="#cdd3e0" d="M495.994 203c-1.258.015-2.179-.03-2.932.385a1.88 1.88 0 0 0-.837.998c-.165.438-.225.96-.225 1.617v5c0 .658.06 1.179.225 1.617.164.439.461.79.837.998.753.416 1.674.37 2.932.385H503.006c1.258-.015 2.179.03 2.932-.385a1.88 1.88 0 0 0 .838-.998c.164-.438.224-.96.224-1.617v-5c0-.658-.06-1.179-.225-1.617a1.88 1.88 0 0 0-.837-.998c-.753-.416-1.674-.37-2.932-.385H495.998zm.006 1h7c1.259.015 2.087.06 2.453.262.184.1.29.212.387.472.097.26.16.674.16 1.266v5c0 .592-.063 1.006-.16 1.266-.098.26-.203.371-.387.472-.366.202-1.194.247-2.453.262h-7c-1.259-.015-2.087-.06-2.453-.262-.184-.1-.29-.212-.387-.472-.097-.26-.16-.674-.16-1.266v-5c0-.592.063-1.006.16-1.266.098-.26.203-.371.387-.472.366-.202 1.194-.247 2.453-.262z" font-family="sans-serif" font-weight="400" overflow="visible"/>
  <path fill="#cdd3e0" fill-rule="evenodd" d="M495 206v1h1v-1zm2 0v1h1v-1zm2 0v1h1v-1zm2 0v1h1v-1zm2 0v1h1v-1zm-7.002 2l.004 1H497v-1zm2.002 0v1h1v-1zm2 0v1h1v-1zm2 0v1h1v-1zm-7 2v1h1v-1zm2 0v1h5v-1zm6 0l.012 1h.994l-.012-1z" font-family="sans-serif" font-weight="400" overflow="visible"/>
 </g>
</svg>
