<svg xmlns="http://www.w3.org/2000/svg" width="16" height="16" version="1.1">
<defs>
  <style id="current-color-scheme" type="text/css">
   .ColorScheme-Text { color:#cdd3e0; } .ColorScheme-Highlight { color:#5294e2; }
  </style>
  <linearGradient id="arrongin" x1="0%" x2="0%" y1="0%" y2="100%">
   <stop offset="0%" style="stop-color:#dd9b44; stop-opacity:1"/>
   <stop offset="100%" style="stop-color:#ad6c16; stop-opacity:1"/>
  </linearGradient>
  <linearGradient id="aurora" x1="0%" x2="0%" y1="0%" y2="100%">
   <stop offset="0%" style="stop-color:#09D4DF; stop-opacity:1"/>
   <stop offset="100%" style="stop-color:#9269F4; stop-opacity:1"/>
  </linearGradient>
  <linearGradient id="fitdance" x1="0%" x2="0%" y1="0%" y2="100%">
   <stop offset="0%" style="stop-color:#1AD6AB; stop-opacity:1"/>
   <stop offset="100%" style="stop-color:#329DB6; stop-opacity:1"/>
  </linearGradient>
  <linearGradient id="oomox" x1="0%" x2="0%" y1="0%" y2="100%">
   <stop offset="0%" style="stop-color:#d3dae3; stop-opacity:1"/>
   <stop offset="100%" style="stop-color:#5294e2; stop-opacity:1"/>
  </linearGradient>
  <linearGradient id="rainblue" x1="0%" x2="0%" y1="0%" y2="100%">
   <stop offset="0%" style="stop-color:#00F260; stop-opacity:1"/>
   <stop offset="100%" style="stop-color:#0575E6; stop-opacity:1"/>
  </linearGradient>
  <linearGradient id="sunrise" x1="0%" x2="0%" y1="0%" y2="100%">
   <stop offset="0%" style="stop-color: #FF8501; stop-opacity:1"/>
   <stop offset="100%" style="stop-color: #FFCB01; stop-opacity:1"/>
  </linearGradient>
  <linearGradient id="telinkrin" x1="0%" x2="0%" y1="0%" y2="100%">
   <stop offset="0%" style="stop-color: #b2ced6; stop-opacity:1"/>
   <stop offset="100%" style="stop-color: #6da5b7; stop-opacity:1"/>
  </linearGradient>
  <linearGradient id="60spsycho" x1="0%" x2="0%" y1="0%" y2="100%">
   <stop offset="0%" style="stop-color: #df5940; stop-opacity:1"/>
   <stop offset="25%" style="stop-color: #d8d15f; stop-opacity:1"/>
   <stop offset="50%" style="stop-color: #e9882a; stop-opacity:1"/>
   <stop offset="100%" style="stop-color: #279362; stop-opacity:1"/>
  </linearGradient>
  <linearGradient id="90ssummer" x1="0%" x2="0%" y1="0%" y2="100%">
   <stop offset="0%" style="stop-color: #f618c7; stop-opacity:1"/>
   <stop offset="20%" style="stop-color: #94ffab; stop-opacity:1"/>
   <stop offset="50%" style="stop-color: #fbfd54; stop-opacity:1"/>
   <stop offset="100%" style="stop-color: #0f83ae; stop-opacity:1"/>
  </linearGradient>
 </defs>
 <g transform="translate(-512,-199.99994)">
  <path d="m 518.75586,201 c -0.48485,1.0101 -0.95009,2.03328 -1.39453,3.07031 -0.44445,1.02357 -0.89561,2.1011 -1.35352,3.23242 -0.2098,0.53405 -0.4328,1.13327 -0.64843,1.69727 H 514.5 c -0.831,0 -1.5,0.669 -1.5,1.5 0,0.74119 0.53361,1.34896 1.23828,1.47266 -0.36109,0.96894 -0.72149,1.93381 -1.11914,3.02734 h 2.6582 l 1.06836,-3 h 7.35938 c 0.12199,0.33907 0.24149,0.67202 0.36719,1.01953 0.22895,0.633 0.47067,1.2936 0.72656,1.98047 h 1.51562 c -0.41034,-1.08092 -0.77559,-2.04944 -1.14062,-3.01758 C 526.42119,211.89572 527,211.27137 527,210.5 c 0,-0.831 -0.669,-1.5 -1.5,-1.5 h -0.9707 c -0.21556,-0.55206 -0.43194,-1.11772 -0.64453,-1.63672 -0.44445,-1.13131 -0.88955,-2.21492 -1.33399,-3.25195 -0.44445,-1.03704 -0.91574,-2.07429 -1.41406,-3.11133 h -1.19727 z m 1.73437,1.57617 c 0.51179,1.15825 1.01126,2.33651 1.4961,3.53516 0.3611,0.89271 0.73747,1.89134 1.11328,2.88867 h -5.18555 c 0.31844,-0.87809 0.63703,-1.7549 0.95508,-2.58594 0.34411,-0.8818 0.70044,-1.73298 1.07031,-2.55468 v -0.0156 c 0.18202,-0.42526 0.36522,-0.84762 0.55078,-1.26758 z M 514.5,210 h 3.93359 3.06641 4.06641 c 0.24027,0 0.43359,0.19332 0.43359,0.43359 v 0.13282 C 526,210.80668 525.80668,211 525.56641,211 H 521.5 518.43359 514.5 c -0.277,0 -0.5,-0.223 -0.5,-0.5 0,-0.277 0.223,-0.5 0.5,-0.5 z" style="fill: url(#oomox)" class="ColorScheme-Text"/>
  <rect style="opacity:0.5; fill: url(#oomox)" class="ColorScheme-Text" width="8" height="1" x="-522" y="210" rx=".5" ry=".5" transform="scale(-1,1)"/>
 </g>
</svg>
