<svg xmlns="http://www.w3.org/2000/svg" style="isolation:isolate" width="16" height="16" viewBox="0 0 16 16">
 <defs>
  <style id="current-color-scheme" type="text/css">
   .ColorScheme-Text { color:#cdd3e0; } .ColorScheme-Highlight { color:#5294e2; }
  </style>
  <linearGradient id="arrongin" x1="0%" x2="0%" y1="0%" y2="100%">
   <stop offset="0%" style="stop-color:#dd9b44; stop-opacity:1"/>
   <stop offset="100%" style="stop-color:#ad6c16; stop-opacity:1"/>
  </linearGradient>
  <linearGradient id="aurora" x1="0%" x2="0%" y1="0%" y2="100%">
   <stop offset="0%" style="stop-color:#09D4DF; stop-opacity:1"/>
   <stop offset="100%" style="stop-color:#9269F4; stop-opacity:1"/>
  </linearGradient>
  <linearGradient id="fitdance" x1="0%" x2="0%" y1="0%" y2="100%">
   <stop offset="0%" style="stop-color:#1AD6AB; stop-opacity:1"/>
   <stop offset="100%" style="stop-color:#329DB6; stop-opacity:1"/>
  </linearGradient>
  <linearGradient id="oomox" x1="0%" x2="0%" y1="0%" y2="100%">
   <stop offset="0%" style="stop-color:#d3dae3; stop-opacity:1"/>
   <stop offset="100%" style="stop-color:#5294e2; stop-opacity:1"/>
  </linearGradient>
  <linearGradient id="rainblue" x1="0%" x2="0%" y1="0%" y2="100%">
   <stop offset="0%" style="stop-color:#00F260; stop-opacity:1"/>
   <stop offset="100%" style="stop-color:#0575E6; stop-opacity:1"/>
  </linearGradient>
  <linearGradient id="sunrise" x1="0%" x2="0%" y1="0%" y2="100%">
   <stop offset="0%" style="stop-color: #FF8501; stop-opacity:1"/>
   <stop offset="100%" style="stop-color: #FFCB01; stop-opacity:1"/>
  </linearGradient>
  <linearGradient id="telinkrin" x1="0%" x2="0%" y1="0%" y2="100%">
   <stop offset="0%" style="stop-color: #b2ced6; stop-opacity:1"/>
   <stop offset="100%" style="stop-color: #6da5b7; stop-opacity:1"/>
  </linearGradient>
  <linearGradient id="60spsycho" x1="0%" x2="0%" y1="0%" y2="100%">
   <stop offset="0%" style="stop-color: #df5940; stop-opacity:1"/>
   <stop offset="25%" style="stop-color: #d8d15f; stop-opacity:1"/>
   <stop offset="50%" style="stop-color: #e9882a; stop-opacity:1"/>
   <stop offset="100%" style="stop-color: #279362; stop-opacity:1"/>
  </linearGradient>
  <linearGradient id="90ssummer" x1="0%" x2="0%" y1="0%" y2="100%">
   <stop offset="0%" style="stop-color: #f618c7; stop-opacity:1"/>
   <stop offset="20%" style="stop-color: #94ffab; stop-opacity:1"/>
   <stop offset="50%" style="stop-color: #fbfd54; stop-opacity:1"/>
   <stop offset="100%" style="stop-color: #0f83ae; stop-opacity:1"/>
  </linearGradient>
 </defs>
 <path style="fill:url(#oomox)" class="ColorScheme-Text" d="M 6.330494 0.011074 L 3.941741 1.012809 C 3.859753 1.046097 3.814135 1.12562 3.844958 1.205142 L 4.114964 1.840704 C 4.148869 1.920843 4.228391 1.951666 4.307914 1.917761 L 4.84731 1.705701 L 5.001423 2.110711 L 4.770253 2.206877 C 4.394217 2.356059 4.389286 2.370854 4.539084 2.746273 L 5.135809 4.191238 L 4.63525 4.383571 C 3.065146 5.021599 2.303827 6.822873 2.940006 8.390511 L 3.556458 9.893422 C 4.001537 9.461906 4.584701 9.185119 5.251703 9.180187 L 4.65436 7.697002 C 4.403143 7.069231 4.703859 6.3562 5.328759 6.097925 L 5.829318 5.905592 L 6.099325 6.541154 L 8.815414 5.443252 L 7.274283 1.628645 C 7.125101 1.25076 7.130033 1.246444 6.753997 1.398092 L 6.464881 1.513368 L 6.310768 1.108975 L 6.715777 0.935136 C 6.797765 0.901847 6.826738 0.805681 6.792834 0.723693 L 6.542554 0.10724 C 6.508649 0.027101 6.412482 -0.022831 6.330494 0.010457 L 6.330494 0.011074 Z M 9.200697 6.406151 L 6.464881 7.505286 L 6.792834 8.314071 L 7.755732 8.718464 L 9.10453 8.159958 L 9.528033 7.21617 L 9.200697 6.406151 Z M 11.801509 8.506404 C 11.7408 8.516148 11.682084 8.53572 11.62767 8.564351 L 6.715777 10.548095 C 6.376112 10.11966 5.860757 9.835476 5.270813 9.835476 C 4.249441 9.835476 3.421455 10.663461 3.421455 11.684833 C 3.423777 12.60141 4.095006 13.378967 5.001423 13.51508 C 5.015601 13.545903 5.027314 13.579808 5.039643 13.611247 C 5.230127 14.078518 5.530955 14.458869 5.887265 14.767095 L 4.037908 14.767095 C 3.69745 14.767095 3.421455 15.04309 3.421455 15.383548 L 3.421455 16 L 13.284694 16 L 13.284694 15.383548 C 13.284694 15.041416 13.010373 14.767095 12.668242 14.767095 L 10.414491 14.767095 L 12.302069 14.03475 C 12.779203 13.85228 13.027017 13.317199 12.841465 12.840681 C 12.753066 12.61259 12.577167 12.429293 12.352909 12.331578 C 12.128651 12.233863 11.874639 12.229837 11.647396 12.320396 L 8.353075 13.592137 C 7.725285 13.845532 7.010726 13.544171 6.753997 12.917738 C 6.74475 12.89308 6.725024 12.849928 6.715777 12.821571 C 6.970577 12.503827 7.112799 12.110549 7.12017 11.703327 L 12.090626 9.699856 C 12.372344 9.593827 12.53817 9.300395 12.480224 9.003882 C 12.422989 8.708103 12.159984 8.497283 11.858839 8.505788 L 11.801509 8.505788 L 11.801509 8.506404 Z M 5.270813 11.068381 C 5.609861 11.068381 5.887265 11.345784 5.887265 11.684833 C 5.887265 12.023882 5.609861 12.301286 5.270813 12.301286 C 4.931764 12.301286 4.65436 12.023882 4.65436 11.684833 C 4.65436 11.345784 4.931764 11.068381 5.270813 11.068381 Z"/>
</svg>
