<svg xmlns="http://www.w3.org/2000/svg" width="16" height="16" version="1.1">
<defs>
  <style id="current-color-scheme" type="text/css">
   .ColorScheme-Text { color:#cdd3e0; } .ColorScheme-Highlight { color:#5294e2; }
  </style>
  <linearGradient id="arrongin" x1="0%" x2="0%" y1="0%" y2="100%">
   <stop offset="0%" style="stop-color:#dd9b44; stop-opacity:1"/>
   <stop offset="100%" style="stop-color:#ad6c16; stop-opacity:1"/>
  </linearGradient>
  <linearGradient id="aurora" x1="0%" x2="0%" y1="0%" y2="100%">
   <stop offset="0%" style="stop-color:#09D4DF; stop-opacity:1"/>
   <stop offset="100%" style="stop-color:#9269F4; stop-opacity:1"/>
  </linearGradient>
  <linearGradient id="fitdance" x1="0%" x2="0%" y1="0%" y2="100%">
   <stop offset="0%" style="stop-color:#1AD6AB; stop-opacity:1"/>
   <stop offset="100%" style="stop-color:#329DB6; stop-opacity:1"/>
  </linearGradient>
  <linearGradient id="oomox" x1="0%" x2="0%" y1="0%" y2="100%">
   <stop offset="0%" style="stop-color:#d3dae3; stop-opacity:1"/>
   <stop offset="100%" style="stop-color:#5294e2; stop-opacity:1"/>
  </linearGradient>
  <linearGradient id="rainblue" x1="0%" x2="0%" y1="0%" y2="100%">
   <stop offset="0%" style="stop-color:#00F260; stop-opacity:1"/>
   <stop offset="100%" style="stop-color:#0575E6; stop-opacity:1"/>
  </linearGradient>
  <linearGradient id="sunrise" x1="0%" x2="0%" y1="0%" y2="100%">
   <stop offset="0%" style="stop-color: #FF8501; stop-opacity:1"/>
   <stop offset="100%" style="stop-color: #FFCB01; stop-opacity:1"/>
  </linearGradient>
  <linearGradient id="telinkrin" x1="0%" x2="0%" y1="0%" y2="100%">
   <stop offset="0%" style="stop-color: #b2ced6; stop-opacity:1"/>
   <stop offset="100%" style="stop-color: #6da5b7; stop-opacity:1"/>
  </linearGradient>
  <linearGradient id="60spsycho" x1="0%" x2="0%" y1="0%" y2="100%">
   <stop offset="0%" style="stop-color: #df5940; stop-opacity:1"/>
   <stop offset="25%" style="stop-color: #d8d15f; stop-opacity:1"/>
   <stop offset="50%" style="stop-color: #e9882a; stop-opacity:1"/>
   <stop offset="100%" style="stop-color: #279362; stop-opacity:1"/>
  </linearGradient>
  <linearGradient id="90ssummer" x1="0%" x2="0%" y1="0%" y2="100%">
   <stop offset="0%" style="stop-color: #f618c7; stop-opacity:1"/>
   <stop offset="20%" style="stop-color: #94ffab; stop-opacity:1"/>
   <stop offset="50%" style="stop-color: #fbfd54; stop-opacity:1"/>
   <stop offset="100%" style="stop-color: #0f83ae; stop-opacity:1"/>
  </linearGradient>
 </defs>
 <path style="fill:url(#oomox)" class="ColorScheme-Text" d="M 8 0 C 3.588 0 0 3.588 0 8 C 0 12.412 3.588 16 8 16 C 12.412 16 16 12.412 16 8 C 16 3.588 12.412 0 8 0 z M 8 1 C 8.0230882 1 8.0453246 1.0036843 8.0683594 1.0039062 C 8.407536 1.0071741 8.7385801 1.0401818 9.0644531 1.0898438 C 12.42797 1.6024328 15 4.4910513 15 8 C 15 8.3092675 14.974243 8.6115965 14.935547 8.9101562 C 14.582204 8.856308 14.240059 8.7702714 13.90625 8.6660156 L 14.265625 7.7363281 L 13.333984 7.375 L 12.974609 8.3007812 C 12.173423 7.9172437 11.459618 7.3857788 10.863281 6.7421875 L 11.626953 6.1269531 L 11 5.3496094 L 10.236328 5.9648438 C 9.7428343 5.250386 9.3834021 4.4391673 9.1835938 3.5644531 L 10.146484 3.4160156 L 9.9941406 2.4277344 L 9.0253906 2.578125 C 9.0098208 2.3873231 9 2.1949317 9 2 C 9 1.6907325 9.0257567 1.3884035 9.0644531 1.0898438 C 8.7385801 1.0401818 8.407536 1.0071742 8.0683594 1.0039062 C 8.0274672 1.3310662 8 1.6619198 8 2 C 8 2.2461493 8.0113264 2.4899934 8.0332031 2.7304688 L 7.0292969 2.8867188 L 7.1816406 3.875 L 8.1933594 3.71875 C 8.424691 4.7683021 8.8587443 5.7414649 9.4589844 6.5917969 L 8.6640625 7.2304688 L 9.2910156 8.0078125 L 10.085938 7.3671875 C 10.79379 8.1441044 11.650318 8.7829508 12.613281 9.234375 L 12.25 10.171875 L 13.181641 10.533203 L 13.544922 9.5976562 C 13.930653 9.7224121 14.325717 9.8252781 14.734375 9.890625 C 14.822262 9.576018 14.89008 9.2528317 14.933594 8.921875 C 14.890121 9.2528784 14.82227 9.5759891 14.734375 9.890625 C 13.910506 12.839823 11.21559 15 8 15 C 7.9432986 15 7.8884061 14.993522 7.8320312 14.992188 C 7.9016504 14.433164 7.8970549 13.858899 7.8457031 13.279297 L 8.8691406 13.121094 L 8.7148438 12.132812 L 7.7070312 12.289062 C 7.4739143 11.228566 7.0325453 10.263063 6.4375 9.4199219 L 7.234375 8.7792969 L 6.6074219 8 L 5.8027344 8.6464844 C 5.0905421 7.8666195 4.2355352 7.235642 3.2792969 6.7871094 L 3.6484375 5.8359375 L 2.7148438 5.4746094 L 2.3535156 6.4101562 C 1.9969433 6.2944599 1.6334391 6.1957757 1.2597656 6.1308594 C 1.1722337 6.4481015 1.1049004 6.7736709 1.0625 7.1074219 C 1.3802443 7.1607234 1.6885724 7.2446414 1.9921875 7.3398438 L 1.6308594 8.2714844 L 2.5644531 8.6328125 L 2.921875 7.7089844 C 3.7179148 8.0907235 4.4293378 8.6218927 5.0292969 9.2695312 L 4.2695312 9.8808594 L 4.8964844 10.660156 L 5.6582031 10.046875 C 6.1458783 10.754487 6.4972103 11.563824 6.6992188 12.445312 L 5.75 12.59375 L 5.9042969 13.582031 L 6.8574219 13.433594 C 6.8965762 13.928764 6.8983455 14.419759 6.8378906 14.896484 C 3.522258 14.34335 1 11.475034 1 8 C 1 7.6968104 1.0252867 7.4003434 1.0625 7.1074219 C 1.1049004 6.7736709 1.1722337 6.4481015 1.2597656 6.1308594 C 2.0765165 3.1707069 4.7766398 1 8 1 z M 6.8457031 14.896484 C 7.1647714 14.94938 7.4900243 14.98384 7.8222656 14.992188 C 7.4899861 14.983868 7.1648042 14.949358 6.8457031 14.896484 z"/>
</svg>
