<svg xmlns="http://www.w3.org/2000/svg" width="16" height="16">
 <defs>
  <style id="current-color-scheme" type="text/css">
   .ColorScheme-Text { color:#cdd3e0; } .ColorScheme-Highlight { color:#5294e2; }
  </style>
  <linearGradient id="arrongin" x1="0%" x2="0%" y1="0%" y2="100%">
   <stop offset="0%" style="stop-color:#dd9b44; stop-opacity:1"/>
   <stop offset="100%" style="stop-color:#ad6c16; stop-opacity:1"/>
  </linearGradient>
  <linearGradient id="aurora" x1="0%" x2="0%" y1="0%" y2="100%">
   <stop offset="0%" style="stop-color:#09D4DF; stop-opacity:1"/>
   <stop offset="100%" style="stop-color:#9269F4; stop-opacity:1"/>
  </linearGradient>
  <linearGradient id="fitdance" x1="0%" x2="0%" y1="0%" y2="100%">
   <stop offset="0%" style="stop-color:#1AD6AB; stop-opacity:1"/>
   <stop offset="100%" style="stop-color:#329DB6; stop-opacity:1"/>
  </linearGradient>
  <linearGradient id="oomox" x1="0%" x2="0%" y1="0%" y2="100%">
   <stop offset="0%" style="stop-color:#d3dae3; stop-opacity:1"/>
   <stop offset="100%" style="stop-color:#5294e2; stop-opacity:1"/>
  </linearGradient>
  <linearGradient id="rainblue" x1="0%" x2="0%" y1="0%" y2="100%">
   <stop offset="0%" style="stop-color:#00F260; stop-opacity:1"/>
   <stop offset="100%" style="stop-color:#0575E6; stop-opacity:1"/>
  </linearGradient>
  <linearGradient id="sunrise" x1="0%" x2="0%" y1="0%" y2="100%">
   <stop offset="0%" style="stop-color: #FF8501; stop-opacity:1"/>
   <stop offset="100%" style="stop-color: #FFCB01; stop-opacity:1"/>
  </linearGradient>
  <linearGradient id="telinkrin" x1="0%" x2="0%" y1="0%" y2="100%">
   <stop offset="0%" style="stop-color: #b2ced6; stop-opacity:1"/>
   <stop offset="100%" style="stop-color: #6da5b7; stop-opacity:1"/>
  </linearGradient>
  <linearGradient id="60spsycho" x1="0%" x2="0%" y1="0%" y2="100%">
   <stop offset="0%" style="stop-color: #df5940; stop-opacity:1"/>
   <stop offset="25%" style="stop-color: #d8d15f; stop-opacity:1"/>
   <stop offset="50%" style="stop-color: #e9882a; stop-opacity:1"/>
   <stop offset="100%" style="stop-color: #279362; stop-opacity:1"/>
  </linearGradient>
  <linearGradient id="90ssummer" x1="0%" x2="0%" y1="0%" y2="100%">
   <stop offset="0%" style="stop-color: #f618c7; stop-opacity:1"/>
   <stop offset="20%" style="stop-color: #94ffab; stop-opacity:1"/>
   <stop offset="50%" style="stop-color: #fbfd54; stop-opacity:1"/>
   <stop offset="100%" style="stop-color: #0f83ae; stop-opacity:1"/>
  </linearGradient>
 </defs>
 <g transform="translate(-912 -460)">
  <path style="fill:url(#oomox)" class="ColorScheme-Text" d="M915 461c-1.108 0-2 .892-2 2v10c0 1.108.892 2 2 2h10c1.108 0 2-.892 2-2v-10c0-1.108-.892-2-2-2zm0 1h10c.554 0 1 .446 1 1v9c0 .554-.446 1-1 1h-10c-.554 0-1-.446-1-1v-9c0-.554.446-1 1-1zm6.656 3.994c-.79 0-1.549.257-2.281.75l.375.85c.312-.21.616-.36.906-.469.298-.116.57-.156.875-.156.45 0 .792.104 1.032.344.239.232.437.548.437.968v.307c-.21-.08-.52-.144-.781-.188a4.015 4.015 0 0 0-.781-.062c-.356 0-.672.038-.97.125-.29.087-.563.215-.78.375-.21.16-.353.345-.47.562-.115.218-.187.55-.187.819 0 .254.062.501.157.719.101.217.208.403.375.562.174.16.392.28.625.375.239.087.505.125.78.125.429 0 .819-.076 1.188-.25.377-.181.684-.448.938-.781l.031.344a.743.743 0 0 0 .219.437c.123.109.299.173.531.188.08 0 .187.007.281 0 .102-.007.197-.01.313-.032v-1.031c-.124-.007-.303-.036-.354-.094a.498.498 0 0 1-.115-.312v-2.131c0-.747-.096-1.32-.531-1.719-.435-.399-1.03-.625-1.813-.625zm-.09 3.07c.218 0 .608.05.833.094.232.044.398.106.601.186v.75c0 .145-.129.307-.281.437-.427.38-.941.43-1.438.469-.326 0-.734.018-.944-.171-.21-.196-.337-.421-.337-.704 0-.305.294-.569.563-.75a1.67 1.67 0 0 1 1.003-.31z" overflow="visible"/>
 </g>
</svg>
