<svg xmlns="http://www.w3.org/2000/svg" width="16" height="16" version="1.1">
<defs>
  <style id="current-color-scheme" type="text/css">
   .ColorScheme-Text { color:#cdd3e0; } .ColorScheme-Highlight { color:#5294e2; }
  </style>
  <linearGradient id="arrongin" x1="0%" x2="0%" y1="0%" y2="100%">
   <stop offset="0%" style="stop-color:#dd9b44; stop-opacity:1"/>
   <stop offset="100%" style="stop-color:#ad6c16; stop-opacity:1"/>
  </linearGradient>
  <linearGradient id="aurora" x1="0%" x2="0%" y1="0%" y2="100%">
   <stop offset="0%" style="stop-color:#09D4DF; stop-opacity:1"/>
   <stop offset="100%" style="stop-color:#9269F4; stop-opacity:1"/>
  </linearGradient>
  <linearGradient id="fitdance" x1="0%" x2="0%" y1="0%" y2="100%">
   <stop offset="0%" style="stop-color:#1AD6AB; stop-opacity:1"/>
   <stop offset="100%" style="stop-color:#329DB6; stop-opacity:1"/>
  </linearGradient>
  <linearGradient id="oomox" x1="0%" x2="0%" y1="0%" y2="100%">
   <stop offset="0%" style="stop-color:#d3dae3; stop-opacity:1"/>
   <stop offset="100%" style="stop-color:#5294e2; stop-opacity:1"/>
  </linearGradient>
  <linearGradient id="rainblue" x1="0%" x2="0%" y1="0%" y2="100%">
   <stop offset="0%" style="stop-color:#00F260; stop-opacity:1"/>
   <stop offset="100%" style="stop-color:#0575E6; stop-opacity:1"/>
  </linearGradient>
  <linearGradient id="sunrise" x1="0%" x2="0%" y1="0%" y2="100%">
   <stop offset="0%" style="stop-color: #FF8501; stop-opacity:1"/>
   <stop offset="100%" style="stop-color: #FFCB01; stop-opacity:1"/>
  </linearGradient>
  <linearGradient id="telinkrin" x1="0%" x2="0%" y1="0%" y2="100%">
   <stop offset="0%" style="stop-color: #b2ced6; stop-opacity:1"/>
   <stop offset="100%" style="stop-color: #6da5b7; stop-opacity:1"/>
  </linearGradient>
  <linearGradient id="60spsycho" x1="0%" x2="0%" y1="0%" y2="100%">
   <stop offset="0%" style="stop-color: #df5940; stop-opacity:1"/>
   <stop offset="25%" style="stop-color: #d8d15f; stop-opacity:1"/>
   <stop offset="50%" style="stop-color: #e9882a; stop-opacity:1"/>
   <stop offset="100%" style="stop-color: #279362; stop-opacity:1"/>
  </linearGradient>
  <linearGradient id="90ssummer" x1="0%" x2="0%" y1="0%" y2="100%">
   <stop offset="0%" style="stop-color: #f618c7; stop-opacity:1"/>
   <stop offset="20%" style="stop-color: #94ffab; stop-opacity:1"/>
   <stop offset="50%" style="stop-color: #fbfd54; stop-opacity:1"/>
   <stop offset="100%" style="stop-color: #0f83ae; stop-opacity:1"/>
  </linearGradient>
 </defs>
 <g transform="translate(5,127.6378)">
  <path d="m 4.5396533,-120.86641 4.0384618,0 0,0.34615 c -0.5000129,0.0577 -0.9134742,0.1763 -1.2403846,0.35577 -0.19232,0.0962 -0.7051399,0.82057 -1.5384615,2.1731 -0.9871891,1.57052 -1.5256501,2.41669 -1.6153846,2.53845 1.0192208,1.19232 1.9775529,1.7885 2.8749998,1.7885 0.9230643,0 1.5192172,-0.47119 1.7884614,-1.41347 l 0.3557694,0.24998 c -0.4423215,1.76285 -1.4327051,2.64424 -2.971154,2.64424 -1.102574,0 -2.230778,-0.62501 -3.3846154,-1.87503 -1.4551341,1.25002 -2.85577413,1.87503 -4.2019229,1.87503 -0.9423102,0 -1.7339761,-0.23718 -2.375,-0.71155 -0.7115388,-0.53207 -1.0673077,-1.25319 -1.0673077,-2.16347 0,-1.75639 1.333332,-3.3269 3.99999998,-4.71155 -0.52564448,-1.1538 -0.78846478,-2.10571 -0.78846148,-2.85577 -3.3e-6,-0.96793 0.3108939,-1.74036 0.93269232,-2.31729 0.62179009,-0.57693 1.42627666,-0.86536 2.41346138,-0.86536 0.749993,0 1.3653771,0.20835 1.8461538,0.62501 0.499991,0.42305 0.7499909,0.99358 0.7500002,1.71153 -9.3e-6,1.27563 -1.0544952,2.43266 -3.1634615,3.47115 0.9102496,1.57052 1.7564023,2.89423 2.5384615,3.97112 1.1281953,-1.35253 1.6922973,-2.48074 1.6923077,-3.38461 -1.04e-5,-0.73075 -0.2948819,-1.09933 -0.8846156,-1.10578 l 0,-0.34615 m -3.68269188,0.23078 c 1.58973598,-0.75 2.38460718,-1.7083 2.38461488,-2.87496 -7.7e-6,-0.44231 -0.1410331,-0.82052 -0.4230767,-1.13466 -0.2884688,-0.30764 -0.6474426,-0.46151 -1.0769231,-0.46151 -0.4935959,0 -0.90064681,0.16667 -1.22115389,0.49996 -0.31410762,0.33335 -0.4711587,0.75323 -0.47115378,1.25965 -4.92e-6,0.60259 0.26922558,1.50641 0.80769259,2.71152 m 1.49038438,6.02886 c -1.37821098,-1.89741 -2.32051744,-3.40064 -2.82692319,-4.50959 -1.55128471,0.85256 -2.32692501,1.91666 -2.32692301,3.19228 -2e-6,0.75001 0.2211516,1.36539 0.6634615,1.84616 0.4487149,0.48716 1.0480733,0.73075 1.79807703,0.73075 0.7692253,0 1.66666067,-0.41983 2.69230767,-1.2596" style="fill:url(#oomox)" class="ColorScheme-Text"/>
 </g>
</svg>
