<svg xmlns="http://www.w3.org/2000/svg" width="16" height="16" version="1.1" style="enable-background:new">
<defs>
  <style id="current-color-scheme" type="text/css">
   .ColorScheme-Text { color:#cdd3e0; } .ColorScheme-Highlight { color:#5294e2; }
  </style>
  <linearGradient id="arrongin" x1="0%" x2="0%" y1="0%" y2="100%">
   <stop offset="0%" style="stop-color:#dd9b44; stop-opacity:1"/>
   <stop offset="100%" style="stop-color:#ad6c16; stop-opacity:1"/>
  </linearGradient>
  <linearGradient id="aurora" x1="0%" x2="0%" y1="0%" y2="100%">
   <stop offset="0%" style="stop-color:#09D4DF; stop-opacity:1"/>
   <stop offset="100%" style="stop-color:#9269F4; stop-opacity:1"/>
  </linearGradient>
  <linearGradient id="fitdance" x1="0%" x2="0%" y1="0%" y2="100%">
   <stop offset="0%" style="stop-color:#1AD6AB; stop-opacity:1"/>
   <stop offset="100%" style="stop-color:#329DB6; stop-opacity:1"/>
  </linearGradient>
  <linearGradient id="oomox" x1="0%" x2="0%" y1="0%" y2="100%">
   <stop offset="0%" style="stop-color:#d3dae3; stop-opacity:1"/>
   <stop offset="100%" style="stop-color:#5294e2; stop-opacity:1"/>
  </linearGradient>
  <linearGradient id="rainblue" x1="0%" x2="0%" y1="0%" y2="100%">
   <stop offset="0%" style="stop-color:#00F260; stop-opacity:1"/>
   <stop offset="100%" style="stop-color:#0575E6; stop-opacity:1"/>
  </linearGradient>
  <linearGradient id="sunrise" x1="0%" x2="0%" y1="0%" y2="100%">
   <stop offset="0%" style="stop-color: #FF8501; stop-opacity:1"/>
   <stop offset="100%" style="stop-color: #FFCB01; stop-opacity:1"/>
  </linearGradient>
  <linearGradient id="telinkrin" x1="0%" x2="0%" y1="0%" y2="100%">
   <stop offset="0%" style="stop-color: #b2ced6; stop-opacity:1"/>
   <stop offset="100%" style="stop-color: #6da5b7; stop-opacity:1"/>
  </linearGradient>
  <linearGradient id="60spsycho" x1="0%" x2="0%" y1="0%" y2="100%">
   <stop offset="0%" style="stop-color: #df5940; stop-opacity:1"/>
   <stop offset="25%" style="stop-color: #d8d15f; stop-opacity:1"/>
   <stop offset="50%" style="stop-color: #e9882a; stop-opacity:1"/>
   <stop offset="100%" style="stop-color: #279362; stop-opacity:1"/>
  </linearGradient>
  <linearGradient id="90ssummer" x1="0%" x2="0%" y1="0%" y2="100%">
   <stop offset="0%" style="stop-color: #f618c7; stop-opacity:1"/>
   <stop offset="20%" style="stop-color: #94ffab; stop-opacity:1"/>
   <stop offset="50%" style="stop-color: #fbfd54; stop-opacity:1"/>
   <stop offset="100%" style="stop-color: #0f83ae; stop-opacity:1"/>
  </linearGradient>
 </defs>
 <g transform="translate(-618.99999,-286)">
  <path d="m 625.52204,286.6043 -2.78833,1.13854 0.65591,1.56103 c -0.449,0.336 -0.84107,0.72944 -1.17147,1.16432 l -1.57103,-0.65163 -1.14713,2.76684 1.54668,0.65163 c -0.0741,0.5342 -0.0555,1.08257 0.0216,1.62973 l -1.56817,0.65163 1.14713,2.77115 1.57103,-0.65163 c 0.33831,0.44583 0.73354,0.83482 1.17147,1.16288 l -0.65591,1.55815 2.78833,1.14138 0.65878,-1.5352 c 0.538,0.0737 1.08583,0.0522 1.63691,-0.0227 l 0.65734,1.55958 2.78977,-1.14138 -0.65591,-1.55815 c 0.44899,-0.336 0.84106,-0.72805 1.17147,-1.16288 l 1.57246,0.65159 1.14713,-2.77115 -1.54669,-0.65159 c 0.0742,-0.53424 0.0541,-1.08257 -0.0231,-1.62977 l 1.5696,-0.65159 -1.14713,-2.76688 -1.57246,0.65163 c -0.33831,-0.44583 -0.73354,-0.83622 -1.17148,-1.16432 l 0.65592,-1.56098 -2.78977,-1.13855 -0.65734,1.53668 c -0.53801,-0.0737 -1.08584,-0.0552 -1.63691,0.0227 z m 1.47795,3.72351 c 2.07111,0 3.74928,1.667 3.74928,3.72352 0,2.05652 -1.67817,3.72351 -3.74928,3.72351 -2.07111,0 -3.75072,-1.66699 -3.75072,-3.72351 0,-2.05652 1.67961,-3.72352 3.75072,-3.72352 z" style="fill:url(#oomox)" class="ColorScheme-Text"/>
 </g>
</svg>
