<svg xmlns="http://www.w3.org/2000/svg" style="isolation:isolate" width="16" height="16" viewBox="0 0 16 16">
 <defs>
  <style id="current-color-scheme" type="text/css">
   .ColorScheme-Text { color:#cdd3e0; } .ColorScheme-Highlight { color:#5294e2; }
  </style>
  <linearGradient id="arrongin" x1="0%" x2="0%" y1="0%" y2="100%">
   <stop offset="0%" style="stop-color:#dd9b44; stop-opacity:1"/>
   <stop offset="100%" style="stop-color:#ad6c16; stop-opacity:1"/>
  </linearGradient>
  <linearGradient id="aurora" x1="0%" x2="0%" y1="0%" y2="100%">
   <stop offset="0%" style="stop-color:#09D4DF; stop-opacity:1"/>
   <stop offset="100%" style="stop-color:#9269F4; stop-opacity:1"/>
  </linearGradient>
  <linearGradient id="fitdance" x1="0%" x2="0%" y1="0%" y2="100%">
   <stop offset="0%" style="stop-color:#1AD6AB; stop-opacity:1"/>
   <stop offset="100%" style="stop-color:#329DB6; stop-opacity:1"/>
  </linearGradient>
  <linearGradient id="oomox" x1="0%" x2="0%" y1="0%" y2="100%">
   <stop offset="0%" style="stop-color:#d3dae3; stop-opacity:1"/>
   <stop offset="100%" style="stop-color:#5294e2; stop-opacity:1"/>
  </linearGradient>
  <linearGradient id="rainblue" x1="0%" x2="0%" y1="0%" y2="100%">
   <stop offset="0%" style="stop-color:#00F260; stop-opacity:1"/>
   <stop offset="100%" style="stop-color:#0575E6; stop-opacity:1"/>
  </linearGradient>
  <linearGradient id="sunrise" x1="0%" x2="0%" y1="0%" y2="100%">
   <stop offset="0%" style="stop-color: #FF8501; stop-opacity:1"/>
   <stop offset="100%" style="stop-color: #FFCB01; stop-opacity:1"/>
  </linearGradient>
  <linearGradient id="telinkrin" x1="0%" x2="0%" y1="0%" y2="100%">
   <stop offset="0%" style="stop-color: #b2ced6; stop-opacity:1"/>
   <stop offset="100%" style="stop-color: #6da5b7; stop-opacity:1"/>
  </linearGradient>
  <linearGradient id="60spsycho" x1="0%" x2="0%" y1="0%" y2="100%">
   <stop offset="0%" style="stop-color: #df5940; stop-opacity:1"/>
   <stop offset="25%" style="stop-color: #d8d15f; stop-opacity:1"/>
   <stop offset="50%" style="stop-color: #e9882a; stop-opacity:1"/>
   <stop offset="100%" style="stop-color: #279362; stop-opacity:1"/>
  </linearGradient>
  <linearGradient id="90ssummer" x1="0%" x2="0%" y1="0%" y2="100%">
   <stop offset="0%" style="stop-color: #f618c7; stop-opacity:1"/>
   <stop offset="20%" style="stop-color: #94ffab; stop-opacity:1"/>
   <stop offset="50%" style="stop-color: #fbfd54; stop-opacity:1"/>
   <stop offset="100%" style="stop-color: #0f83ae; stop-opacity:1"/>
  </linearGradient>
 </defs>
 <path style="fill:url(#oomox)" class="ColorScheme-Text" d="M 10.415 13.531 L 10.415 11.061 L 10.569 11.149 C 10.654 11.197 10.952 11.371 11.231 11.536 C 11.442 11.661 11.654 11.785 11.866 11.908 C 12 11.985 12.013 11.992 12.49 12.278 C 12.655 12.377 12.824 12.476 12.863 12.499 C 12.903 12.522 13.107 12.643 13.317 12.768 C 13.486 12.869 13.655 12.969 13.825 13.069 C 13.895 13.109 14.001 13.171 14.06 13.207 C 14.12 13.243 14.262 13.326 14.376 13.391 C 14.593 13.515 14.603 13.566 14.425 13.642 C 14.384 13.66 14.275 13.719 14.184 13.774 C 14.091 13.83 13.849 13.973 13.645 14.093 C 13.489 14.184 13.333 14.276 13.178 14.369 C 13.125 14.401 13.024 14.46 12.954 14.5 C 12.884 14.54 12.656 14.675 12.446 14.8 C 12.278 14.901 12.108 15.001 11.938 15.1 C 11.869 15.14 11.763 15.203 11.703 15.239 C 11.643 15.276 11.537 15.339 11.467 15.38 C 11.397 15.421 11.275 15.495 11.195 15.545 C 11.115 15.595 11.025 15.646 10.995 15.659 C 10.965 15.672 10.9 15.709 10.85 15.742 C 10.8 15.775 10.682 15.847 10.587 15.901 L 10.415 16 L 10.415 13.531 L 10.415 13.531 Z M 7.495 14.57 C 7.029 14.488 6.847 14.441 6.316 14.267 C 6.053 14.18 5.304 13.832 5.119 13.711 C 4.441 13.264 4.301 13.153 3.829 12.68 C 3.355 12.206 3.26 12.088 2.798 11.39 C 2.719 11.271 2.395 10.619 2.409 10.606 C 2.414 10.6 2.58 10.499 2.777 10.381 L 3.135 10.167 L 3.299 10.497 C 4.15 12.208 5.656 13.337 7.567 13.697 C 7.948 13.769 8.915 13.793 9.263 13.74 L 9.436 13.713 L 9.436 14.144 C 9.436 14.519 9.427 14.578 9.372 14.602 C 9.337 14.617 9.007 14.634 8.638 14.641 C 8.064 14.651 7.898 14.641 7.495 14.57 L 7.495 14.57 Z M 8.039 12.335 C 7.743 12.308 7.375 12.218 6.99 12.079 C 6.763 11.997 6.264 11.742 6.168 11.658 C 6.137 11.63 6.099 11.608 6.084 11.608 C 6.028 11.608 5.52 11.167 5.308 10.936 C 4.966 10.563 4.606 9.997 4.464 9.608 C 4.426 9.503 4.399 9.415 4.403 9.411 C 4.408 9.408 4.583 9.305 4.793 9.183 L 5.173 8.961 L 5.195 9.06 C 5.207 9.115 5.283 9.298 5.363 9.468 C 5.813 10.412 6.656 11.106 7.676 11.371 C 7.973 11.448 8.11 11.463 8.543 11.463 C 8.859 11.463 9.13 11.444 9.247 11.413 L 9.438 11.364 L 9.428 11.819 L 9.417 12.274 L 9.32 12.3 C 9.162 12.342 8.353 12.364 8.039 12.335 L 8.039 12.335 Z M 13.517 11.769 C 13.338 11.662 13.186 11.559 13.18 11.541 C 13.173 11.522 13.255 11.379 13.362 11.222 C 13.632 10.823 13.684 10.728 13.87 10.299 C 14.259 9.402 14.397 8.628 14.35 7.618 C 14.313 6.828 14.137 6.148 13.782 5.423 C 13.535 4.921 13.461 4.793 13.289 4.578 C 13.22 4.492 13.17 4.417 13.177 4.412 C 13.316 4.312 13.922 3.992 13.951 4.003 C 14.007 4.024 14.435 4.741 14.595 5.078 C 14.836 5.59 14.973 6.003 15.135 6.711 C 15.205 7.013 15.215 7.163 15.216 7.926 C 15.217 8.736 15.21 8.828 15.119 9.255 C 15.022 9.71 14.986 9.835 14.809 10.32 C 14.595 10.907 13.976 11.985 13.864 11.967 C 13.852 11.965 13.696 11.876 13.517 11.769 L 13.517 11.769 Z M 11.757 10.728 C 11.687 10.687 11.581 10.625 11.521 10.588 C 11.441 10.539 11.359 10.492 11.276 10.447 C 11.202 10.406 11.14 10.366 11.14 10.357 C 11.14 10.349 11.183 10.296 11.235 10.24 C 11.483 9.975 11.79 9.418 11.921 8.996 C 12.251 7.93 12.029 6.672 11.359 5.82 L 11.179 5.59 L 11.441 5.441 C 11.57 5.368 11.698 5.294 11.826 5.219 L 11.95 5.146 L 12.034 5.248 C 12.122 5.355 12.378 5.767 12.492 5.985 C 12.958 6.876 13.081 8.107 12.804 9.105 C 12.653 9.648 12.193 10.531 11.952 10.742 C 11.889 10.796 11.875 10.795 11.757 10.728 L 11.757 10.728 L 11.757 10.728 Z M 0.794 7.952 L 0.803 5.47 L 0.891 5.527 C 0.939 5.559 1.041 5.62 1.117 5.663 C 1.193 5.706 1.299 5.768 1.352 5.8 C 1.405 5.832 1.552 5.92 1.678 5.994 C 1.805 6.069 1.974 6.171 2.054 6.221 C 2.137 6.273 2.221 6.322 2.308 6.367 C 2.368 6.398 2.539 6.498 2.689 6.589 C 2.838 6.681 3.01 6.785 3.069 6.82 C 3.129 6.855 3.407 7.018 3.686 7.182 C 4.289 7.537 4.424 7.616 4.52 7.669 C 4.56 7.691 4.638 7.738 4.693 7.772 C 4.748 7.807 4.835 7.861 4.887 7.893 L 4.982 7.951 L 4.86 8.028 C 4.793 8.07 4.705 8.123 4.665 8.145 C 4.455 8.265 3.598 8.768 3.194 9.009 C 3.123 9.052 2.897 9.185 2.692 9.304 C 2.317 9.524 2.206 9.589 1.99 9.721 C 1.925 9.76 1.815 9.826 1.745 9.867 C 1.676 9.908 1.569 9.971 1.51 10.008 C 1.45 10.044 1.344 10.107 1.274 10.147 C 1.204 10.186 1.065 10.268 0.966 10.327 L 0.784 10.434 L 0.794 7.952 L 0.794 7.952 Z M 4.847 6.745 C 4.687 6.648 4.52 6.551 4.475 6.531 C 4.43 6.511 4.394 6.49 4.394 6.485 C 4.396 6.439 4.51 6.174 4.621 5.957 C 4.896 5.416 5.302 4.914 5.793 4.508 C 6.331 4.064 7.143 3.707 7.879 3.592 C 8.196 3.543 8.871 3.545 9.184 3.596 L 9.436 3.638 L 9.436 4.524 L 9.136 4.476 C 8.575 4.384 7.918 4.434 7.406 4.606 C 6.911 4.773 6.335 5.149 5.962 5.548 C 5.663 5.868 5.259 6.546 5.205 6.818 C 5.192 6.879 5.172 6.927 5.16 6.925 C 5.147 6.923 5.006 6.842 4.847 6.745 L 4.847 6.745 Z M 2.997 5.658 C 2.937 5.62 2.78 5.528 2.648 5.454 C 2.451 5.342 2.412 5.305 2.428 5.244 C 2.451 5.155 2.707 4.665 2.803 4.529 C 2.84 4.476 2.87 4.422 2.87 4.409 C 2.87 4.373 3.006 4.188 3.37 3.729 C 3.869 3.099 4.494 2.561 5.197 2.155 C 6.137 1.613 7.124 1.322 8.156 1.282 C 8.471 1.269 8.887 1.271 9.082 1.286 L 9.436 1.313 L 9.436 2.179 L 8.864 2.155 C 7.445 2.097 6.394 2.387 5.247 3.151 C 4.907 3.377 4.199 4.029 4 4.298 C 3.956 4.358 3.847 4.505 3.758 4.625 C 3.669 4.745 3.596 4.854 3.596 4.868 C 3.596 4.882 3.554 4.954 3.504 5.028 C 3.454 5.102 3.353 5.29 3.28 5.447 C 3.207 5.603 3.138 5.73 3.126 5.729 C 3.115 5.727 3.057 5.695 2.997 5.658 L 2.997 5.658 Z M 10.415 2.469 C 10.415 1.111 10.425 0 10.437 0 C 10.449 0 10.616 0.093 10.809 0.208 C 10.949 0.292 11.09 0.374 11.231 0.456 C 11.271 0.479 11.475 0.6 11.685 0.725 C 11.853 0.826 12.023 0.926 12.192 1.026 C 12.262 1.066 12.368 1.128 12.428 1.164 C 12.549 1.236 12.67 1.308 12.791 1.378 C 12.931 1.46 13.098 1.559 13.163 1.598 L 13.386 1.732 C 13.545 1.826 13.705 1.92 13.865 2.013 C 14.069 2.133 14.295 2.267 14.366 2.312 C 14.438 2.357 14.524 2.406 14.559 2.422 C 14.61 2.445 14.582 2.473 14.414 2.569 C 14.302 2.633 14.19 2.698 14.079 2.764 C 14.009 2.806 13.919 2.859 13.879 2.882 C 13.754 2.954 13.629 3.028 13.505 3.103 C 13.119 3.335 12.731 3.564 12.341 3.791 C 12.177 3.886 12.013 3.983 11.85 4.081 C 11.784 4.121 11.564 4.251 11.36 4.371 C 11.191 4.47 11.023 4.57 10.856 4.671 C 10.783 4.716 10.699 4.764 10.669 4.777 C 10.639 4.79 10.57 4.831 10.515 4.869 L 10.415 4.938 L 10.415 2.469 L 10.415 2.469 Z"/>
</svg>
