<svg xmlns="http://www.w3.org/2000/svg" style="isolation:isolate" width="16" height="16" viewBox="0 0 16 16">
 <defs>
  <style id="current-color-scheme" type="text/css">
   .ColorScheme-Text { color:#cdd3e0; } .ColorScheme-Highlight { color:#5294e2; }
  </style>
  <linearGradient id="arrongin" x1="0%" x2="0%" y1="0%" y2="100%">
   <stop offset="0%" style="stop-color:#dd9b44; stop-opacity:1"/>
   <stop offset="100%" style="stop-color:#ad6c16; stop-opacity:1"/>
  </linearGradient>
  <linearGradient id="aurora" x1="0%" x2="0%" y1="0%" y2="100%">
   <stop offset="0%" style="stop-color:#09D4DF; stop-opacity:1"/>
   <stop offset="100%" style="stop-color:#9269F4; stop-opacity:1"/>
  </linearGradient>
  <linearGradient id="fitdance" x1="0%" x2="0%" y1="0%" y2="100%">
   <stop offset="0%" style="stop-color:#1AD6AB; stop-opacity:1"/>
   <stop offset="100%" style="stop-color:#329DB6; stop-opacity:1"/>
  </linearGradient>
  <linearGradient id="oomox" x1="0%" x2="0%" y1="0%" y2="100%">
   <stop offset="0%" style="stop-color:#d3dae3; stop-opacity:1"/>
   <stop offset="100%" style="stop-color:#5294e2; stop-opacity:1"/>
  </linearGradient>
  <linearGradient id="rainblue" x1="0%" x2="0%" y1="0%" y2="100%">
   <stop offset="0%" style="stop-color:#00F260; stop-opacity:1"/>
   <stop offset="100%" style="stop-color:#0575E6; stop-opacity:1"/>
  </linearGradient>
  <linearGradient id="sunrise" x1="0%" x2="0%" y1="0%" y2="100%">
   <stop offset="0%" style="stop-color: #FF8501; stop-opacity:1"/>
   <stop offset="100%" style="stop-color: #FFCB01; stop-opacity:1"/>
  </linearGradient>
  <linearGradient id="telinkrin" x1="0%" x2="0%" y1="0%" y2="100%">
   <stop offset="0%" style="stop-color: #b2ced6; stop-opacity:1"/>
   <stop offset="100%" style="stop-color: #6da5b7; stop-opacity:1"/>
  </linearGradient>
  <linearGradient id="60spsycho" x1="0%" x2="0%" y1="0%" y2="100%">
   <stop offset="0%" style="stop-color: #df5940; stop-opacity:1"/>
   <stop offset="25%" style="stop-color: #d8d15f; stop-opacity:1"/>
   <stop offset="50%" style="stop-color: #e9882a; stop-opacity:1"/>
   <stop offset="100%" style="stop-color: #279362; stop-opacity:1"/>
  </linearGradient>
  <linearGradient id="90ssummer" x1="0%" x2="0%" y1="0%" y2="100%">
   <stop offset="0%" style="stop-color: #f618c7; stop-opacity:1"/>
   <stop offset="20%" style="stop-color: #94ffab; stop-opacity:1"/>
   <stop offset="50%" style="stop-color: #fbfd54; stop-opacity:1"/>
   <stop offset="100%" style="stop-color: #0f83ae; stop-opacity:1"/>
  </linearGradient>
 </defs>
 <path style="fill:url(#oomox)" class="ColorScheme-Text" fill-rule="evenodd" d="M 15.361 11.133 C 10.96 13.185 6.238 13.859 2.202 13.506 C 3.711 15.097 5.807 15.999 8 16 C 11.208 16 14.105 14.084 15.361 11.133 L 15.361 11.133 L 15.361 11.133 L 15.361 11.133 L 15.361 11.133 L 15.361 11.133 L 15.361 11.133 Z M 6.286 8.857 L 9.714 8.857 L 9.714 9.714 L 6.286 9.714 L 6.286 8.857 L 6.286 8.857 L 6.286 8.857 L 6.286 8.857 L 6.286 8.857 Z M 9.82 6.34 L 9.38 5.603 L 11.6 4.271 L 13.82 5.603 L 13.38 6.34 L 11.6 5.271 L 9.82 6.34 L 9.82 6.34 L 9.82 6.34 Z M 8 0 C 3.582 0 0 3.582 0 8 C 0.002 9.303 0.322 10.586 0.933 11.737 C 5.28 12.419 10.94 11.743 15.92 9.064 C 15.971 8.712 15.997 8.356 16 8 C 16 3.582 12.418 0 8 0 L 8 0 L 8 0 L 8 0 L 8 0 L 8 0 L 8 0 Z M 3.857 4.286 L 4.286 4.286 L 4.286 5.143 L 3.857 5.143 C 3.605 5.143 3.429 4.967 3.429 4.714 C 3.429 4.462 3.605 4.286 3.857 4.286 L 3.857 4.286 L 3.857 4.286 Z M 5.143 6 L 5.571 6 C 5.824 6 6 6.176 6 6.429 C 6 6.681 5.824 6.857 5.571 6.857 L 5.143 6.857 L 5.143 6 L 5.143 6 L 5.143 6 Z M 4.286 2.571 L 4.286 3.429 L 3.857 3.429 C 3.145 3.429 2.571 4.002 2.571 4.714 C 2.571 5.427 3.145 6 3.857 6 L 4.286 6 L 4.286 6.857 L 3.857 6.857 L 2.65 6.857 C 2.827 7.356 3.296 7.714 3.857 7.714 L 4.286 7.714 L 4.286 8.571 L 5.143 8.571 L 5.143 7.714 L 5.571 7.714 C 6.284 7.714 6.857 7.141 6.857 6.429 C 6.857 5.716 6.284 5.143 5.571 5.143 L 5.143 5.143 L 5.143 4.286 L 5.571 4.286 L 5.714 4.286 L 6.778 4.286 C 6.602 3.787 6.132 3.429 5.571 3.429 L 5.143 3.429 L 5.143 2.571 L 4.286 2.571 L 4.286 2.571 L 4.286 2.571 Z"/>
</svg>
