<svg xmlns="http://www.w3.org/2000/svg" style="isolation:isolate" width="16" height="16" viewBox="0 0 16 16">
 <defs>
  <style id="current-color-scheme" type="text/css">
   .ColorScheme-Text { color:#cdd3e0; } .ColorScheme-Highlight { color:#5294e2; }
  </style>
  <linearGradient id="arrongin" x1="0%" x2="0%" y1="0%" y2="100%">
   <stop offset="0%" style="stop-color:#dd9b44; stop-opacity:1"/>
   <stop offset="100%" style="stop-color:#ad6c16; stop-opacity:1"/>
  </linearGradient>
  <linearGradient id="aurora" x1="0%" x2="0%" y1="0%" y2="100%">
   <stop offset="0%" style="stop-color:#09D4DF; stop-opacity:1"/>
   <stop offset="100%" style="stop-color:#9269F4; stop-opacity:1"/>
  </linearGradient>
  <linearGradient id="fitdance" x1="0%" x2="0%" y1="0%" y2="100%">
   <stop offset="0%" style="stop-color:#1AD6AB; stop-opacity:1"/>
   <stop offset="100%" style="stop-color:#329DB6; stop-opacity:1"/>
  </linearGradient>
  <linearGradient id="oomox" x1="0%" x2="0%" y1="0%" y2="100%">
   <stop offset="0%" style="stop-color:#d3dae3; stop-opacity:1"/>
   <stop offset="100%" style="stop-color:#5294e2; stop-opacity:1"/>
  </linearGradient>
  <linearGradient id="rainblue" x1="0%" x2="0%" y1="0%" y2="100%">
   <stop offset="0%" style="stop-color:#00F260; stop-opacity:1"/>
   <stop offset="100%" style="stop-color:#0575E6; stop-opacity:1"/>
  </linearGradient>
  <linearGradient id="sunrise" x1="0%" x2="0%" y1="0%" y2="100%">
   <stop offset="0%" style="stop-color: #FF8501; stop-opacity:1"/>
   <stop offset="100%" style="stop-color: #FFCB01; stop-opacity:1"/>
  </linearGradient>
  <linearGradient id="telinkrin" x1="0%" x2="0%" y1="0%" y2="100%">
   <stop offset="0%" style="stop-color: #b2ced6; stop-opacity:1"/>
   <stop offset="100%" style="stop-color: #6da5b7; stop-opacity:1"/>
  </linearGradient>
  <linearGradient id="60spsycho" x1="0%" x2="0%" y1="0%" y2="100%">
   <stop offset="0%" style="stop-color: #df5940; stop-opacity:1"/>
   <stop offset="25%" style="stop-color: #d8d15f; stop-opacity:1"/>
   <stop offset="50%" style="stop-color: #e9882a; stop-opacity:1"/>
   <stop offset="100%" style="stop-color: #279362; stop-opacity:1"/>
  </linearGradient>
  <linearGradient id="90ssummer" x1="0%" x2="0%" y1="0%" y2="100%">
   <stop offset="0%" style="stop-color: #f618c7; stop-opacity:1"/>
   <stop offset="20%" style="stop-color: #94ffab; stop-opacity:1"/>
   <stop offset="50%" style="stop-color: #fbfd54; stop-opacity:1"/>
   <stop offset="100%" style="stop-color: #0f83ae; stop-opacity:1"/>
  </linearGradient>
 </defs>
 <path style="fill:url(#oomox)" class="ColorScheme-Text" fill-rule="evenodd" d="M 8.585 0.764 C 8.585 0.788 8.582 0.824 8.577 0.874 C 8.571 0.923 8.564 0.979 8.556 1.04 C 8.547 1.101 8.534 1.166 8.517 1.232 C 8.5 1.3 8.481 1.362 8.458 1.421 C 8.435 1.479 8.41 1.526 8.382 1.561 C 8.353 1.595 8.322 1.613 8.288 1.613 C 8.249 1.613 8.199 1.601 8.14 1.578 C 8.08 1.555 8.011 1.53 7.932 1.504 C 7.853 1.478 7.759 1.453 7.652 1.429 C 7.544 1.406 7.426 1.394 7.296 1.394 C 7.052 1.394 6.844 1.432 6.672 1.508 C 6.499 1.584 6.351 1.702 6.227 1.862 C 6.102 2.023 5.998 2.225 5.913 2.47 C 5.828 2.715 5.754 3.004 5.692 3.336 L 5.548 4.124 L 7.361 4.124 C 7.423 4.124 7.472 4.146 7.509 4.189 C 7.546 4.233 7.564 4.305 7.564 4.404 C 7.564 4.468 7.559 4.535 7.547 4.605 C 7.536 4.675 7.522 4.744 7.505 4.81 C 7.488 4.878 7.467 4.942 7.441 5.003 C 7.416 5.064 7.388 5.063 7.356 5.109 C 7.325 5.156 7.29 5.194 7.25 5.223 C 7.211 5.252 7.171 5.266 7.132 5.267 L 5.311 5.267 L 3.86 12.944 C 3.764 13.434 3.634 13.858 3.47 14.217 C 3.306 14.576 3.105 14.873 2.867 15.109 C 2.63 15.345 2.356 15.52 2.044 15.634 C 1.733 15.748 1.383 15.805 0.993 15.805 C 0.738 15.805 0.53 15.784 0.369 15.744 C 0.208 15.703 0.107 15.665 0.068 15.63 C 0.045 15.6 0.028 15.568 0.017 15.534 C 0.006 15.499 0 15.452 0 15.394 C 0 15.37 0.004 15.331 0.013 15.275 C 0.021 15.22 0.031 15.162 0.042 15.101 C 0.054 15.039 0.068 14.975 0.085 14.908 C 0.102 14.841 0.122 14.778 0.144 14.72 C 0.167 14.662 0.192 14.615 0.22 14.58 C 0.249 14.545 0.283 14.527 0.322 14.527 C 0.362 14.527 0.4 14.532 0.437 14.54 C 0.473 14.549 0.513 14.558 0.555 14.567 C 0.598 14.575 0.649 14.584 0.708 14.593 C 0.768 14.602 0.842 14.606 0.933 14.606 C 1.17 14.606 1.375 14.568 1.548 14.492 C 1.72 14.416 1.867 14.298 1.989 14.138 C 2.111 13.977 2.212 13.775 2.295 13.53 C 2.376 13.285 2.451 12.99 2.519 12.646 L 3.911 5.266 L 2.825 5.266 C 2.768 5.266 2.724 5.248 2.693 5.21 C 2.662 5.172 2.647 5.156 2.647 5.051 C 2.647 5.004 2.649 4.947 2.655 4.88 C 2.661 4.813 2.671 4.745 2.685 4.675 C 2.699 4.605 2.717 4.538 2.74 4.473 C 2.762 4.409 2.791 4.351 2.825 4.298 C 2.859 4.246 2.894 4.204 2.931 4.171 C 2.968 4.139 3.014 4.123 3.071 4.123 L 4.14 4.123 L 4.352 3.03 C 4.442 2.552 4.572 2.133 4.742 1.774 C 4.912 1.416 5.117 1.12 5.357 0.886 C 5.598 0.653 5.875 0.48 6.188 0.366 C 6.502 0.252 6.849 0.195 7.228 0.195 C 7.352 0.195 7.482 0.202 7.618 0.217 C 7.754 0.232 7.88 0.252 7.996 0.278 C 8.111 0.305 8.213 0.335 8.301 0.37 C 8.389 0.405 8.45 0.44 8.483 0.475 C 8.517 0.504 8.543 0.545 8.56 0.598 C 8.577 0.651 8.585 0.706 8.585 0.764 L 8.585 0.764 Z M 14.519 7.171 C 14.519 7.011 14.505 6.829 14.477 6.622 C 14.448 6.416 14.392 6.224 14.31 6.047 C 14.227 5.87 14.107 5.722 13.95 5.601 C 13.793 5.48 13.583 5.419 13.321 5.419 C 13.013 5.419 12.699 5.511 12.379 5.694 C 12.06 5.876 11.763 6.129 11.489 6.45 C 11.215 6.771 10.971 7.149 10.758 7.582 C 10.543 8.015 10.388 8.261 10.291 8.774 L 10.009 10.242 C 10.277 10.649 10.565 10.95 10.873 11.144 C 11.181 11.339 11.529 11.436 11.917 11.436 C 12.214 11.436 12.482 11.366 12.722 11.224 C 12.961 11.082 13.178 10.894 13.372 10.658 C 13.566 10.422 13.735 10.153 13.877 9.849 C 14.02 9.545 14.138 9.227 14.232 8.894 C 14.327 8.561 14.398 8.453 14.446 8.117 C 14.495 7.781 14.519 7.466 14.519 7.171 L 14.519 7.171 L 14.519 7.171 Z M 16 7.047 C 16 7.4 15.969 7.791 15.906 8.218 C 15.843 8.646 15.742 8.849 15.602 9.282 C 15.462 9.716 15.287 10.137 15.076 10.547 C 14.865 10.957 14.606 11.32 14.301 11.635 C 13.996 11.95 13.645 12.204 13.248 12.396 C 12.852 12.587 12.405 12.683 11.909 12.683 C 11.395 12.683 10.956 12.583 10.591 12.382 C 10.226 12.182 9.9 11.893 9.615 11.516 L 9.461 12.35 C 9.449 12.451 9.388 12.522 9.277 12.563 C 9.166 12.604 8.996 12.625 8.768 12.625 C 8.528 12.625 8.368 12.601 8.288 12.554 C 8.209 12.507 8.18 12.439 8.203 12.351 L 10.48 0.478 C 10.491 0.431 10.509 0.39 10.535 0.354 C 10.561 0.319 10.604 0.29 10.664 0.266 C 10.723 0.242 10.801 0.225 10.895 0.213 C 10.989 0.201 11.107 0.195 11.25 0.195 C 11.387 0.195 11.498 0.201 11.584 0.213 C 11.669 0.225 11.738 0.242 11.789 0.266 C 11.84 0.289 11.872 0.319 11.883 0.354 C 11.895 0.39 11.897 0.431 11.892 0.478 L 11.207 4.261 C 11.178 4.414 11.144 4.573 11.104 4.738 C 11.064 4.903 11.023 5.067 10.98 5.229 C 10.937 5.391 10.895 5.545 10.852 5.689 C 10.809 5.834 10.771 5.959 10.736 6.065 C 10.827 5.859 10.971 5.645 11.168 5.424 C 11.365 5.203 11.596 4.999 11.862 4.813 C 12.127 4.628 12.416 4.473 12.73 4.349 C 13.044 4.225 13.361 4.163 13.68 4.163 C 14.023 4.163 14.316 4.211 14.562 4.305 C 14.807 4.399 15.016 4.525 15.187 4.681 C 15.358 4.837 15.496 5.016 15.602 5.216 C 15.707 5.416 15.789 5.623 15.846 5.835 C 15.903 6.047 15.943 6.258 15.966 6.467 C 15.989 6.677 16 6.87 16 7.047 L 16 7.047 L 16 7.047 Z"/>
</svg>
