<svg xmlns="http://www.w3.org/2000/svg" style="isolation:isolate" width="16" height="16" viewBox="0 0 16 16">
 <defs>
  <style id="current-color-scheme" type="text/css">
   .ColorScheme-Text { color:#cdd3e0; } .ColorScheme-Highlight { color:#5294e2; }
  </style>
  <linearGradient id="arrongin" x1="0%" x2="0%" y1="0%" y2="100%">
   <stop offset="0%" style="stop-color:#dd9b44; stop-opacity:1"/>
   <stop offset="100%" style="stop-color:#ad6c16; stop-opacity:1"/>
  </linearGradient>
  <linearGradient id="aurora" x1="0%" x2="0%" y1="0%" y2="100%">
   <stop offset="0%" style="stop-color:#09D4DF; stop-opacity:1"/>
   <stop offset="100%" style="stop-color:#9269F4; stop-opacity:1"/>
  </linearGradient>
  <linearGradient id="fitdance" x1="0%" x2="0%" y1="0%" y2="100%">
   <stop offset="0%" style="stop-color:#1AD6AB; stop-opacity:1"/>
   <stop offset="100%" style="stop-color:#329DB6; stop-opacity:1"/>
  </linearGradient>
  <linearGradient id="oomox" x1="0%" x2="0%" y1="0%" y2="100%">
   <stop offset="0%" style="stop-color:#d3dae3; stop-opacity:1"/>
   <stop offset="100%" style="stop-color:#5294e2; stop-opacity:1"/>
  </linearGradient>
  <linearGradient id="rainblue" x1="0%" x2="0%" y1="0%" y2="100%">
   <stop offset="0%" style="stop-color:#00F260; stop-opacity:1"/>
   <stop offset="100%" style="stop-color:#0575E6; stop-opacity:1"/>
  </linearGradient>
  <linearGradient id="sunrise" x1="0%" x2="0%" y1="0%" y2="100%">
   <stop offset="0%" style="stop-color: #FF8501; stop-opacity:1"/>
   <stop offset="100%" style="stop-color: #FFCB01; stop-opacity:1"/>
  </linearGradient>
  <linearGradient id="telinkrin" x1="0%" x2="0%" y1="0%" y2="100%">
   <stop offset="0%" style="stop-color: #b2ced6; stop-opacity:1"/>
   <stop offset="100%" style="stop-color: #6da5b7; stop-opacity:1"/>
  </linearGradient>
  <linearGradient id="60spsycho" x1="0%" x2="0%" y1="0%" y2="100%">
   <stop offset="0%" style="stop-color: #df5940; stop-opacity:1"/>
   <stop offset="25%" style="stop-color: #d8d15f; stop-opacity:1"/>
   <stop offset="50%" style="stop-color: #e9882a; stop-opacity:1"/>
   <stop offset="100%" style="stop-color: #279362; stop-opacity:1"/>
  </linearGradient>
  <linearGradient id="90ssummer" x1="0%" x2="0%" y1="0%" y2="100%">
   <stop offset="0%" style="stop-color: #f618c7; stop-opacity:1"/>
   <stop offset="20%" style="stop-color: #94ffab; stop-opacity:1"/>
   <stop offset="50%" style="stop-color: #fbfd54; stop-opacity:1"/>
   <stop offset="100%" style="stop-color: #0f83ae; stop-opacity:1"/>
  </linearGradient>
 </defs>
 <path style="fill:url(#oomox)" class="ColorScheme-Text" d="M 0.018 2.104 C 0.038 2.105 0.058 2.108 0.074 2.121 C 0.164 2.194 0.261 2.248 0.351 2.328 C 2.639 4.35 3.801 4.232 5.692 5.494 C 5.777 5.55 6.275 5.667 6.612 6.07 C 6.626 6.085 6.636 6.106 6.659 6.11 C 7.126 6.224 7.096 6.216 7.096 6.228 C 7.103 6.316 7.104 6.405 7.112 6.493 C 7.12 6.491 7.127 6.486 7.13 6.479 C 7.447 5.893 8.194 5.688 8.186 5.693 C 9.476 4.83 10.916 4.408 11.761 3.847 C 12.475 3.372 13.817 2.172 13.72 2.246 C 13.877 2.126 13.915 2.086 13.938 2.157 C 14.03 2.446 13.546 3.667 12.871 4.17 C 12.675 4.317 12.604 4.306 12.604 4.342 C 12.799 4.306 13.022 4.249 13.166 4.274 C 13.519 4.333 12.739 4.755 12.423 4.922 C 12.391 4.94 12.058 5.099 12.053 5.117 C 12.202 5.088 13.031 4.853 13.122 4.992 C 13.13 5.043 13.036 5.091 13.025 5.107 C 13.006 5.124 12.986 5.144 12.959 5.148 C 12.844 5.27 11.63 5.824 10.091 6.289 C 10.082 6.29 10.076 6.297 10.076 6.307 C 12.21 6.02 11.641 6.575 9.606 6.834 C 9.584 6.854 9.569 6.881 9.551 6.905 C 9.585 6.915 10.166 6.963 10.503 7.092 C 10.786 7.208 10.478 7.265 10.139 7.264 C 9.351 7.267 9.263 7.142 9.204 7.224 C 9.685 7.378 10.121 7.568 10.121 7.568 C 10.163 7.559 10.202 7.541 10.243 7.527 C 12.182 6.825 13.753 5.798 14.868 6.539 C 15.103 6.691 15.261 6.908 15.275 7.189 C 15.285 7.475 15.13 7.781 15.015 7.931 C 15.002 7.947 14.987 7.962 14.976 7.98 C 16.16 8.521 16.156 9.148 15.766 9.565 C 15.02 10.413 13.39 9.768 12.988 9.308 C 13.048 9.329 13.105 9.359 13.165 9.38 C 13.753 9.607 14.536 9.674 14.454 9.271 C 14.344 8.17 12.287 8.814 9.879 8.241 C 9.833 8.231 9.788 8.218 9.742 8.209 C 9.745 8.217 9.746 8.227 9.757 8.228 C 11.022 8.671 12.451 8.8 13.057 9.432 C 13.454 9.885 13.588 10.646 12.755 11.077 C 12.602 11.153 12.342 11.291 11.956 11.139 C 11.547 10.987 11.192 10.529 11.166 10.179 C 11.213 10.232 11.314 10.394 11.524 10.532 C 11.674 10.634 11.899 10.717 12.043 10.608 C 12.121 10.551 12.228 10.316 12.218 10.15 C 12.188 9.55 10.921 9.439 9.955 8.776 C 9.864 8.709 9.571 8.521 9.134 8.079 C 9.119 8.128 9.1 8.176 9.079 8.223 C 9.067 8.246 9.076 8.271 9.077 8.295 C 9.081 8.318 9.078 8.345 9.094 8.365 C 9.974 9.669 9.705 10.552 10.053 10.996 C 10.226 11.224 10.623 11.138 10.676 10.977 C 10.75 10.766 10.58 10.469 10.423 10.309 C 10.822 10.413 11.342 11.142 10.873 11.687 C 10.485 12.176 9.965 12.121 9.616 11.743 C 9.142 11.262 9.281 9.988 9.131 8.903 C 9.128 8.902 9.123 8.9 9.12 8.899 C 9.202 11.037 8.327 12.486 9.243 12.733 C 9.427 12.782 9.494 12.488 9.515 12.3 C 9.545 11.932 9.472 11.659 9.461 11.589 C 9.729 11.892 10.003 13.266 9.284 13.75 C 8.629 14.208 8.207 13.496 8.116 12.923 C 7.159 13.378 6.8 12.528 6.96 11.821 C 7.102 11.23 7.612 10.533 8.064 9.86 C 8.18 9.687 8.789 8.768 8.837 8.566 C 8.81 8.574 8.288 9.145 7.259 9.072 C 6.288 9.008 5.9 8.417 5.878 8.405 C 5.875 8.46 5.869 8.69 5.864 8.72 C 5.768 8.627 4.88 7.535 4.825 7.533 C 4.711 7.538 4.607 7.537 4.514 7.59 C 4.376 7.651 4.325 7.852 4.314 7.878 C 4.287 7.823 4.276 7.761 4.251 7.705 C 4.02 7.829 2.663 8.323 2.56 8.138 C 2.479 7.975 3.592 7.434 4.162 7.23 C 4.166 7.174 4.18 7.12 4.195 7.066 C 4.116 7.066 3.528 7.114 3.326 7.032 C 3.248 6.999 3.291 6.954 3.367 6.918 C 3.658 6.789 4.312 6.73 4.35 6.724 C 4.337 6.701 4.32 6.68 4.305 6.658 C 4.305 6.658 3.554 6.553 3.021 6.397 C 2.072 6.123 2.386 5.923 3.731 6.108 C 3.766 6.113 3.802 6.119 3.838 6.12 C 3.836 6.113 0.82 5.141 0.784 4.781 C 0.921 4.659 1.75 4.904 1.854 4.921 C 1.851 4.905 1.834 4.902 1.822 4.895 C 1.502 4.741 1.097 4.52 1.087 4.497 C 1.033 4.478 0.838 4.345 0.798 4.302 C 0.759 4.281 0.617 4.151 0.669 4.11 C 0.669 4.107 0.669 4.103 0.669 4.1 C 0.807 3.993 1.207 4.166 1.312 4.131 C 1.285 4.117 1.258 4.098 1.229 4.086 C 1.21 4.074 1.184 4.067 1.173 4.046 C 0.83 3.906 -0.042 2.906 0.002 2.121 C 0.007 2.12 0.012 2.119 0.017 2.119 C 0.017 2.116 0.018 2.108 0.018 2.104 Z M 13.398 7.259 C 13.283 7.267 13.168 7.285 13.054 7.305 C 12.626 7.381 12.217 7.532 11.8 7.651 C 11.535 7.726 11.266 7.791 10.994 7.833 C 10.986 7.834 10.981 7.838 10.977 7.844 C 11.065 7.846 11.152 7.834 11.239 7.832 C 11.777 7.801 12.314 7.766 12.852 7.748 C 13.091 7.744 13.33 7.736 13.569 7.746 C 13.747 7.747 13.925 7.763 14.102 7.777 C 14.104 7.731 14.082 7.69 14.069 7.647 C 14.04 7.573 14.004 7.499 13.951 7.439 C 13.893 7.371 13.814 7.323 13.73 7.294 C 13.624 7.257 13.51 7.253 13.398 7.259 Z M 8.614 9.841 C 8.586 9.91 8.56 9.979 8.529 10.046 C 8.48 10.164 8.42 10.276 8.366 10.39 C 8.349 10.416 8.335 10.443 8.322 10.471 C 8.21 10.684 8.089 10.892 7.985 11.11 C 7.931 11.226 7.88 11.343 7.839 11.465 C 7.797 11.583 7.763 11.708 7.776 11.833 C 7.785 11.95 7.848 12.062 7.944 12.129 C 7.989 12.164 8.038 12.196 8.093 12.214 C 8.102 12.183 8.102 12.152 8.107 12.12 C 8.114 12.049 8.127 11.979 8.136 11.908 C 8.226 11.356 8.376 10.815 8.517 10.274 C 8.556 10.13 8.596 9.985 8.631 9.84 C 8.627 9.84 8.618 9.841 8.614 9.841 Z"/>
</svg>
