<svg xmlns="http://www.w3.org/2000/svg" width="16" height="16" version="1.1">
<defs>
  <style id="current-color-scheme" type="text/css">
   .ColorScheme-Text { color:#cdd3e0; } .ColorScheme-Highlight { color:#5294e2; }
  </style>
  <linearGradient id="arrongin" x1="0%" x2="0%" y1="0%" y2="100%">
   <stop offset="0%" style="stop-color:#dd9b44; stop-opacity:1"/>
   <stop offset="100%" style="stop-color:#ad6c16; stop-opacity:1"/>
  </linearGradient>
  <linearGradient id="aurora" x1="0%" x2="0%" y1="0%" y2="100%">
   <stop offset="0%" style="stop-color:#09D4DF; stop-opacity:1"/>
   <stop offset="100%" style="stop-color:#9269F4; stop-opacity:1"/>
  </linearGradient>
  <linearGradient id="fitdance" x1="0%" x2="0%" y1="0%" y2="100%">
   <stop offset="0%" style="stop-color:#1AD6AB; stop-opacity:1"/>
   <stop offset="100%" style="stop-color:#329DB6; stop-opacity:1"/>
  </linearGradient>
  <linearGradient id="oomox" x1="0%" x2="0%" y1="0%" y2="100%">
   <stop offset="0%" style="stop-color:#d3dae3; stop-opacity:1"/>
   <stop offset="100%" style="stop-color:#5294e2; stop-opacity:1"/>
  </linearGradient>
  <linearGradient id="rainblue" x1="0%" x2="0%" y1="0%" y2="100%">
   <stop offset="0%" style="stop-color:#00F260; stop-opacity:1"/>
   <stop offset="100%" style="stop-color:#0575E6; stop-opacity:1"/>
  </linearGradient>
  <linearGradient id="sunrise" x1="0%" x2="0%" y1="0%" y2="100%">
   <stop offset="0%" style="stop-color: #FF8501; stop-opacity:1"/>
   <stop offset="100%" style="stop-color: #FFCB01; stop-opacity:1"/>
  </linearGradient>
  <linearGradient id="telinkrin" x1="0%" x2="0%" y1="0%" y2="100%">
   <stop offset="0%" style="stop-color: #b2ced6; stop-opacity:1"/>
   <stop offset="100%" style="stop-color: #6da5b7; stop-opacity:1"/>
  </linearGradient>
  <linearGradient id="60spsycho" x1="0%" x2="0%" y1="0%" y2="100%">
   <stop offset="0%" style="stop-color: #df5940; stop-opacity:1"/>
   <stop offset="25%" style="stop-color: #d8d15f; stop-opacity:1"/>
   <stop offset="50%" style="stop-color: #e9882a; stop-opacity:1"/>
   <stop offset="100%" style="stop-color: #279362; stop-opacity:1"/>
  </linearGradient>
  <linearGradient id="90ssummer" x1="0%" x2="0%" y1="0%" y2="100%">
   <stop offset="0%" style="stop-color: #f618c7; stop-opacity:1"/>
   <stop offset="20%" style="stop-color: #94ffab; stop-opacity:1"/>
   <stop offset="50%" style="stop-color: #fbfd54; stop-opacity:1"/>
   <stop offset="100%" style="stop-color: #0f83ae; stop-opacity:1"/>
  </linearGradient>
 </defs>
 <g label="status" transform="translate(-993.0002,-73)" style="fill:url(#oomox)" class="ColorScheme-Text">
  <path d="m 995.0002,75 c -0.43839,0 -0.78571,0.0387 -1.07813,0.14844 -0.29241,0.10976 -0.52561,0.30961 -0.66406,0.56054 -0.2769,0.50188 -0.24811,1.11434 -0.25781,1.95313 v 0.002 6.67188 0.002 c 0.01,0.83879 -0.0191,1.45125 0.25781,1.95313 0.13845,0.25093 0.37165,0.45077 0.66406,0.56054 C 994.21449,86.96123 994.56181,87 995.0002,87 h 12 c 0.4384,0 0.7857,-0.0387 1.0781,-0.14844 0.2924,-0.10977 0.5276,-0.30961 0.666,-0.56054 0.2769,-0.50188 0.2462,-1.11434 0.2559,-1.95313 v -0.002 -6.67188 -0.002 c -0.01,-0.83879 0.021,-1.45125 -0.2559,-1.95313 -0.1384,-0.25093 -0.3736,-0.45078 -0.666,-0.56054 C 1007.7859,75.03886 1007.4386,75 1007.0002,75 Z m 0,1 h 12 c 0.3796,0 0.6056,0.0386 0.7266,0.084 0.084,0.0314 0.127,0.0792 0.1425,0.10743 0.095,0.17181 0.1204,0.61468 0.1309,1.47265 v 6.66211 0.0117 c -0.01,0.85536 -0.036,1.2989 -0.1309,1.4707 -0.016,0.0282 -0.059,0.076 -0.1425,0.10743 -0.1209,0.0454 -0.347,0.084 -0.7266,0.084 h -12 c -0.37959,0 -0.60571,-0.0386 -0.72656,-0.084 -0.0823,-0.0309 -0.12313,-0.0757 -0.14063,-0.10743 -0.0957,-0.17353 -0.12259,-0.61685 -0.13281,-1.4707 v -0.0117 -6.66211 c 0.0102,-0.85607 0.0369,-1.29889 0.13281,-1.47265 0.0175,-0.0317 0.0583,-0.0765 0.14063,-0.10743 C 994.39449,76.0386 994.62061,76 995.0002,76 Z m 0.53711,1.57812 -0.28516,0.4375 5.87305,4.22071 5.875,-4.23633 -0.2852,-0.42188 -5.5898,3.37305 z" style="opacity:0.99999999;fill:url(#oomox)"/>
 </g>
</svg>
