<svg xmlns="http://www.w3.org/2000/svg" width="16" height="16" version="1.1">
<defs>
  <style id="current-color-scheme" type="text/css">
   .ColorScheme-Text { color:#cdd3e0; } .ColorScheme-Highlight { color:#5294e2; }
  </style>
  <linearGradient id="arrongin" x1="0%" x2="0%" y1="0%" y2="100%">
   <stop offset="0%" style="stop-color:#dd9b44; stop-opacity:1"/>
   <stop offset="100%" style="stop-color:#ad6c16; stop-opacity:1"/>
  </linearGradient>
  <linearGradient id="aurora" x1="0%" x2="0%" y1="0%" y2="100%">
   <stop offset="0%" style="stop-color:#09D4DF; stop-opacity:1"/>
   <stop offset="100%" style="stop-color:#9269F4; stop-opacity:1"/>
  </linearGradient>
  <linearGradient id="fitdance" x1="0%" x2="0%" y1="0%" y2="100%">
   <stop offset="0%" style="stop-color:#1AD6AB; stop-opacity:1"/>
   <stop offset="100%" style="stop-color:#329DB6; stop-opacity:1"/>
  </linearGradient>
  <linearGradient id="oomox" x1="0%" x2="0%" y1="0%" y2="100%">
   <stop offset="0%" style="stop-color:#d3dae3; stop-opacity:1"/>
   <stop offset="100%" style="stop-color:#5294e2; stop-opacity:1"/>
  </linearGradient>
  <linearGradient id="rainblue" x1="0%" x2="0%" y1="0%" y2="100%">
   <stop offset="0%" style="stop-color:#00F260; stop-opacity:1"/>
   <stop offset="100%" style="stop-color:#0575E6; stop-opacity:1"/>
  </linearGradient>
  <linearGradient id="sunrise" x1="0%" x2="0%" y1="0%" y2="100%">
   <stop offset="0%" style="stop-color: #FF8501; stop-opacity:1"/>
   <stop offset="100%" style="stop-color: #FFCB01; stop-opacity:1"/>
  </linearGradient>
  <linearGradient id="telinkrin" x1="0%" x2="0%" y1="0%" y2="100%">
   <stop offset="0%" style="stop-color: #b2ced6; stop-opacity:1"/>
   <stop offset="100%" style="stop-color: #6da5b7; stop-opacity:1"/>
  </linearGradient>
  <linearGradient id="60spsycho" x1="0%" x2="0%" y1="0%" y2="100%">
   <stop offset="0%" style="stop-color: #df5940; stop-opacity:1"/>
   <stop offset="25%" style="stop-color: #d8d15f; stop-opacity:1"/>
   <stop offset="50%" style="stop-color: #e9882a; stop-opacity:1"/>
   <stop offset="100%" style="stop-color: #279362; stop-opacity:1"/>
  </linearGradient>
  <linearGradient id="90ssummer" x1="0%" x2="0%" y1="0%" y2="100%">
   <stop offset="0%" style="stop-color: #f618c7; stop-opacity:1"/>
   <stop offset="20%" style="stop-color: #94ffab; stop-opacity:1"/>
   <stop offset="50%" style="stop-color: #fbfd54; stop-opacity:1"/>
   <stop offset="100%" style="stop-color: #0f83ae; stop-opacity:1"/>
  </linearGradient>
 </defs>
 <path d="M 6.2476124,9.2141253 C 6.1044584,8.0640428 5.8140496,1.7976025 7.505806,1.7336419 c 1.6917574,-0.063964 2.142589,5.7197347 2.306826,7.2477504 0.1642366,1.5280157 -0.3785435,2.8986087 3.260325,2.0603487 1.616415,-0.37236 2.52942,-1.266508 2.417884,0.962474 -0.111536,2.228981 -4.140419,2.29422 -6.0438561,2.448091 -5.1112613,0.290613 -8.99760737,-0.151552 -8.94648637,-1.414643 0.05112,-1.263077 0.11625,-1.791853 1.05539007,-1.620292 6.2785494,1.146963 4.830897,-1.08516 4.6917238,-2.2032457 z" style="fill:url(#oomox)" class="ColorScheme-Text"/>
 <path style="fill:url(#oomox)" class="ColorScheme-Text" d="M 5.7159156,3.1560816 A 1.7960298,3.3851665 2.8081549 0 0 3.7575166,6.4521792 1.7960298,3.3851665 2.8081549 0 0 5.3872046,9.9183866 1.7960298,3.3851665 2.8081549 0 0 7.3456027,6.6222963 1.7960298,3.3851665 2.8081549 0 0 5.7159156,3.1560816 Z m -0.237306,3.2554705 a 0.62261163,1.2309019 2.8049542 0 1 0.06191,0.00918 0.62261163,1.2309019 2.8049542 0 1 0.06055,0.021309 0.62261163,1.2309019 2.8049542 0 1 0.05879,0.033066 0.62261163,1.2309019 2.8049542 0 1 0.05625,0.044933 0.62261163,1.2309019 2.8049542 0 1 0.05352,0.056065 0.62261163,1.2309019 2.8049542 0 1 0.0498,0.066793 0.62261163,1.2309019 2.8049542 0 1 0.0459,0.07675 0.62261163,1.2309019 2.8049542 0 1 0.04141,0.085935 0.62261163,1.2309019 2.8049542 0 1 0.036507,0.094128 0.62261163,1.2309019 2.8049542 0 1 0.031265,0.1017698 0.62261163,1.2309019 2.8049542 0 1 0.0258,0.1080155 0.62261163,1.2309019 2.8049542 0 1 0.019926,0.1134898 0.62261163,1.2309019 2.8049542 0 1 0.014053,0.1175679 0.62261163,1.2309019 2.8049542 0 1 0.00762,0.1205071 0.62261163,1.2309019 2.8049542 0 1 0.00156,0.1222707 0.62261163,1.2309019 2.8049542 0 1 -0.00253,0.08711 0.62261163,1.2309019 2.8049542 0 1 -0.00918,0.1226747 0.62261163,1.2309019 2.8049542 0 1 -0.015019,0.121095 0.62261163,1.2309019 2.8049542 0 1 -0.021302,0.1183762 0.62261163,1.2309019 2.8049542 0 1 -0.026953,0.1142613 0.62261163,1.2309019 2.8049542 0 1 -0.032418,0.1093749 0.62261163,1.2309019 2.8049542 0 1 -0.0375,0.1033129 0.62261163,1.2309019 2.8049542 0 1 -0.04238,0.096112 0.62261163,1.2309019 2.8049542 0 1 -0.04668,0.087882 0.62261163,1.2309019 2.8049542 0 1 -0.05078,0.078917 0.62261163,1.2309019 2.8049542 0 1 -0.05391,0.068961 0.62261163,1.2309019 2.8049542 0 1 -0.05703,0.0586 0.62261163,1.2309019 2.8049542 0 1 -0.05918,0.047652 0.62261163,1.2309019 2.8049542 0 1 -0.06074,0.036005 0.62261163,1.2309019 2.8049542 0 1 -0.06211,0.023881 0.62261163,1.2309019 2.8049542 0 1 -0.0623,0.011757 0.62261163,1.2309019 2.8049542 0 1 -0.04414,9.92e-4 0.62261163,1.2309019 2.8049542 0 1 -0.06191,-0.00919 0.62261163,1.2309019 2.8049542 0 1 -0.06054,-0.021299 0.62261163,1.2309019 2.8049542 0 1 -0.05879,-0.033066 0.62261163,1.2309019 2.8049542 0 1 -0.05625,-0.044933 0.62261163,1.2309019 2.8049542 0 1 -0.05332,-0.056065 0.62261163,1.2309019 2.8049542 0 1 -0.05,-0.066793 0.62261163,1.2309019 2.8049542 0 1 -0.0459,-0.07675 0.62261163,1.2309019 2.8049542 0 1 -0.04141,-0.085935 0.62261163,1.2309019 2.8049542 0 1 -0.03651,-0.094128 0.62261163,1.2309019 2.8049542 0 1 -0.03126,-0.1017697 0.62261163,1.2309019 2.8049542 0 1 -0.02576,-0.1080155 0.62261163,1.2309019 2.8049542 0 1 -0.01993,-0.1134898 0.62261163,1.2309019 2.8049542 0 1 -0.01387,-0.1175679 0.62261163,1.2309019 2.8049542 0 1 -0.0078,-0.1205072 0.62261163,1.2309019 2.8049542 0 1 -0.0016,-0.1222706 0.62261163,1.2309019 2.8049542 0 1 0.0025,-0.08711 0.62261163,1.2309019 2.8049542 0 1 0.0092,-0.122638 0.62261163,1.2309019 2.8049542 0 1 0.01524,-0.121095 0.62261163,1.2309019 2.8049542 0 1 0.02108,-0.1181558 0.62261163,1.2309019 2.8049542 0 1 0.02695,-0.114445 0.62261163,1.2309019 2.8049542 0 1 0.03242,-0.1093749 0.62261163,1.2309019 2.8049542 0 1 0.0375,-0.1033128 0.62261163,1.2309019 2.8049542 0 1 0.04238,-0.096112 0.62261163,1.2309019 2.8049542 0 1 0.04687,-0.087882 0.62261163,1.2309019 2.8049542 0 1 0.05059,-0.078918 0.62261163,1.2309019 2.8049542 0 1 0.0541,-0.068961 0.62261163,1.2309019 2.8049542 0 1 0.05683,-0.0586 0.62261163,1.2309019 2.8049542 0 1 0.05918,-0.047652 0.62261163,1.2309019 2.8049542 0 1 0.06094,-0.036005 0.62261163,1.2309019 2.8049542 0 1 0.06191,-0.023881 0.62261163,1.2309019 2.8049542 0 1 0.0623,-0.011757 0.62261163,1.2309019 2.8049542 0 1 0.04414,-9.92e-4 z"/>
 <path style="fill:url(#oomox)" class="ColorScheme-Text" d="m 10.191733,3.2194323 a 3.3853764,1.7959261 84.131972 0 0 -0.180078,9.92e-4 3.3853764,1.7959261 84.131972 0 0 -1.4439455,3.5460948 3.3853764,1.7959261 84.131972 0 0 2.1302735,3.189842 3.3853764,1.7959261 84.131972 0 0 1.443946,-3.5460912 3.3853764,1.7959261 84.131972 0 0 -1.950195,-3.1908229 z m 0.555273,3.3011714 a 0.62251424,1.2310953 7.8979429 0 1 0.04395,0.00294 0.62251424,1.2310953 7.8979429 0 1 0.449218,1.302344 0.62251424,1.2310953 7.8979429 0 1 -0.784769,1.1367194 0.62251424,1.2310953 7.8979429 0 1 -0.449219,-1.302344 0.62251424,1.2310953 7.8979429 0 1 0.74082,-1.1396483 z"/>
</svg>
