<svg xmlns="http://www.w3.org/2000/svg" style="isolation:isolate" width="16" height="16" viewBox="0 0 16 16">
 <defs>
  <style id="current-color-scheme" type="text/css">
   .ColorScheme-Text { color:#cdd3e0; } .ColorScheme-Highlight { color:#5294e2; }
  </style>
  <linearGradient id="arrongin" x1="0%" x2="0%" y1="0%" y2="100%">
   <stop offset="0%" style="stop-color:#dd9b44; stop-opacity:1"/>
   <stop offset="100%" style="stop-color:#ad6c16; stop-opacity:1"/>
  </linearGradient>
  <linearGradient id="aurora" x1="0%" x2="0%" y1="0%" y2="100%">
   <stop offset="0%" style="stop-color:#09D4DF; stop-opacity:1"/>
   <stop offset="100%" style="stop-color:#9269F4; stop-opacity:1"/>
  </linearGradient>
  <linearGradient id="fitdance" x1="0%" x2="0%" y1="0%" y2="100%">
   <stop offset="0%" style="stop-color:#1AD6AB; stop-opacity:1"/>
   <stop offset="100%" style="stop-color:#329DB6; stop-opacity:1"/>
  </linearGradient>
  <linearGradient id="oomox" x1="0%" x2="0%" y1="0%" y2="100%">
   <stop offset="0%" style="stop-color:#d3dae3; stop-opacity:1"/>
   <stop offset="100%" style="stop-color:#5294e2; stop-opacity:1"/>
  </linearGradient>
  <linearGradient id="rainblue" x1="0%" x2="0%" y1="0%" y2="100%">
   <stop offset="0%" style="stop-color:#00F260; stop-opacity:1"/>
   <stop offset="100%" style="stop-color:#0575E6; stop-opacity:1"/>
  </linearGradient>
  <linearGradient id="sunrise" x1="0%" x2="0%" y1="0%" y2="100%">
   <stop offset="0%" style="stop-color: #FF8501; stop-opacity:1"/>
   <stop offset="100%" style="stop-color: #FFCB01; stop-opacity:1"/>
  </linearGradient>
  <linearGradient id="telinkrin" x1="0%" x2="0%" y1="0%" y2="100%">
   <stop offset="0%" style="stop-color: #b2ced6; stop-opacity:1"/>
   <stop offset="100%" style="stop-color: #6da5b7; stop-opacity:1"/>
  </linearGradient>
  <linearGradient id="60spsycho" x1="0%" x2="0%" y1="0%" y2="100%">
   <stop offset="0%" style="stop-color: #df5940; stop-opacity:1"/>
   <stop offset="25%" style="stop-color: #d8d15f; stop-opacity:1"/>
   <stop offset="50%" style="stop-color: #e9882a; stop-opacity:1"/>
   <stop offset="100%" style="stop-color: #279362; stop-opacity:1"/>
  </linearGradient>
  <linearGradient id="90ssummer" x1="0%" x2="0%" y1="0%" y2="100%">
   <stop offset="0%" style="stop-color: #f618c7; stop-opacity:1"/>
   <stop offset="20%" style="stop-color: #94ffab; stop-opacity:1"/>
   <stop offset="50%" style="stop-color: #fbfd54; stop-opacity:1"/>
   <stop offset="100%" style="stop-color: #0f83ae; stop-opacity:1"/>
  </linearGradient>
 </defs>
 <path style="fill:url(#oomox)" class="ColorScheme-Text" fill-rule="evenodd" d="M 12.254 4.964 C 11.909 5.045 11.585 5.21 11.3 5.414 C 10.833 6.049 10.186 6.562 9.326 6.764 C 8.999 6.527 8.601 6.251 8.329 5.939 C 7.084 6.081 5.37 6.356 5.074 7.55 C 4.767 8.789 5.583 10.408 6.247 10.502 C 6.877 10.59 8.903 10.029 9.883 9.767 C 9.063 9.129 8.118 8.85 7.603 8.817 C 6.996 8.769 6.473 8.877 5.929 9.017 C 6.724 8.506 7.444 8.125 8.156 7.983 C 8.69 7.883 9.519 7.879 10.515 8.25 C 11.75 8.71 12.045 9.367 12.912 9.662 C 13.485 9.573 13.194 8.939 13.075 8.499 C 12.996 8.26 12.933 8.078 12.908 7.999 C 12.864 7.866 12.244 6.288 12.154 5.882 C 12.094 5.605 12.146 5.244 12.255 4.963 L 12.254 4.964 L 12.254 4.964 L 12.254 4.964 L 12.254 4.964 L 12.254 4.964 L 12.254 4.964 L 12.254 4.964 L 12.254 4.964 L 12.254 4.964 Z M 9.263 2.482 C 8.399 2.845 8.369 3.53 8.321 4.274 C 8.683 3.947 9.822 3.707 10.13 3.442 C 11.038 2.659 11.39 1.04 11.199 1.279 C 10.582 2.056 9.581 2.306 9.263 2.481 L 9.263 2.482 L 9.263 2.482 L 9.263 2.482 L 9.263 2.482 L 9.263 2.482 L 9.263 2.482 L 9.263 2.482 L 9.263 2.482 L 9.263 2.482 Z M 4.503 13.36 C 4.503 13.36 3.645 12.793 3.662 12.612 C 4.225 9.573 2.282 11.735 2.136 13.096 C 1.981 14.402 2.464 15.908 2.535 16 C 2.651 14.933 2.753 14.342 4.503 13.358 L 4.503 13.36 L 4.503 13.36 L 4.503 13.36 L 4.503 13.36 L 4.503 13.36 L 4.503 13.36 L 4.503 13.36 L 4.503 13.36 Z M 13.887 6.662 C 13.843 5.53 13.129 4.749 12.644 4.932 C 12.437 5.01 12.3 5.537 12.372 5.864 C 12.61 7.027 13.592 8.37 13.349 9.52 C 13.167 10.07 11.555 10.412 11.555 10.412 C 11.555 10.412 11.523 10.883 11.463 11.204 C 11.389 11.593 11.241 11.902 11.241 11.902 C 11.241 11.902 11.624 12.244 11.639 12.244 C 11.655 12.244 14.05 11.006 13.887 6.662 L 13.887 6.662 L 13.887 6.662 L 13.887 6.662 L 13.887 6.662 L 13.887 6.662 L 13.887 6.662 L 13.887 6.662 Z M 12.822 9.777 C 12.424 9.616 12.286 9.547 11.767 9.164 C 8.897 7.031 6.255 8.879 6.307 8.86 C 6.782 8.711 7.32 8.575 8.017 8.619 C 8.58 8.656 9.33 9.01 10.255 9.775 C 10.877 10.319 11.819 10.388 12.819 9.777 L 12.822 9.777 L 12.822 9.777 L 12.822 9.777 L 12.822 9.777 L 12.822 9.777 L 12.822 9.777 Z M 10.128 3.68 C 9.067 4.02 8.493 4.312 8.321 4.447 C 7.97 5.339 8.679 6.01 9.326 6.481 C 10.176 6.281 10.884 5.654 11.2 4.964 C 11.034 4.987 10.858 4.955 10.664 4.847 C 10.285 4.635 10.055 4.124 10.128 3.68 L 10.128 3.68 L 10.128 3.68 L 10.128 3.68 L 10.128 3.68 Z M 11.672 3.511 C 11.603 3.24 11.381 2.893 11.321 2.893 C 11.266 2.893 10.676 3.33 10.523 3.48 C 10.178 3.825 10.346 4.451 10.729 4.664 C 11.378 5.027 11.857 4.23 11.673 3.512 L 11.672 3.511 L 11.672 3.511 L 11.672 3.511 L 11.672 3.511 Z M 11.168 2.594 C 11.427 2.346 11.773 1.94 11.863 1.321 C 11.916 0.767 11.78 0.425 11.612 0 C 11.53 0.829 11.409 1.752 10.841 2.732 C 10.663 3.04 10.76 2.984 11.168 2.594 L 11.168 2.594 L 11.168 2.594 L 11.168 2.594 Z M 3.888 11.183 C 3.977 11.408 3.971 11.836 3.837 12.567 C 3.835 12.573 3.837 12.578 3.837 12.584 C 3.931 12.715 4.126 12.873 4.321 13.017 C 4.99 12.707 5.832 12.125 5.778 12.117 C 5.42 12.056 4.312 11.788 3.888 11.183 L 3.888 11.183 Z M 10.011 9.881 C 9.981 9.881 9.958 9.881 9.893 9.897 C 9.06 10.129 6.931 10.67 6.599 11.031 C 6.469 11.306 6.341 12.404 4.472 13.1 C 4.419 13.119 6.042 14.162 6.13 14.167 C 11.426 14.388 11.419 10.606 11.35 10.433 C 10.835 10.441 10.398 10.262 10.061 9.933 C 10.044 9.916 10.029 9.899 10.011 9.882 L 10.011 9.881 Z"/>
</svg>
