<svg xmlns="http://www.w3.org/2000/svg" style="isolation:isolate" width="16" height="16" version="1.1" viewBox="0 0 16 16">
 <defs>
  <style id="current-color-scheme" type="text/css">
   .ColorScheme-Text { color:#cdd3e0; } .ColorScheme-Highlight { color:#5294e2; }
  </style>
  <linearGradient id="arrongin" x1="0%" x2="0%" y1="0%" y2="100%">
   <stop offset="0%" style="stop-color:#dd9b44; stop-opacity:1"/>
   <stop offset="100%" style="stop-color:#ad6c16; stop-opacity:1"/>
  </linearGradient>
  <linearGradient id="aurora" x1="0%" x2="0%" y1="0%" y2="100%">
   <stop offset="0%" style="stop-color:#09D4DF; stop-opacity:1"/>
   <stop offset="100%" style="stop-color:#9269F4; stop-opacity:1"/>
  </linearGradient>
  <linearGradient id="fitdance" x1="0%" x2="0%" y1="0%" y2="100%">
   <stop offset="0%" style="stop-color:#1AD6AB; stop-opacity:1"/>
   <stop offset="100%" style="stop-color:#329DB6; stop-opacity:1"/>
  </linearGradient>
  <linearGradient id="oomox" x1="0%" x2="0%" y1="0%" y2="100%">
   <stop offset="0%" style="stop-color:#d3dae3; stop-opacity:1"/>
   <stop offset="100%" style="stop-color:#5294e2; stop-opacity:1"/>
  </linearGradient>
  <linearGradient id="rainblue" x1="0%" x2="0%" y1="0%" y2="100%">
   <stop offset="0%" style="stop-color:#00F260; stop-opacity:1"/>
   <stop offset="100%" style="stop-color:#0575E6; stop-opacity:1"/>
  </linearGradient>
  <linearGradient id="sunrise" x1="0%" x2="0%" y1="0%" y2="100%">
   <stop offset="0%" style="stop-color: #FF8501; stop-opacity:1"/>
   <stop offset="100%" style="stop-color: #FFCB01; stop-opacity:1"/>
  </linearGradient>
  <linearGradient id="telinkrin" x1="0%" x2="0%" y1="0%" y2="100%">
   <stop offset="0%" style="stop-color: #b2ced6; stop-opacity:1"/>
   <stop offset="100%" style="stop-color: #6da5b7; stop-opacity:1"/>
  </linearGradient>
  <linearGradient id="60spsycho" x1="0%" x2="0%" y1="0%" y2="100%">
   <stop offset="0%" style="stop-color: #df5940; stop-opacity:1"/>
   <stop offset="25%" style="stop-color: #d8d15f; stop-opacity:1"/>
   <stop offset="50%" style="stop-color: #e9882a; stop-opacity:1"/>
   <stop offset="100%" style="stop-color: #279362; stop-opacity:1"/>
  </linearGradient>
  <linearGradient id="90ssummer" x1="0%" x2="0%" y1="0%" y2="100%">
   <stop offset="0%" style="stop-color: #f618c7; stop-opacity:1"/>
   <stop offset="20%" style="stop-color: #94ffab; stop-opacity:1"/>
   <stop offset="50%" style="stop-color: #fbfd54; stop-opacity:1"/>
   <stop offset="100%" style="stop-color: #0f83ae; stop-opacity:1"/>
  </linearGradient>
  <clipPath id="_clipPath_pbnmLbgZ9ZOH5fwvndM6lbpSxmteKCZL">
   <rect width="16" height="16"/>
  </clipPath>
 </defs>
 <g clip-path="url(#_clipPath_pbnmLbgZ9ZOH5fwvndM6lbpSxmteKCZL)">
  <g>
   <g>
    <path d="M 8.481 11.937 C 8.481 12.054 8.435 12.165 8.353 12.247 C 8.271 12.329 8.16 12.375 8.044 12.375 C 7.927 12.375 7.816 12.329 7.734 12.247 C 7.653 12.165 7.606 12.054 7.606 11.937 L 7.606 2.225 C 7.606 2.109 7.653 1.997 7.734 1.915 C 7.816 1.834 7.927 1.787 8.044 1.787 C 8.16 1.787 8.271 1.834 8.353 1.915 C 8.435 1.997 8.481 2.109 8.481 2.225 L 8.481 11.937 L 8.481 11.937 Z" style="fill:url(#oomox)" class="ColorScheme-Text"/>
    <path d="M 3.406 14.125 C 3.406 14.241 3.36 14.352 3.278 14.435 C 3.196 14.516 3.085 14.562 2.969 14.562 C 2.852 14.562 2.741 14.516 2.659 14.435 C 2.578 14.352 2.531 14.241 2.531 14.125 L 2.531 9.225 C 2.531 9.109 2.578 8.997 2.659 8.915 C 2.741 8.834 2.852 8.787 2.969 8.787 C 3.085 8.787 3.196 8.834 3.278 8.915 C 3.36 8.997 3.406 9.109 3.406 9.225 L 3.406 14.125 L 3.406 14.125 Z" style="fill:url(#oomox)" class="ColorScheme-Text"/>
    <path d="M 3.551 9.158 C 3.453 9.22 3.334 9.24 3.222 9.214 C 3.109 9.188 3.011 9.119 2.949 9.02 C 2.886 8.922 2.866 8.803 2.892 8.69 C 2.918 8.577 2.987 8.479 3.086 8.417 L 7.811 5.442 C 7.909 5.38 8.028 5.36 8.141 5.385 C 8.254 5.412 8.352 5.481 8.414 5.58 C 8.476 5.678 8.496 5.797 8.471 5.91 C 8.444 6.022 8.375 6.12 8.276 6.183 L 3.551 9.158 L 3.551 9.158 Z" style="fill:url(#oomox)" class="ColorScheme-Text"/>
    <path d="M 13.001 8.417 C 13.1 8.479 13.169 8.577 13.196 8.69 C 13.221 8.803 13.201 8.922 13.139 9.02 C 13.077 9.119 12.979 9.188 12.866 9.214 C 12.753 9.24 12.634 9.22 12.536 9.158 L 7.811 6.183 C 7.712 6.12 7.643 6.022 7.617 5.91 C 7.591 5.797 7.611 5.678 7.674 5.58 C 7.736 5.481 7.834 5.412 7.947 5.385 C 8.059 5.36 8.178 5.38 8.276 5.442 L 13.001 8.417 L 13.001 8.417 Z" style="fill:url(#oomox)" class="ColorScheme-Text"/>
    <path d="M 7.169 1.875 C 7.169 1.392 7.561 1 8.044 1 C 8.527 1 8.919 1.392 8.919 1.875 C 8.919 2.358 8.527 2.75 8.044 2.75 C 7.561 2.75 7.169 2.358 7.169 1.875 Z" style="fill:url(#oomox)" class="ColorScheme-Text"/>
    <path d="M 7.169 12.2 C 7.169 11.717 7.561 11.325 8.044 11.325 C 8.527 11.325 8.919 11.717 8.919 12.2 C 8.919 12.683 8.527 13.075 8.044 13.075 C 7.561 13.075 7.169 12.683 7.169 12.2 Z" style="fill:url(#oomox)" class="ColorScheme-Text"/>
    <path d="M 2.006 9.138 C 2.006 8.655 2.398 8.263 2.881 8.263 C 3.364 8.263 3.756 8.655 3.756 9.138 C 3.756 9.62 3.364 10.013 2.881 10.013 C 2.398 10.013 2.006 9.62 2.006 9.138 Z" style="fill:url(#oomox)" class="ColorScheme-Text"/>
    <path d="M 2.094 14.125 C 2.094 13.642 2.486 13.25 2.969 13.25 C 3.452 13.25 3.844 13.642 3.844 14.125 C 3.844 14.608 3.452 15 2.969 15 C 2.486 15 2.094 14.608 2.094 14.125 Z" style="fill:url(#oomox)" class="ColorScheme-Text"/>
    <path d="M 12.244 9.138 C 12.244 8.655 12.636 8.263 13.119 8.263 C 13.602 8.263 13.994 8.655 13.994 9.138 C 13.994 9.62 13.602 10.013 13.119 10.013 C 12.636 10.013 12.244 9.62 12.244 9.138 Z" style="fill:url(#oomox)" class="ColorScheme-Text"/>
   </g>
  </g>
 </g>
</svg>
