<svg xmlns="http://www.w3.org/2000/svg" width="16" height="16" version="1.1">
<defs>
  <style id="current-color-scheme" type="text/css">
   .ColorScheme-Text { color:#cdd3e0; } .ColorScheme-Highlight { color:#5294e2; }
  </style>
  <linearGradient id="arrongin" x1="0%" x2="0%" y1="0%" y2="100%">
   <stop offset="0%" style="stop-color:#dd9b44; stop-opacity:1"/>
   <stop offset="100%" style="stop-color:#ad6c16; stop-opacity:1"/>
  </linearGradient>
  <linearGradient id="aurora" x1="0%" x2="0%" y1="0%" y2="100%">
   <stop offset="0%" style="stop-color:#09D4DF; stop-opacity:1"/>
   <stop offset="100%" style="stop-color:#9269F4; stop-opacity:1"/>
  </linearGradient>
  <linearGradient id="fitdance" x1="0%" x2="0%" y1="0%" y2="100%">
   <stop offset="0%" style="stop-color:#1AD6AB; stop-opacity:1"/>
   <stop offset="100%" style="stop-color:#329DB6; stop-opacity:1"/>
  </linearGradient>
  <linearGradient id="oomox" x1="0%" x2="0%" y1="0%" y2="100%">
   <stop offset="0%" style="stop-color:#d3dae3; stop-opacity:1"/>
   <stop offset="100%" style="stop-color:#5294e2; stop-opacity:1"/>
  </linearGradient>
  <linearGradient id="rainblue" x1="0%" x2="0%" y1="0%" y2="100%">
   <stop offset="0%" style="stop-color:#00F260; stop-opacity:1"/>
   <stop offset="100%" style="stop-color:#0575E6; stop-opacity:1"/>
  </linearGradient>
  <linearGradient id="sunrise" x1="0%" x2="0%" y1="0%" y2="100%">
   <stop offset="0%" style="stop-color: #FF8501; stop-opacity:1"/>
   <stop offset="100%" style="stop-color: #FFCB01; stop-opacity:1"/>
  </linearGradient>
  <linearGradient id="telinkrin" x1="0%" x2="0%" y1="0%" y2="100%">
   <stop offset="0%" style="stop-color: #b2ced6; stop-opacity:1"/>
   <stop offset="100%" style="stop-color: #6da5b7; stop-opacity:1"/>
  </linearGradient>
  <linearGradient id="60spsycho" x1="0%" x2="0%" y1="0%" y2="100%">
   <stop offset="0%" style="stop-color: #df5940; stop-opacity:1"/>
   <stop offset="25%" style="stop-color: #d8d15f; stop-opacity:1"/>
   <stop offset="50%" style="stop-color: #e9882a; stop-opacity:1"/>
   <stop offset="100%" style="stop-color: #279362; stop-opacity:1"/>
  </linearGradient>
  <linearGradient id="90ssummer" x1="0%" x2="0%" y1="0%" y2="100%">
   <stop offset="0%" style="stop-color: #f618c7; stop-opacity:1"/>
   <stop offset="20%" style="stop-color: #94ffab; stop-opacity:1"/>
   <stop offset="50%" style="stop-color: #fbfd54; stop-opacity:1"/>
   <stop offset="100%" style="stop-color: #0f83ae; stop-opacity:1"/>
  </linearGradient>
 </defs>
 <path d="m 14.918382,0.90729092 c -0.0702,0.0337275 -0.131794,0.0850773 -0.177639,0.14803268 L 14.267038,1.5290281 14.119005,1.3809955 8.4345508,7.0654499 8.5825837,7.2134828 8.108879,7.6871875 8.0793222,8.3681376 8.7602723,8.3385808 9.233977,7.8648768 9.38201,8.0129091 15.066464,2.3284519 14.918431,2.1804192 15.392136,1.7067147 c 0.277477,-0.2827542 -0.0235,-0.86322231 -0.414491,-0.79937639 -0.01971,-9.4773e-4 -0.03951,-9.4773e-4 -0.05922,0 z M 1.4474094,2.6836829 C 0.9225445,2.6836829 0.5,3.1062274 0.5,3.631092 v 8.52668 c 0,0.524865 0.4225445,0.94741 0.9474094,0.94741 H 12.816318 c 0.524864,0 0.947409,-0.422545 0.947409,-0.94741 V 4.9929927 L 10.06291,8.6938094 9.3819602,9.3451529 9.2339273,9.1971207 9.1747114,9.2563366 8.7898264,9.2858934 8.1088763,9.3154502 7.1022544,9.345007 7.1318112,8.3383845 7.161368,7.6574343 7.1909249,7.2725494 7.2501408,7.2133335 7.1021078,7.0653012 7.753452,6.3843509 11.454269,2.683534 H 1.4472669 Z M 0.5,13.105182 v 0.947409 C 0.5,14.577456 0.9225445,15 1.4474094,15 H 12.816318 c 0.524864,0 0.947409,-0.422544 0.947409,-0.947409 v -0.947409 c 0,0.524865 -0.422545,0.947409 -0.947409,0.947409 H 1.4474094 C 0.9225445,14.052591 0.5,13.630047 0.5,13.105182 Z" style="fill:url(#oomox)" class="ColorScheme-Text"/>
</svg>
