<svg xmlns="http://www.w3.org/2000/svg" width="16" height="16" version="1.1">
<defs>
  <style id="current-color-scheme" type="text/css">
   .ColorScheme-Text { color:#cdd3e0; } .ColorScheme-Highlight { color:#5294e2; }
  </style>
  <linearGradient id="arrongin" x1="0%" x2="0%" y1="0%" y2="100%">
   <stop offset="0%" style="stop-color:#dd9b44; stop-opacity:1"/>
   <stop offset="100%" style="stop-color:#ad6c16; stop-opacity:1"/>
  </linearGradient>
  <linearGradient id="aurora" x1="0%" x2="0%" y1="0%" y2="100%">
   <stop offset="0%" style="stop-color:#09D4DF; stop-opacity:1"/>
   <stop offset="100%" style="stop-color:#9269F4; stop-opacity:1"/>
  </linearGradient>
  <linearGradient id="fitdance" x1="0%" x2="0%" y1="0%" y2="100%">
   <stop offset="0%" style="stop-color:#1AD6AB; stop-opacity:1"/>
   <stop offset="100%" style="stop-color:#329DB6; stop-opacity:1"/>
  </linearGradient>
  <linearGradient id="oomox" x1="0%" x2="0%" y1="0%" y2="100%">
   <stop offset="0%" style="stop-color:#d3dae3; stop-opacity:1"/>
   <stop offset="100%" style="stop-color:#5294e2; stop-opacity:1"/>
  </linearGradient>
  <linearGradient id="rainblue" x1="0%" x2="0%" y1="0%" y2="100%">
   <stop offset="0%" style="stop-color:#00F260; stop-opacity:1"/>
   <stop offset="100%" style="stop-color:#0575E6; stop-opacity:1"/>
  </linearGradient>
  <linearGradient id="sunrise" x1="0%" x2="0%" y1="0%" y2="100%">
   <stop offset="0%" style="stop-color: #FF8501; stop-opacity:1"/>
   <stop offset="100%" style="stop-color: #FFCB01; stop-opacity:1"/>
  </linearGradient>
  <linearGradient id="telinkrin" x1="0%" x2="0%" y1="0%" y2="100%">
   <stop offset="0%" style="stop-color: #b2ced6; stop-opacity:1"/>
   <stop offset="100%" style="stop-color: #6da5b7; stop-opacity:1"/>
  </linearGradient>
  <linearGradient id="60spsycho" x1="0%" x2="0%" y1="0%" y2="100%">
   <stop offset="0%" style="stop-color: #df5940; stop-opacity:1"/>
   <stop offset="25%" style="stop-color: #d8d15f; stop-opacity:1"/>
   <stop offset="50%" style="stop-color: #e9882a; stop-opacity:1"/>
   <stop offset="100%" style="stop-color: #279362; stop-opacity:1"/>
  </linearGradient>
  <linearGradient id="90ssummer" x1="0%" x2="0%" y1="0%" y2="100%">
   <stop offset="0%" style="stop-color: #f618c7; stop-opacity:1"/>
   <stop offset="20%" style="stop-color: #94ffab; stop-opacity:1"/>
   <stop offset="50%" style="stop-color: #fbfd54; stop-opacity:1"/>
   <stop offset="100%" style="stop-color: #0f83ae; stop-opacity:1"/>
  </linearGradient>
 </defs>
 <g transform="translate(-101,-277)">
  <rect style="fill:url(#oomox)" class="ColorScheme-Text" width="2.083" height="1.357" x="103.44" y="284.36" rx=".347" ry=".339"/>
  <rect style="fill:url(#oomox)" class="ColorScheme-Text" width="2.082" height="1.357" x="112.46" y="284.36" rx=".347" ry=".339"/>
  <rect style="fill:url(#oomox)" class="ColorScheme-Text" width="2.059" height="1.373" x="-133.17" y="279.4" rx=".343" ry=".343" transform="matrix(0.71510951,-0.69901244,0.71510951,0.69901244,0,0)"/>
  <rect style="fill:url(#oomox)" class="ColorScheme-Text" width="2.059" height="1.373" x="-124.25" y="279.4" rx=".343" ry=".343" transform="matrix(0.71510951,-0.69901244,0.71510951,0.69901244,0,0)"/>
  <rect style="fill:url(#oomox)" class="ColorScheme-Text" width="2.036" height="1.388" x="-290.46" y="108.3" rx=".339" ry=".347" transform="matrix(0,-1,1,0,0,0)"/>
  <rect style="fill:url(#oomox)" class="ColorScheme-Text" width="2.035" height="1.388" x="-281.64" y="108.3" rx=".339" ry=".347" transform="matrix(0,-1,1,0,0,0)"/>
  <rect style="fill:url(#oomox)" class="ColorScheme-Text" width="2.059" height="1.373" x="-285.58" y="-128.37" rx=".343" ry=".343" transform="matrix(-0.71510951,-0.69901244,0.71510951,-0.69901244,0,0)"/>
  <rect style="fill:url(#oomox)" class="ColorScheme-Text" width="2.059" height="1.373" x="-276.66" y="-128.37" rx=".343" ry=".343" transform="matrix(-0.71510951,-0.69901244,0.71510951,-0.69901244,0,0)"/>
  <path d="m 107.42521,282.69964 0,4.68792 0.42057,0 0.0437,0 c 0.0811,4.5e-4 0.16137,-0.0176 0.23205,-0.0586 l 3.24866,-1.87517 c 0.14419,-0.0807 0.21756,-0.24538 0.21756,-0.41019 0,-0.1648 -0.0734,-0.3296 -0.21756,-0.41021 l -3.24866,-1.87517 c -0.0706,-0.0404 -0.1509,-0.0591 -0.23205,-0.0586 l -0.0437,0 z" style="fill:url(#oomox)" class="ColorScheme-Text"/>
  <path d="m 109,277 c -4.40886,0 -8,3.59113 -8,8 0,4.40881 3.59114,8 8,8 4.40881,0 8,-3.59119 8,-8 0,-4.40887 -3.59119,-8 -8,-8 z m 0,1.14286 c 3.79121,0 6.85714,3.06587 6.85714,6.85714 0,3.79121 -3.06593,6.85714 -6.85714,6.85714 -3.79126,0 -6.85714,-3.06593 -6.85714,-6.85714 0,-3.79127 3.06588,-6.85714 6.85714,-6.85714 z" style="fill:url(#oomox)" class="ColorScheme-Text"/>
 </g>
</svg>
