<svg xmlns="http://www.w3.org/2000/svg" style="isolation:isolate" width="16" height="16" viewBox="0 0 16 16">
 <defs>
  <style id="current-color-scheme" type="text/css">
   .ColorScheme-Text { color:#cdd3e0; } .ColorScheme-Highlight { color:#5294e2; }
  </style>
  <linearGradient id="arrongin" x1="0%" x2="0%" y1="0%" y2="100%">
   <stop offset="0%" style="stop-color:#dd9b44; stop-opacity:1"/>
   <stop offset="100%" style="stop-color:#ad6c16; stop-opacity:1"/>
  </linearGradient>
  <linearGradient id="aurora" x1="0%" x2="0%" y1="0%" y2="100%">
   <stop offset="0%" style="stop-color:#09D4DF; stop-opacity:1"/>
   <stop offset="100%" style="stop-color:#9269F4; stop-opacity:1"/>
  </linearGradient>
  <linearGradient id="fitdance" x1="0%" x2="0%" y1="0%" y2="100%">
   <stop offset="0%" style="stop-color:#1AD6AB; stop-opacity:1"/>
   <stop offset="100%" style="stop-color:#329DB6; stop-opacity:1"/>
  </linearGradient>
  <linearGradient id="oomox" x1="0%" x2="0%" y1="0%" y2="100%">
   <stop offset="0%" style="stop-color:#d3dae3; stop-opacity:1"/>
   <stop offset="100%" style="stop-color:#5294e2; stop-opacity:1"/>
  </linearGradient>
  <linearGradient id="rainblue" x1="0%" x2="0%" y1="0%" y2="100%">
   <stop offset="0%" style="stop-color:#00F260; stop-opacity:1"/>
   <stop offset="100%" style="stop-color:#0575E6; stop-opacity:1"/>
  </linearGradient>
  <linearGradient id="sunrise" x1="0%" x2="0%" y1="0%" y2="100%">
   <stop offset="0%" style="stop-color: #FF8501; stop-opacity:1"/>
   <stop offset="100%" style="stop-color: #FFCB01; stop-opacity:1"/>
  </linearGradient>
  <linearGradient id="telinkrin" x1="0%" x2="0%" y1="0%" y2="100%">
   <stop offset="0%" style="stop-color: #b2ced6; stop-opacity:1"/>
   <stop offset="100%" style="stop-color: #6da5b7; stop-opacity:1"/>
  </linearGradient>
  <linearGradient id="60spsycho" x1="0%" x2="0%" y1="0%" y2="100%">
   <stop offset="0%" style="stop-color: #df5940; stop-opacity:1"/>
   <stop offset="25%" style="stop-color: #d8d15f; stop-opacity:1"/>
   <stop offset="50%" style="stop-color: #e9882a; stop-opacity:1"/>
   <stop offset="100%" style="stop-color: #279362; stop-opacity:1"/>
  </linearGradient>
  <linearGradient id="90ssummer" x1="0%" x2="0%" y1="0%" y2="100%">
   <stop offset="0%" style="stop-color: #f618c7; stop-opacity:1"/>
   <stop offset="20%" style="stop-color: #94ffab; stop-opacity:1"/>
   <stop offset="50%" style="stop-color: #fbfd54; stop-opacity:1"/>
   <stop offset="100%" style="stop-color: #0f83ae; stop-opacity:1"/>
  </linearGradient>
 </defs>
 <path style="fill:url(#oomox)" class="ColorScheme-Text" d="M 1.158 8.268 L 1.24 8.813 L 0.149 8.978 L 0.067 8.431 C 0.022 8.136 0 7.836 0 7.535 C 0.001 7.071 0.051 6.608 0.148 6.154 C 0.243 5.703 0.379 5.26 0.552 4.832 C 0.892 3.991 1.356 3.207 1.931 2.507 C 2.203 2.173 2.498 1.861 2.817 1.573 C 3.117 1.301 3.442 1.056 3.786 0.842 C 4.106 0.64 4.449 0.476 4.807 0.354 C 5.147 0.236 5.502 0.174 5.862 0.171 C 6.064 0.17 6.265 0.192 6.461 0.237 C 6.659 0.283 6.849 0.355 7.028 0.449 C 7.311 0.594 7.568 0.782 7.794 1.005 C 8.004 1.215 8.178 1.456 8.312 1.722 C 8.44 1.979 8.532 2.252 8.586 2.534 C 8.64 2.817 8.667 3.104 8.665 3.392 C 8.665 3.601 8.654 3.811 8.632 4.019 C 8.61 4.234 8.58 4.447 8.541 4.66 C 8.436 5.236 8.297 5.806 8.124 6.366 C 7.593 6.348 7.06 6.387 6.537 6.482 C 6.195 6.543 5.859 6.636 5.533 6.757 C 5.244 6.866 4.966 7 4.703 7.162 C 4.464 7.309 4.241 7.479 4.037 7.671 C 3.663 8.023 3.366 8.449 3.166 8.921 C 2.975 9.376 2.877 9.865 2.878 10.358 C 2.878 10.842 2.968 11.319 3.144 11.77 C 3.329 12.244 3.601 12.68 3.944 13.055 C 4.326 13.471 4.78 13.813 5.286 14.067 C 5.569 14.209 5.864 14.329 6.169 14.421 C 6.505 14.523 6.849 14.598 7.197 14.645 C 7.586 14.698 7.976 14.725 8.368 14.726 C 8.746 14.726 9.124 14.699 9.498 14.645 C 9.847 14.595 10.191 14.518 10.529 14.417 C 10.841 14.322 11.145 14.202 11.44 14.058 C 11.71 13.926 11.97 13.77 12.214 13.593 C 12.438 13.429 12.645 13.245 12.833 13.041 C 13.006 12.853 13.157 12.647 13.284 12.425 C 13.403 12.218 13.496 11.996 13.56 11.765 C 13.622 11.538 13.654 11.304 13.654 11.069 C 13.65 10.704 13.58 10.343 13.444 10.003 C 13.367 9.806 13.272 9.618 13.163 9.437 C 13.039 9.234 12.901 9.04 12.749 8.856 C 12.575 8.648 12.387 8.45 12.188 8.266 C 11.96 8.056 11.72 7.859 11.471 7.676 C 11.186 7.467 10.892 7.273 10.588 7.094 C 10.145 6.831 9.686 6.594 9.215 6.382 C 9.209 6 9.237 5.62 9.301 5.243 C 9.345 4.981 9.402 4.72 9.473 4.463 C 9.61 3.948 9.801 3.448 10.04 2.971 C 10.152 2.747 10.278 2.531 10.419 2.324 C 10.55 2.128 10.699 1.947 10.863 1.78 C 11.02 1.618 11.2 1.482 11.397 1.375 C 11.605 1.261 11.836 1.2 12.071 1.197 C 12.167 1.196 12.263 1.207 12.356 1.227 C 12.635 1.29 12.904 1.392 13.155 1.529 C 13.408 1.668 13.645 1.836 13.861 2.028 C 14.085 2.225 14.29 2.443 14.475 2.678 C 14.667 2.922 14.841 3.18 14.995 3.449 C 15.317 4.014 15.564 4.618 15.732 5.246 C 15.907 5.889 15.998 6.552 16 7.218 C 16.004 7.774 15.931 8.328 15.785 8.863 L 15.639 9.396 L 14.574 9.105 L 14.72 8.572 C 14.84 8.132 14.9 7.679 14.896 7.223 C 14.895 6.653 14.817 6.084 14.667 5.534 C 14.523 4.996 14.311 4.479 14.036 3.995 C 13.909 3.774 13.766 3.562 13.607 3.361 C 13.464 3.178 13.303 3.008 13.128 2.853 C 12.974 2.715 12.805 2.596 12.624 2.497 C 12.464 2.41 12.293 2.345 12.117 2.304 C 12.106 2.301 12.093 2.3 12.082 2.3 C 12.027 2.303 11.973 2.317 11.926 2.343 C 11.824 2.399 11.731 2.468 11.652 2.552 C 11.534 2.671 11.428 2.8 11.334 2.94 C 11.221 3.108 11.118 3.284 11.026 3.466 C 10.82 3.877 10.657 4.308 10.537 4.752 C 10.477 4.974 10.427 5.198 10.39 5.426 C 10.374 5.518 10.361 5.611 10.35 5.704 C 10.621 5.843 10.887 5.989 11.15 6.144 C 11.484 6.341 11.809 6.556 12.122 6.785 C 12.406 6.993 12.678 7.217 12.936 7.455 C 13.172 7.672 13.392 7.904 13.596 8.15 C 13.784 8.375 13.955 8.615 14.107 8.865 C 14.247 9.098 14.369 9.342 14.469 9.595 C 14.657 10.062 14.754 10.562 14.757 11.066 C 14.757 11.401 14.712 11.735 14.624 12.059 C 14.534 12.379 14.406 12.687 14.241 12.975 C 14.073 13.267 13.873 13.541 13.644 13.789 C 13.408 14.046 13.146 14.279 12.864 14.484 C 12.567 14.701 12.253 14.889 11.923 15.05 C 11.577 15.219 11.217 15.36 10.848 15.473 C 10.458 15.591 10.06 15.679 9.656 15.738 C 9.229 15.799 8.798 15.829 8.367 15.829 C 7.925 15.828 7.485 15.799 7.049 15.738 C 6.642 15.684 6.24 15.597 5.848 15.476 C 5.483 15.366 5.129 15.224 4.789 15.053 C 4.166 14.739 3.603 14.315 3.131 13.801 C 2.695 13.324 2.35 12.773 2.115 12.171 C 1.89 11.594 1.774 10.98 1.774 10.359 C 1.773 9.718 1.9 9.084 2.149 8.493 C 2.409 7.879 2.795 7.326 3.281 6.868 C 3.539 6.625 3.823 6.408 4.125 6.222 C 4.449 6.023 4.791 5.856 5.148 5.723 C 5.535 5.579 5.935 5.47 6.341 5.396 C 6.652 5.339 6.965 5.301 7.281 5.279 C 7.347 5.008 7.406 4.737 7.455 4.463 C 7.488 4.278 7.515 4.092 7.534 3.906 C 7.551 3.733 7.561 3.559 7.561 3.386 C 7.563 3.17 7.544 2.955 7.503 2.743 C 7.467 2.56 7.408 2.382 7.325 2.215 C 7.245 2.058 7.141 1.913 7.015 1.787 C 6.869 1.643 6.702 1.521 6.518 1.428 C 6.421 1.376 6.318 1.337 6.211 1.312 C 6.099 1.286 5.985 1.273 5.871 1.274 C 5.63 1.276 5.393 1.318 5.167 1.397 C 4.887 1.493 4.62 1.62 4.372 1.776 C 4.083 1.957 3.81 2.162 3.558 2.392 C 3.28 2.642 3.021 2.914 2.785 3.204 C 2.281 3.82 1.873 4.507 1.575 5.246 C 1.426 5.614 1.31 5.995 1.227 6.383 C 1.147 6.763 1.105 7.149 1.104 7.538 C 1.104 7.783 1.121 8.027 1.158 8.268 Z"/>
</svg>
