<svg xmlns="http://www.w3.org/2000/svg" width="16" height="16" version="1.1">
<defs>
  <style id="current-color-scheme" type="text/css">
   .ColorScheme-Text { color:#cdd3e0; } .ColorScheme-Highlight { color:#5294e2; }
  </style>
  <linearGradient id="arrongin" x1="0%" x2="0%" y1="0%" y2="100%">
   <stop offset="0%" style="stop-color:#dd9b44; stop-opacity:1"/>
   <stop offset="100%" style="stop-color:#ad6c16; stop-opacity:1"/>
  </linearGradient>
  <linearGradient id="aurora" x1="0%" x2="0%" y1="0%" y2="100%">
   <stop offset="0%" style="stop-color:#09D4DF; stop-opacity:1"/>
   <stop offset="100%" style="stop-color:#9269F4; stop-opacity:1"/>
  </linearGradient>
  <linearGradient id="fitdance" x1="0%" x2="0%" y1="0%" y2="100%">
   <stop offset="0%" style="stop-color:#1AD6AB; stop-opacity:1"/>
   <stop offset="100%" style="stop-color:#329DB6; stop-opacity:1"/>
  </linearGradient>
  <linearGradient id="oomox" x1="0%" x2="0%" y1="0%" y2="100%">
   <stop offset="0%" style="stop-color:#d3dae3; stop-opacity:1"/>
   <stop offset="100%" style="stop-color:#5294e2; stop-opacity:1"/>
  </linearGradient>
  <linearGradient id="rainblue" x1="0%" x2="0%" y1="0%" y2="100%">
   <stop offset="0%" style="stop-color:#00F260; stop-opacity:1"/>
   <stop offset="100%" style="stop-color:#0575E6; stop-opacity:1"/>
  </linearGradient>
  <linearGradient id="sunrise" x1="0%" x2="0%" y1="0%" y2="100%">
   <stop offset="0%" style="stop-color: #FF8501; stop-opacity:1"/>
   <stop offset="100%" style="stop-color: #FFCB01; stop-opacity:1"/>
  </linearGradient>
  <linearGradient id="telinkrin" x1="0%" x2="0%" y1="0%" y2="100%">
   <stop offset="0%" style="stop-color: #b2ced6; stop-opacity:1"/>
   <stop offset="100%" style="stop-color: #6da5b7; stop-opacity:1"/>
  </linearGradient>
  <linearGradient id="60spsycho" x1="0%" x2="0%" y1="0%" y2="100%">
   <stop offset="0%" style="stop-color: #df5940; stop-opacity:1"/>
   <stop offset="25%" style="stop-color: #d8d15f; stop-opacity:1"/>
   <stop offset="50%" style="stop-color: #e9882a; stop-opacity:1"/>
   <stop offset="100%" style="stop-color: #279362; stop-opacity:1"/>
  </linearGradient>
  <linearGradient id="90ssummer" x1="0%" x2="0%" y1="0%" y2="100%">
   <stop offset="0%" style="stop-color: #f618c7; stop-opacity:1"/>
   <stop offset="20%" style="stop-color: #94ffab; stop-opacity:1"/>
   <stop offset="50%" style="stop-color: #fbfd54; stop-opacity:1"/>
   <stop offset="100%" style="stop-color: #0f83ae; stop-opacity:1"/>
  </linearGradient>
 </defs>
 <g transform="matrix(0.63396314,0,0,0.58139535,0.32168237,0.49999997)" style="fill:url(#oomox)" class="ColorScheme-Text">
  <g style="fill:url(#oomox)" class="ColorScheme-Text">
   <path d="m 16.681,13.4 c -0.7,-0.8 -1.7,-1.3 -2.9,-1.2 -0.1,-0.2 -0.5,-2.2 -0.5,-2.2 0,0 1.4,-2.1 1.7,-2.5 1.5,-2.4 1.6,-4.3 0.7,-6.2 -0.3,-0.7 -1.1,-1.3 -1.9,-1.3 -0.6,0 -1.1,0.5 -1.4,1.1 -1,1.7 -1,4.9 -0.5,7.1 0,0 -0.5,0.5 -1,1.1 -1,1.1 -2.1,2.3 -2.5,3.9 -0.5,1.8 -0.1,3.5 1,4.8 1.2,1.5 3,2.2 5.2,2 0.4,1.9 0.7,3.1 0.1,4.2 -0.2,0.4 -0.6,0.8 -1.3,0.8 -0.2,0 -0.3,0 -0.5,-0.1 0.6,-0.3 1.1,-0.9 1.1,-1.6 0,-1 -0.8,-1.8 -1.8,-1.8 -1.7,0.1 -1.8,1.8 -1.8,1.8 0,0.6 0.2,1.2 0.6,1.6 0.5,0.5 1.3,0.9 2.2,0.9 1.1,0 2.2,-0.4 2.6,-2 0.4,-1.3 -0.3,-3.4 -0.4,-4.1 1.1,-0.5 2.1,-2 2.2,-3 0.2,-1.1 -0.2,-2.4 -0.9,-3.3 z m -3.2,-11.1 c 0.1,-0.2 0.3,-0.3 0.5,-0.3 0.1,0 0.3,0.1 0.4,0.2 0.4,0.2 0.5,0.6 0.5,1.2 -0.1,1.5 -1.4,3.3 -2.1,3.9 -0.3,-1.4 -0.1,-4 0.7,-5 z m -2.9,15.7 c -0.7,-0.7 -1,-1.7 -0.9,-2.7 0.2,-1.6 1.3,-2.9 2.2,-3.9 0.2,-0.2 0.4,-0.4 0.5,-0.6 0.1,0.5 0.4,1.3 0.5,1.7 -1.2,0.5 -1.9,2.1 -1.8,3.4 0,0.6 0.2,1 0.5,1.4 0.1,0.1 0.2,0.2 0.3,0.2 0.1,0 0.3,-0.1 0.3,-0.2 0.1,-0.1 0.1,-0.3 0,-0.4 -0.1,-0.1 -0.1,-0.2 -0.1,-0.4 -0.1,-0.9 0.5,-1.6 1.2,-1.9 0.1,0.6 0.8,3.7 0.9,4.4 -1.3,0.4 -2.7,0 -3.6,-1 z m 4.5,0.6 c -0.2,-0.7 -0.3,-1.5 -0.5,-2.4 -0.1,-0.6 -0.2,-1.3 -0.4,-1.9 1.3,0 1.7,1.1 1.8,1.5 0.3,1.1 0,2.2 -0.9,2.8 z" style="fill:url(#oomox)" class="ColorScheme-Text"/>
  </g>
 </g>
</svg>
