<svg xmlns="http://www.w3.org/2000/svg" style="isolation:isolate" width="16" height="16" viewBox="0 0 16 16">
 <defs>
  <style id="current-color-scheme" type="text/css">
   .ColorScheme-Text { color:#cdd3e0; } .ColorScheme-Highlight { color:#5294e2; }
  </style>
  <linearGradient id="arrongin" x1="0%" x2="0%" y1="0%" y2="100%">
   <stop offset="0%" style="stop-color:#dd9b44; stop-opacity:1"/>
   <stop offset="100%" style="stop-color:#ad6c16; stop-opacity:1"/>
  </linearGradient>
  <linearGradient id="aurora" x1="0%" x2="0%" y1="0%" y2="100%">
   <stop offset="0%" style="stop-color:#09D4DF; stop-opacity:1"/>
   <stop offset="100%" style="stop-color:#9269F4; stop-opacity:1"/>
  </linearGradient>
  <linearGradient id="fitdance" x1="0%" x2="0%" y1="0%" y2="100%">
   <stop offset="0%" style="stop-color:#1AD6AB; stop-opacity:1"/>
   <stop offset="100%" style="stop-color:#329DB6; stop-opacity:1"/>
  </linearGradient>
  <linearGradient id="oomox" x1="0%" x2="0%" y1="0%" y2="100%">
   <stop offset="0%" style="stop-color:#d3dae3; stop-opacity:1"/>
   <stop offset="100%" style="stop-color:#5294e2; stop-opacity:1"/>
  </linearGradient>
  <linearGradient id="rainblue" x1="0%" x2="0%" y1="0%" y2="100%">
   <stop offset="0%" style="stop-color:#00F260; stop-opacity:1"/>
   <stop offset="100%" style="stop-color:#0575E6; stop-opacity:1"/>
  </linearGradient>
  <linearGradient id="sunrise" x1="0%" x2="0%" y1="0%" y2="100%">
   <stop offset="0%" style="stop-color: #FF8501; stop-opacity:1"/>
   <stop offset="100%" style="stop-color: #FFCB01; stop-opacity:1"/>
  </linearGradient>
  <linearGradient id="telinkrin" x1="0%" x2="0%" y1="0%" y2="100%">
   <stop offset="0%" style="stop-color: #b2ced6; stop-opacity:1"/>
   <stop offset="100%" style="stop-color: #6da5b7; stop-opacity:1"/>
  </linearGradient>
  <linearGradient id="60spsycho" x1="0%" x2="0%" y1="0%" y2="100%">
   <stop offset="0%" style="stop-color: #df5940; stop-opacity:1"/>
   <stop offset="25%" style="stop-color: #d8d15f; stop-opacity:1"/>
   <stop offset="50%" style="stop-color: #e9882a; stop-opacity:1"/>
   <stop offset="100%" style="stop-color: #279362; stop-opacity:1"/>
  </linearGradient>
  <linearGradient id="90ssummer" x1="0%" x2="0%" y1="0%" y2="100%">
   <stop offset="0%" style="stop-color: #f618c7; stop-opacity:1"/>
   <stop offset="20%" style="stop-color: #94ffab; stop-opacity:1"/>
   <stop offset="50%" style="stop-color: #fbfd54; stop-opacity:1"/>
   <stop offset="100%" style="stop-color: #0f83ae; stop-opacity:1"/>
  </linearGradient>
  <clipPath id="_clipPath_0d4gWBRqWKv325wSJocDuR9C8edM4Dbo">
   <rect width="16" height="16"/>
  </clipPath>
 </defs>
 <g clip-path="url(#_clipPath_0d4gWBRqWKv325wSJocDuR9C8edM4Dbo)">
  <path style="fill:url(#oomox)" class="ColorScheme-Text" d="M 10.124 0 L 3.958 6.166 C 3.958 6.166 5.242 9.108 4.598 9.753 C 3.381 10.973 2.138 10.914 1.379 11.673 C 0.16 12.892 -0.439 14.817 0.371 15.629 C 1.183 16.441 3.107 15.837 4.326 14.62 C 5.085 13.859 5.487 12.16 6.246 11.401 C 7.004 10.643 9.833 12.042 9.833 12.042 L 16 5.875 L 10.124 0 Z M 10.124 1.473 L 14.526 5.875 C 14.526 5.875 13.358 7.065 12.897 7.523 C 12.243 8.178 11.765 8.214 11.521 7.97 C 11.275 7.725 11.92 6.741 11.54 6.36 C 11.159 5.979 10.289 6.719 9.949 6.379 C 9.751 6.181 9.737 5.873 9.931 5.468 C 10.124 5.063 10.517 4.27 10.299 4.053 C 10.08 3.834 9.482 4.159 9.038 4.46 C 8.757 4.651 8.088 5.003 7.797 4.712 C 7.567 4.482 7.562 4.017 7.991 3.587 L 10.124 1.473 Z M 5.994 5.003 L 10.997 10.006 L 9.833 11.169 L 4.83 6.166 L 5.994 5.003 Z M 1.844 13.341 C 2.053 13.341 2.266 13.414 2.426 13.574 C 2.746 13.896 2.746 14.415 2.426 14.737 C 2.104 15.057 1.584 15.057 1.262 14.737 C 0.942 14.415 0.942 13.896 1.262 13.574 C 1.422 13.414 1.636 13.341 1.844 13.341 Z"/>
  <rect style="fill:url(#oomox)" class="ColorScheme-Text" width="4.625" height="3.594" x="17.09" y="-.09" transform="matrix(1,0,0,1,0,0)"/>
 </g>
</svg>
