<svg xmlns="http://www.w3.org/2000/svg" style="isolation:isolate" width="16" height="16" viewBox="0 0 16 16">
 <defs>
  <style id="current-color-scheme" type="text/css">
   .ColorScheme-Text { color:#cdd3e0; } .ColorScheme-Highlight { color:#5294e2; }
  </style>
  <linearGradient id="arrongin" x1="0%" x2="0%" y1="0%" y2="100%">
   <stop offset="0%" style="stop-color:#dd9b44; stop-opacity:1"/>
   <stop offset="100%" style="stop-color:#ad6c16; stop-opacity:1"/>
  </linearGradient>
  <linearGradient id="aurora" x1="0%" x2="0%" y1="0%" y2="100%">
   <stop offset="0%" style="stop-color:#09D4DF; stop-opacity:1"/>
   <stop offset="100%" style="stop-color:#9269F4; stop-opacity:1"/>
  </linearGradient>
  <linearGradient id="fitdance" x1="0%" x2="0%" y1="0%" y2="100%">
   <stop offset="0%" style="stop-color:#1AD6AB; stop-opacity:1"/>
   <stop offset="100%" style="stop-color:#329DB6; stop-opacity:1"/>
  </linearGradient>
  <linearGradient id="oomox" x1="0%" x2="0%" y1="0%" y2="100%">
   <stop offset="0%" style="stop-color:#d3dae3; stop-opacity:1"/>
   <stop offset="100%" style="stop-color:#5294e2; stop-opacity:1"/>
  </linearGradient>
  <linearGradient id="rainblue" x1="0%" x2="0%" y1="0%" y2="100%">
   <stop offset="0%" style="stop-color:#00F260; stop-opacity:1"/>
   <stop offset="100%" style="stop-color:#0575E6; stop-opacity:1"/>
  </linearGradient>
  <linearGradient id="sunrise" x1="0%" x2="0%" y1="0%" y2="100%">
   <stop offset="0%" style="stop-color: #FF8501; stop-opacity:1"/>
   <stop offset="100%" style="stop-color: #FFCB01; stop-opacity:1"/>
  </linearGradient>
  <linearGradient id="telinkrin" x1="0%" x2="0%" y1="0%" y2="100%">
   <stop offset="0%" style="stop-color: #b2ced6; stop-opacity:1"/>
   <stop offset="100%" style="stop-color: #6da5b7; stop-opacity:1"/>
  </linearGradient>
  <linearGradient id="60spsycho" x1="0%" x2="0%" y1="0%" y2="100%">
   <stop offset="0%" style="stop-color: #df5940; stop-opacity:1"/>
   <stop offset="25%" style="stop-color: #d8d15f; stop-opacity:1"/>
   <stop offset="50%" style="stop-color: #e9882a; stop-opacity:1"/>
   <stop offset="100%" style="stop-color: #279362; stop-opacity:1"/>
  </linearGradient>
  <linearGradient id="90ssummer" x1="0%" x2="0%" y1="0%" y2="100%">
   <stop offset="0%" style="stop-color: #f618c7; stop-opacity:1"/>
   <stop offset="20%" style="stop-color: #94ffab; stop-opacity:1"/>
   <stop offset="50%" style="stop-color: #fbfd54; stop-opacity:1"/>
   <stop offset="100%" style="stop-color: #0f83ae; stop-opacity:1"/>
  </linearGradient>
  <clipPath id="_clipPath_Ii9Bb5vWNGABikdduRKrup66Bi2V6hsI">
   <rect width="16" height="16"/>
  </clipPath>
 </defs>
 <g clip-path="url(#_clipPath_Ii9Bb5vWNGABikdduRKrup66Bi2V6hsI)">
  <rect style="fill:url(#oomox)" class="ColorScheme-Text" fill-opacity="0" width="16" height="16"/>
  <path style="fill:url(#oomox)" class="ColorScheme-Text" d="M 10.13 2.615 C 7.663 4.39 5.151 6.539 3.945 7.746 C 3.815 7.875 3.696 8.01 3.583 8.148 C 3.547 8.192 3.516 8.238 3.482 8.284 C 3.409 8.379 3.337 8.475 3.271 8.573 C 3.236 8.626 3.203 8.68 3.169 8.735 C 3.112 8.829 3.055 8.922 3.004 9.017 C 2.973 9.073 2.944 9.13 2.916 9.187 C 2.867 9.282 2.82 9.379 2.777 9.475 C 2.753 9.53 2.728 9.585 2.705 9.641 C 2.644 9.791 2.587 9.942 2.534 10.094 C 2.497 10.204 2.463 10.313 2.432 10.421 C 2.421 10.464 2.408 10.504 2.397 10.545 C 2.363 10.671 2.332 10.796 2.304 10.921 C 2.299 10.942 2.294 10.964 2.29 10.985 C 2.228 11.269 2.181 11.556 2.148 11.845 C 2.148 11.85 2.148 11.854 2.147 11.858 C 2.13 12.006 2.117 12.154 2.107 12.302 C 2.101 12.393 2.097 12.482 2.093 12.564 C 2.091 12.6 2.09 12.631 2.09 12.663 C 2.087 12.734 2.086 12.801 2.084 12.864 L 2.084 12.969 C 2.084 13.021 2.086 13.068 2.086 13.114 C 2.087 13.151 2.087 13.186 2.089 13.22 C 2.09 13.25 2.091 13.276 2.091 13.303 C 2.094 13.344 2.095 13.381 2.097 13.413 L 0.102 15.408 C -0.034 15.544 -0.034 15.764 0.102 15.9 C 0.17 15.966 0.259 16 0.348 16 C 0.44 16 0.528 15.964 0.593 15.898 L 2.588 13.903 C 2.632 13.906 2.686 13.909 2.745 13.91 C 2.845 13.914 2.946 13.916 3.047 13.916 C 4.182 13.916 6.605 13.704 8.254 12.055 L 8.258 12.051 C 8.267 12.041 8.278 12.032 8.288 12.023 C 8.451 11.858 8.631 11.669 8.825 11.462 L 8.832 11.455 C 9.22 11.038 9.663 10.544 10.134 9.994 L 10.134 9.992 C 10.138 9.988 10.141 9.984 10.145 9.981 C 10.342 9.751 10.537 9.519 10.731 9.286 L 10.755 9.258 C 10.952 9.021 11.152 8.779 11.352 8.529 C 11.354 8.527 11.354 8.526 11.355 8.524 L 11.359 8.52 C 11.503 8.341 11.649 8.159 11.794 7.976 C 11.803 7.962 11.814 7.95 11.824 7.938 L 11.825 7.937 C 12.052 7.649 12.279 7.355 12.504 7.06 L 12.504 7.059 C 12.548 7.003 12.591 6.946 12.633 6.889 C 12.721 6.773 12.81 6.654 12.898 6.536 C 12.898 6.535 12.899 6.534 12.9 6.534 C 12.937 6.482 12.975 6.432 13.013 6.382 C 13.138 6.212 13.263 6.041 13.385 5.869 C 16.726 1.228 16.016 0.518 15.749 0.25 C 15.482 -0.016 14.772 -0.726 10.13 2.615 L 10.13 2.615 Z M 3.925 11.584 L 3.927 11.581 L 3.925 11.584 Z M 11.472 2.524 C 11.719 2.357 11.951 2.204 12.167 2.065 L 12.167 3.341 L 11.472 4.037 L 11.472 2.524 Z M 9.386 4.031 C 9.617 3.856 9.849 3.681 10.081 3.51 L 10.081 5.427 L 9.386 6.123 L 9.386 4.031 Z M 8.099 7.411 L 8.098 7.411 L 8.099 7.411 Z M 7.3 5.689 C 7.527 5.501 7.759 5.312 7.996 5.121 L 7.996 7.513 L 7.3 8.208 L 7.3 5.689 Z M 6.013 9.497 L 6.012 9.497 L 6.013 9.497 Z M 5.215 7.496 C 5.428 7.301 5.661 7.092 5.91 6.873 L 5.91 9.599 L 5.215 10.294 L 5.215 7.496 Z M 7.762 11.564 C 7.529 11.794 7.272 11.999 6.996 12.176 L 4.316 12.176 L 5.011 11.481 L 7.844 11.481 C 7.816 11.508 7.788 11.538 7.762 11.563 L 7.762 11.564 Z M 9.127 10.09 L 6.401 10.09 L 7.097 9.395 L 9.728 9.395 C 9.522 9.638 9.321 9.87 9.127 10.09 Z M 10.879 8.004 L 8.487 8.004 L 9.182 7.309 L 11.431 7.309 C 11.248 7.544 11.063 7.776 10.879 8.004 Z M 12.491 5.918 L 10.573 5.918 L 11.268 5.223 L 12.993 5.223 C 12.936 5.303 12.602 5.767 12.491 5.918 Z"/>
 </g>
</svg>
