<svg xmlns="http://www.w3.org/2000/svg" style="isolation:isolate" width="16" height="16" viewBox="0 0 16 16">
 <defs>
  <style id="current-color-scheme" type="text/css">
   .ColorScheme-Text { color:#cdd3e0; } .ColorScheme-Highlight { color:#5294e2; }
  </style>
  <linearGradient id="arrongin" x1="0%" x2="0%" y1="0%" y2="100%">
   <stop offset="0%" style="stop-color:#dd9b44; stop-opacity:1"/>
   <stop offset="100%" style="stop-color:#ad6c16; stop-opacity:1"/>
  </linearGradient>
  <linearGradient id="aurora" x1="0%" x2="0%" y1="0%" y2="100%">
   <stop offset="0%" style="stop-color:#09D4DF; stop-opacity:1"/>
   <stop offset="100%" style="stop-color:#9269F4; stop-opacity:1"/>
  </linearGradient>
  <linearGradient id="fitdance" x1="0%" x2="0%" y1="0%" y2="100%">
   <stop offset="0%" style="stop-color:#1AD6AB; stop-opacity:1"/>
   <stop offset="100%" style="stop-color:#329DB6; stop-opacity:1"/>
  </linearGradient>
  <linearGradient id="oomox" x1="0%" x2="0%" y1="0%" y2="100%">
   <stop offset="0%" style="stop-color:#d3dae3; stop-opacity:1"/>
   <stop offset="100%" style="stop-color:#5294e2; stop-opacity:1"/>
  </linearGradient>
  <linearGradient id="rainblue" x1="0%" x2="0%" y1="0%" y2="100%">
   <stop offset="0%" style="stop-color:#00F260; stop-opacity:1"/>
   <stop offset="100%" style="stop-color:#0575E6; stop-opacity:1"/>
  </linearGradient>
  <linearGradient id="sunrise" x1="0%" x2="0%" y1="0%" y2="100%">
   <stop offset="0%" style="stop-color: #FF8501; stop-opacity:1"/>
   <stop offset="100%" style="stop-color: #FFCB01; stop-opacity:1"/>
  </linearGradient>
  <linearGradient id="telinkrin" x1="0%" x2="0%" y1="0%" y2="100%">
   <stop offset="0%" style="stop-color: #b2ced6; stop-opacity:1"/>
   <stop offset="100%" style="stop-color: #6da5b7; stop-opacity:1"/>
  </linearGradient>
  <linearGradient id="60spsycho" x1="0%" x2="0%" y1="0%" y2="100%">
   <stop offset="0%" style="stop-color: #df5940; stop-opacity:1"/>
   <stop offset="25%" style="stop-color: #d8d15f; stop-opacity:1"/>
   <stop offset="50%" style="stop-color: #e9882a; stop-opacity:1"/>
   <stop offset="100%" style="stop-color: #279362; stop-opacity:1"/>
  </linearGradient>
  <linearGradient id="90ssummer" x1="0%" x2="0%" y1="0%" y2="100%">
   <stop offset="0%" style="stop-color: #f618c7; stop-opacity:1"/>
   <stop offset="20%" style="stop-color: #94ffab; stop-opacity:1"/>
   <stop offset="50%" style="stop-color: #fbfd54; stop-opacity:1"/>
   <stop offset="100%" style="stop-color: #0f83ae; stop-opacity:1"/>
  </linearGradient>
  <clipPath id="_clipPath_XzmugLxNTinr9Yl4m84d3wWDaWxPHqi3">
   <rect width="16" height="16"/>
  </clipPath>
 </defs>
 <g clip-path="url(#_clipPath_XzmugLxNTinr9Yl4m84d3wWDaWxPHqi3)">
  <rect style="fill:#000000" fill-opacity="0" width="16" height="16"/>
  <path style="fill:url(#oomox)" class="ColorScheme-Text" d="M 3.994 1 C 2.736 1.015 1.815 0.97 1.062 1.385 C 0.673 1.607 0.376 1.961 0.225 2.383 C 0.06 2.821 0 3.343 0 4 L 0 12 C 0 12.658 0.06 13.179 0.225 13.617 C 0.389 14.056 0.686 14.407 1.062 14.615 C 1.815 15.031 2.736 14.985 3.994 15 L 12.006 15 C 13.264 14.985 14.185 15.03 14.938 14.615 C 15.327 14.393 15.625 14.039 15.776 13.617 C 15.94 13.179 16 12.657 16 12 L 16 4 C 16 3.342 15.94 2.821 15.775 2.383 C 15.624 1.961 15.327 1.607 14.938 1.385 C 14.185 0.969 13.264 1.015 12.006 1 L 3.998 1 L 3.994 1 Z M 4 2 L 12 2 C 13.259 2.015 14.087 2.06 14.453 2.262 C 14.637 2.362 14.743 2.474 14.84 2.734 C 14.937 2.994 15 3.408 15 4 L 15 12 C 15 12.592 14.937 13.006 14.84 13.266 C 14.742 13.526 14.637 13.637 14.453 13.738 C 14.087 13.94 13.259 13.985 12 14 L 4 14 C 2.741 13.985 1.91 13.94 1.545 13.738 C 1.362 13.638 1.258 13.526 1.16 13.266 C 1.063 13.006 1 12.592 1 12 L 1 4 C 1 3.408 1.063 2.994 1.16 2.734 C 1.258 2.474 1.362 2.363 1.545 2.262 C 1.911 2.06 2.741 2.015 4 2 Z"/>
  <g opacity=".5">
   <path style="fill:url(#oomox)" class="ColorScheme-Text" fill-rule="evenodd" d="M 12.316 1.297 L 11.316 1.318 C 11.336 2.254 11.241 3.168 11.096 4.068 C 11.226 4.031 11.359 4.004 11.5 4.004 C 11.714 4.004 11.916 4.052 12.102 4.134 C 12.245 3.206 12.336 2.263 12.316 1.297 Z M 4.383 1.559 C 4.269 2.933 4.24 4.312 4.297 5.689 C 4.508 5.575 4.745 5.504 5 5.504 C 5.101 5.504 5.2 5.516 5.297 5.535 C 5.247 4.276 5.267 2.979 5.379 1.643 L 4.383 1.559 Z M 0.516 3.406 L 0.5 3.428 L 0.5 4.619 C 1.45 5.299 2.417 5.957 3.398 6.592 C 2.386 7.01 1.416 7.522 0.5 8.122 L 0.5 9.291 L 0.516 9.313 C 1.487 8.627 2.532 8.053 3.631 7.6 C 3.545 7.411 3.501 7.207 3.5 7 C 3.5 6.523 3.733 6.099 4.086 5.824 C 2.874 5.051 1.683 4.245 0.516 3.406 L 0.516 3.406 Z M 15.912 4.629 C 14.872 4.652 13.832 4.695 12.793 4.758 C 12.921 4.978 13 5.229 13 5.5 C 13 5.585 12.988 5.667 12.975 5.748 C 13.961 5.69 14.947 5.65 15.934 5.628 L 15.912 4.629 Z M 10.098 4.986 C 8.631 5.153 7.211 5.401 5.848 5.77 C 6.146 5.976 6.364 6.288 6.453 6.648 C 7.619 6.354 8.835 6.148 10.093 6 C 10.033 5.84 10.002 5.671 10 5.5 C 10 5.32 10.038 5.147 10.098 4.986 L 10.098 4.986 Z M 11.5 5.004 C 11.367 5.001 11.239 5.053 11.145 5.146 C 11.051 5.24 10.998 5.367 11 5.5 C 10.997 5.679 11.092 5.845 11.247 5.934 C 11.402 6.022 11.594 6.019 11.746 5.926 C 11.756 5.89 11.768 5.856 11.777 5.82 C 11.811 5.817 11.847 5.817 11.881 5.814 C 12.007 5.668 12.036 5.461 11.954 5.286 C 11.872 5.111 11.694 5 11.501 5.004 L 11.5 5.004 Z M 5 6.504 C 4.867 6.501 4.739 6.553 4.645 6.646 C 4.551 6.74 4.498 6.867 4.5 7 C 4.498 7.133 4.551 7.26 4.645 7.354 C 4.739 7.447 4.867 7.499 5 7.496 C 5.133 7.499 5.261 7.447 5.355 7.354 C 5.449 7.26 5.502 7.133 5.5 7 C 5.502 6.867 5.449 6.74 5.355 6.646 C 5.261 6.553 5.133 6.501 5 6.504 L 5 6.504 Z M 10.498 6.604 C 10.346 7.077 10.175 7.544 9.986 8.002 L 10 8 C 10.351 8 10.673 8.127 10.93 8.332 C 11.11 7.891 11.274 7.444 11.422 6.988 C 11.079 6.97 10.752 6.834 10.498 6.603 L 10.498 6.604 Z M 6.477 7.23 C 6.422 7.572 6.25 7.884 5.99 8.113 C 6.81 8.558 7.651 8.971 8.516 9.342 C 8.553 8.989 8.708 8.671 8.949 8.434 C 8.107 8.071 7.282 7.669 6.477 7.23 L 6.477 7.23 Z M 5.586 8.373 C 5.405 8.451 5.208 8.496 5 8.496 C 4.843 8.496 4.695 8.463 4.553 8.418 C 4.687 9.241 4.878 10.034 5.119 10.797 C 5.368 10.615 5.671 10.504 6 10.504 C 6.027 10.504 6.052 10.51 6.078 10.512 C 5.866 9.811 5.701 9.096 5.586 8.373 L 5.586 8.373 Z M 10 9 C 9.867 8.997 9.739 9.049 9.645 9.142 C 9.551 9.236 9.498 9.363 9.5 9.496 C 9.5 9.703 9.62 9.876 9.799 9.951 C 9.818 9.931 9.84 9.914 9.859 9.893 C 9.939 9.922 10.023 9.944 10.104 9.973 C 10.334 9.931 10.501 9.73 10.5 9.496 C 10.502 9.363 10.449 9.236 10.355 9.142 C 10.261 9.049 10.133 8.997 10 9 L 10 9 Z M 11.486 9.365 C 11.49 9.409 11.5 9.451 11.5 9.496 C 11.5 9.809 11.401 10.099 11.234 10.34 C 12.736 10.777 14.294 11.053 15.912 11.088 L 15.934 10.088 C 14.407 10.055 12.924 9.787 11.486 9.365 L 11.486 9.365 Z M 8.531 9.797 C 8.051 10.216 7.522 10.572 6.961 10.863 C 7.221 11.083 7.406 11.382 7.471 11.727 C 8.04 11.428 8.574 11.068 9.066 10.654 C 8.794 10.439 8.605 10.136 8.531 9.797 L 8.531 9.797 Z M 6 11.504 C 5.867 11.501 5.739 11.553 5.645 11.646 C 5.551 11.74 5.498 11.867 5.5 12 C 5.498 12.133 5.551 12.26 5.645 12.354 C 5.739 12.447 5.867 12.499 6 12.496 C 6.133 12.499 6.261 12.447 6.355 12.354 C 6.449 12.26 6.502 12.133 6.5 12 C 6.502 11.867 6.449 11.74 6.355 11.646 C 6.261 11.553 6.133 11.501 6 11.504 Z M 4.527 11.744 C 4.382 11.781 4.234 11.832 4.092 11.861 C 3.164 12.052 2.298 12.123 1.635 12.119 C 1.361 12.119 1.087 12.101 0.816 12.064 C 0.612 12.034 0.469 11.97 0.512 11.996 L 0.5 12.016 L 0.5 13.023 C 0.556 13.033 0.607 13.045 0.67 13.055 C 0.938 13.095 1.26 13.117 1.629 13.119 C 2.367 13.123 3.293 13.047 4.293 12.842 C 4.426 12.814 4.567 12.765 4.703 12.732 C 4.572 12.51 4.502 12.258 4.5 12 C 4.5 11.912 4.513 11.827 4.527 11.744 L 4.527 11.744 Z M 7.145 12.951 C 6.923 13.22 6.614 13.403 6.271 13.469 C 6.507 13.871 6.761 14.261 7.047 14.631 L 7.837 14.018 C 7.581 13.68 7.35 13.323 7.145 12.951 L 7.145 12.951 Z"/>
  </g>
  <path style="fill:url(#oomox)" class="ColorScheme-Text" d="M 8 3 C 6.615 3 5.5 4.115 5.5 5.5 L 5.5 8 L 4.25 8 C 4.25 9.667 4.25 11.333 4.25 13 C 6.75 13 9.25 13 11.75 13 L 11.75 8 C 11.333 8 10.917 8 10.5 8 L 10.5 5.5 C 10.5 4.115 9.385 3 8 3 Z M 8 3.625 C 9.039 3.625 9.875 4.601 9.875 5.813 L 9.875 8 L 6.125 8 L 6.125 5.813 C 6.125 4.601 6.961 3.625 8 3.625 Z"/>
 </g>
</svg>
