<svg xmlns="http://www.w3.org/2000/svg" style="isolation:isolate" width="16" height="16" viewBox="0 0 16 16">
 <defs>
  <style id="current-color-scheme" type="text/css">
   .ColorScheme-Text { color:#cdd3e0; } .ColorScheme-Highlight { color:#5294e2; }
  </style>
  <linearGradient id="arrongin" x1="0%" x2="0%" y1="0%" y2="100%">
   <stop offset="0%" style="stop-color:#dd9b44; stop-opacity:1"/>
   <stop offset="100%" style="stop-color:#ad6c16; stop-opacity:1"/>
  </linearGradient>
  <linearGradient id="aurora" x1="0%" x2="0%" y1="0%" y2="100%">
   <stop offset="0%" style="stop-color:#09D4DF; stop-opacity:1"/>
   <stop offset="100%" style="stop-color:#9269F4; stop-opacity:1"/>
  </linearGradient>
  <linearGradient id="fitdance" x1="0%" x2="0%" y1="0%" y2="100%">
   <stop offset="0%" style="stop-color:#1AD6AB; stop-opacity:1"/>
   <stop offset="100%" style="stop-color:#329DB6; stop-opacity:1"/>
  </linearGradient>
  <linearGradient id="oomox" x1="0%" x2="0%" y1="0%" y2="100%">
   <stop offset="0%" style="stop-color:#d3dae3; stop-opacity:1"/>
   <stop offset="100%" style="stop-color:#5294e2; stop-opacity:1"/>
  </linearGradient>
  <linearGradient id="rainblue" x1="0%" x2="0%" y1="0%" y2="100%">
   <stop offset="0%" style="stop-color:#00F260; stop-opacity:1"/>
   <stop offset="100%" style="stop-color:#0575E6; stop-opacity:1"/>
  </linearGradient>
  <linearGradient id="sunrise" x1="0%" x2="0%" y1="0%" y2="100%">
   <stop offset="0%" style="stop-color: #FF8501; stop-opacity:1"/>
   <stop offset="100%" style="stop-color: #FFCB01; stop-opacity:1"/>
  </linearGradient>
  <linearGradient id="telinkrin" x1="0%" x2="0%" y1="0%" y2="100%">
   <stop offset="0%" style="stop-color: #b2ced6; stop-opacity:1"/>
   <stop offset="100%" style="stop-color: #6da5b7; stop-opacity:1"/>
  </linearGradient>
  <linearGradient id="60spsycho" x1="0%" x2="0%" y1="0%" y2="100%">
   <stop offset="0%" style="stop-color: #df5940; stop-opacity:1"/>
   <stop offset="25%" style="stop-color: #d8d15f; stop-opacity:1"/>
   <stop offset="50%" style="stop-color: #e9882a; stop-opacity:1"/>
   <stop offset="100%" style="stop-color: #279362; stop-opacity:1"/>
  </linearGradient>
  <linearGradient id="90ssummer" x1="0%" x2="0%" y1="0%" y2="100%">
   <stop offset="0%" style="stop-color: #f618c7; stop-opacity:1"/>
   <stop offset="20%" style="stop-color: #94ffab; stop-opacity:1"/>
   <stop offset="50%" style="stop-color: #fbfd54; stop-opacity:1"/>
   <stop offset="100%" style="stop-color: #0f83ae; stop-opacity:1"/>
  </linearGradient>
 </defs>
 <path style="fill:url(#oomox)" class="ColorScheme-Text" d="M 2.537 9.366 L 8 15.61 L 13.463 9.366 L 10.342 9.367 L 10.342 7.024 C 10.342 7.805 9.561 7.805 9.561 7.805 C 9.561 7.805 8.78 7.805 8.78 7.024 C 8.78 6.244 8 6.244 8 6.244 C 8 6.244 7.22 6.244 7.22 7.024 C 7.22 7.805 6.439 7.805 6.439 7.805 C 6.439 7.805 5.658 7.805 5.658 7.024 L 5.658 9.366 L 2.537 9.366 Z"/>
 <g opacity=".2">
  <path style="fill:url(#oomox)" class="ColorScheme-Text" d="M 8 0 C 8 0 7.22 0 7.22 0.78 C 7.22 1.561 6.439 1.561 6.439 1.561 C 6.439 1.561 5.658 1.562 5.658 0.78 L 5.658 11.707 L 10.342 11.707 L 10.342 0.78 C 10.342 1.561 9.561 1.561 9.561 1.561 C 9.561 1.561 8.78 1.561 8.78 0.78 C 8.78 0 8 0 8 0 Z"/>
 </g>
 <g opacity=".5">
  <path style="fill:url(#oomox)" class="ColorScheme-Text" d="M 6.439 3.122 C 6.439 3.122 5.658 3.121 5.658 3.902 L 5.658 8.585 L 10.342 8.585 L 10.342 3.902 C 10.342 3.122 9.561 3.122 9.561 3.122 C 9.561 3.122 8.78 3.122 8.78 3.902 C 8.78 4.683 8 4.683 8 4.683 C 8 4.683 7.22 4.683 7.22 3.902 C 7.22 3.122 6.439 3.122 6.439 3.122 Z"/>
 </g>
</svg>
