<svg xmlns="http://www.w3.org/2000/svg" style="isolation:isolate" width="16" height="16" viewBox="0 0 16 16">
 <defs>
  <style id="current-color-scheme" type="text/css">
   .ColorScheme-Text { color:#cdd3e0; } .ColorScheme-Highlight { color:#5294e2; }
  </style>
  <linearGradient id="arrongin" x1="0%" x2="0%" y1="0%" y2="100%">
   <stop offset="0%" style="stop-color:#dd9b44; stop-opacity:1"/>
   <stop offset="100%" style="stop-color:#ad6c16; stop-opacity:1"/>
  </linearGradient>
  <linearGradient id="aurora" x1="0%" x2="0%" y1="0%" y2="100%">
   <stop offset="0%" style="stop-color:#09D4DF; stop-opacity:1"/>
   <stop offset="100%" style="stop-color:#9269F4; stop-opacity:1"/>
  </linearGradient>
  <linearGradient id="fitdance" x1="0%" x2="0%" y1="0%" y2="100%">
   <stop offset="0%" style="stop-color:#1AD6AB; stop-opacity:1"/>
   <stop offset="100%" style="stop-color:#329DB6; stop-opacity:1"/>
  </linearGradient>
  <linearGradient id="oomox" x1="0%" x2="0%" y1="0%" y2="100%">
   <stop offset="0%" style="stop-color:#d3dae3; stop-opacity:1"/>
   <stop offset="100%" style="stop-color:#5294e2; stop-opacity:1"/>
  </linearGradient>
  <linearGradient id="rainblue" x1="0%" x2="0%" y1="0%" y2="100%">
   <stop offset="0%" style="stop-color:#00F260; stop-opacity:1"/>
   <stop offset="100%" style="stop-color:#0575E6; stop-opacity:1"/>
  </linearGradient>
  <linearGradient id="sunrise" x1="0%" x2="0%" y1="0%" y2="100%">
   <stop offset="0%" style="stop-color: #FF8501; stop-opacity:1"/>
   <stop offset="100%" style="stop-color: #FFCB01; stop-opacity:1"/>
  </linearGradient>
  <linearGradient id="telinkrin" x1="0%" x2="0%" y1="0%" y2="100%">
   <stop offset="0%" style="stop-color: #b2ced6; stop-opacity:1"/>
   <stop offset="100%" style="stop-color: #6da5b7; stop-opacity:1"/>
  </linearGradient>
  <linearGradient id="60spsycho" x1="0%" x2="0%" y1="0%" y2="100%">
   <stop offset="0%" style="stop-color: #df5940; stop-opacity:1"/>
   <stop offset="25%" style="stop-color: #d8d15f; stop-opacity:1"/>
   <stop offset="50%" style="stop-color: #e9882a; stop-opacity:1"/>
   <stop offset="100%" style="stop-color: #279362; stop-opacity:1"/>
  </linearGradient>
  <linearGradient id="90ssummer" x1="0%" x2="0%" y1="0%" y2="100%">
   <stop offset="0%" style="stop-color: #f618c7; stop-opacity:1"/>
   <stop offset="20%" style="stop-color: #94ffab; stop-opacity:1"/>
   <stop offset="50%" style="stop-color: #fbfd54; stop-opacity:1"/>
   <stop offset="100%" style="stop-color: #0f83ae; stop-opacity:1"/>
  </linearGradient>
 </defs>
 <path style="fill:url(#oomox)" class="ColorScheme-Text" d="M 1.6 0 C 0.716 0 0 0.716 0 1.6 L 0 5.6 C 0 6.484 0.716 7.2 1.6 7.2 L 5.6 7.2 C 6.484 7.2 7.2 6.484 7.2 5.6 L 7.2 1.6 C 7.2 0.716 6.484 0 5.6 0 L 1.6 0 Z M 10.4 0 C 9.516 0 8.8 0.716 8.8 1.6 L 8.8 5.6 C 8.8 6.484 9.516 7.2 10.4 7.2 L 14.4 7.2 C 15.284 7.2 16 6.484 16 5.6 L 16 1.6 C 16 0.716 15.284 0 14.4 0 L 10.4 0 Z M 3.2 1.6 L 4 1.6 L 4 3.2 L 5.6 3.2 L 5.6 4 L 4 4 L 4 5.6 L 3.2 5.6 L 3.2 4 L 1.6 4 L 1.6 3.2 L 3.2 3.2 L 3.2 1.6 Z M 10.4 3.2 L 14.4 3.2 L 14.4 4 L 10.4 4 L 10.4 3.2 Z M 1.6 8.8 C 0.716 8.8 0 9.516 0 10.4 L 0 14.4 C 0 15.284 0.716 16 1.6 16 L 5.6 16 C 6.484 16 7.2 15.284 7.2 14.4 L 7.2 10.4 C 7.2 9.516 6.484 8.8 5.6 8.8 L 1.6 8.8 Z M 10.4 8.8 C 9.516 8.8 8.8 9.516 8.8 10.4 L 8.8 14.4 C 8.8 15.284 9.516 16 10.4 16 L 14.4 16 C 15.284 16 16 15.284 16 14.4 L 16 10.4 C 16 9.516 15.284 8.8 14.4 8.8 L 10.4 8.8 Z M 2.175 10.425 L 3.6 11.825 L 5.025 10.425 L 5.575 10.975 L 4.175 12.4 L 5.575 13.825 L 5.025 14.375 L 3.6 12.975 L 2.175 14.375 L 1.625 13.825 L 3.025 12.4 L 1.625 10.975 L 2.175 10.425 Z M 10.4 11.2 L 14.4 11.2 L 14.4 12 L 10.4 12 L 10.4 11.2 Z M 10.4 12.8 L 14.4 12.8 L 14.4 13.6 L 10.4 13.6 L 10.4 12.8 Z"/>
</svg>
