/* XPM */
static char * title_5_active_xpm[] = {
"2 26 3 1",
" 	c None",
".	c #6c757d",
"+	c #343a40",
"..",
"++",
"++",
"++",
"++",
"++",
"++",
"++",
"++",
"++",
"++",
"++",
"++",
"++",
"++",
"++",
"++",
"++",
"++",
"++",
"++",
"++",
"++",
"++",
"++",
"++"};
