/* XPM */
static char * menu_active_xpm[] = {
"24 16 2 1",
" 	c None",
".	c #3b3e3f",
"........................",
"........................",
"........................",
"........................",
"........................",
"........................",
"........................",
"........................",
"........................",
"........................",
"........................",
"........................",
"........................",
"........................",
"........................",
"........................"};
