<svg xmlns="http://www.w3.org/2000/svg" viewBox="0 0 16 16">
 <g transform="translate(0,-1036.3622)">
  <path d="m 14.376 1037.98 c -2.165 -2.166 -5.666 -2.152 -7.831 0.016 -1.841 1.842 -2.117 4.645 -0.83 6.776 l -5.341 5.343 c -0.498 0.498 -0.498 1.296 0 1.794 l 0.08 0.08 c 0.498 0.499 1.295 0.499 1.794 0 l 5.341 -5.343 c 2.133 1.29 4.946 1.025 6.787 -0.817 2.165 -2.166 2.165 -5.681 0 -7.847 z m -1.218 1.218 c 1.489 1.49 1.489 3.92 0 5.41 -1.475 1.476 -3.862 1.475 -5.355 0.027 l -0.04 -0.04 c -0.013 -0.016 -0.027 -0.027 -0.04 -0.041 -1.45 -1.492 -1.436 -3.867 0.04 -5.343 1.489 -1.49 3.906 -1.503 5.395 -0.016 z" style="fill:#a52a2a;fill-opacity:1;color:#000"/>
 </g>
</svg>
