<svg xmlns="http://www.w3.org/2000/svg" viewBox="0 0 16 16">
 <g transform="translate(0,-1036.3622)">
  <path d="m 2 1036.36 c -1.108 0 -2 0.892 -2 2 l 0 12 c 0 1.108 0.892 2 2 2 l 12 0 c 1.108 0 2 -0.892 2 -2 l 0 -12 c 0 -1.108 -0.892 -2 -2 -2 l -12 0 z m 0 2 2 0 0 2 -2 0 0 -2 z m 10 0 2 0 0 2 -2 0 0 -2 z m -10 5 2 0 0 2 -2 0 0 -2 z m 10 0 2 0 0 2 -2 0 0 -2 z m -10 5 2 0 0 2 -2 0 0 -2 z m 10 0 2 0 0 2 -2 0 0 -2 z" style="fill:#a52a2a;fill-opacity:1"/>
 </g>
</svg>
