<svg xmlns="http://www.w3.org/2000/svg" width="16" height="16" version="1.1">
 <defs>
  <style id="current-color-scheme" type="text/css">
   .ColorScheme-Text { color:#cdd3e0; } .ColorScheme-Highlight { color:#5294e2; }
  </style>
  <linearGradient id="arrongin" x1="0%" x2="0%" y1="0%" y2="100%">
   <stop offset="0%" style="stop-color:#dd9b44; stop-opacity:1"/>
   <stop offset="100%" style="stop-color:#ad6c16; stop-opacity:1"/>
  </linearGradient>
  <linearGradient id="aurora" x1="0%" x2="0%" y1="0%" y2="100%">
   <stop offset="0%" style="stop-color:#09D4DF; stop-opacity:1"/>
   <stop offset="100%" style="stop-color:#9269F4; stop-opacity:1"/>
  </linearGradient>
  <linearGradient id="fitdance" x1="0%" x2="0%" y1="0%" y2="100%">
   <stop offset="0%" style="stop-color:#1AD6AB; stop-opacity:1"/>
   <stop offset="100%" style="stop-color:#329DB6; stop-opacity:1"/>
  </linearGradient>
  <linearGradient id="oomox" x1="0%" x2="0%" y1="0%" y2="100%">
   <stop offset="0%" style="stop-color:#d3dae3; stop-opacity:1"/>
   <stop offset="100%" style="stop-color:#5294e2; stop-opacity:1"/>
  </linearGradient>
  <linearGradient id="rainblue" x1="0%" x2="0%" y1="0%" y2="100%">
   <stop offset="0%" style="stop-color:#00F260; stop-opacity:1"/>
   <stop offset="100%" style="stop-color:#0575E6; stop-opacity:1"/>
  </linearGradient>
  <linearGradient id="sunrise" x1="0%" x2="0%" y1="0%" y2="100%">
   <stop offset="0%" style="stop-color: #FF8501; stop-opacity:1"/>
   <stop offset="100%" style="stop-color: #FFCB01; stop-opacity:1"/>
  </linearGradient>
  <linearGradient id="telinkrin" x1="0%" x2="0%" y1="0%" y2="100%">
   <stop offset="0%" style="stop-color: #b2ced6; stop-opacity:1"/>
   <stop offset="100%" style="stop-color: #6da5b7; stop-opacity:1"/>
  </linearGradient>
  <linearGradient id="60spsycho" x1="0%" x2="0%" y1="0%" y2="100%">
   <stop offset="0%" style="stop-color: #df5940; stop-opacity:1"/>
   <stop offset="25%" style="stop-color: #d8d15f; stop-opacity:1"/>
   <stop offset="50%" style="stop-color: #e9882a; stop-opacity:1"/>
   <stop offset="100%" style="stop-color: #279362; stop-opacity:1"/>
  </linearGradient>
  <linearGradient id="90ssummer" x1="0%" x2="0%" y1="0%" y2="100%">
   <stop offset="0%" style="stop-color: #f618c7; stop-opacity:1"/>
   <stop offset="20%" style="stop-color: #94ffab; stop-opacity:1"/>
   <stop offset="50%" style="stop-color: #fbfd54; stop-opacity:1"/>
   <stop offset="100%" style="stop-color: #0f83ae; stop-opacity:1"/>
  </linearGradient>
  <clipPath id="_clipPath_Pq8gi0UFH0yVcqOiKSjNhmu1ToEQ47bH">
   <rect width="16" height="16"/>
  </clipPath>
 </defs>
 <g transform="translate(-311.99997,-199.99994)">
  <path d="m 314.24609,211.00977 c -0.26827,0.002 -0.47244,-0.0285 -0.75781,0.084 -0.14268,0.0563 -0.30699,0.18646 -0.39062,0.3457 -0.0836,0.15925 -0.0977,0.31178 -0.0977,0.45313 v 2.22461 c 0,0.14134 0.0141,0.29391 0.0977,0.45312 0.0836,0.15921 0.24787,0.28934 0.39062,0.34571 0.2855,0.11272 0.48934,0.082 0.75781,0.084 h 0.002 1.5039 0.002 c 0.26827,-0.002 0.47244,0.0285 0.75781,-0.084 0.14268,-0.0563 0.30698,-0.18646 0.39062,-0.34571 0.0836,-0.15924 0.0977,-0.31177 0.0977,-0.45312 v -2.22461 c 0,-0.14135 -0.0141,-0.29391 -0.0977,-0.45313 -0.0836,-0.15921 -0.24787,-0.28934 -0.39062,-0.3457 -0.28549,-0.11272 -0.48934,-0.082 -0.75781,-0.084 h -0.002 -1.5039 z m 0.004,1 h 1.5 c 0.16935,0.002 0.18943,0.003 0.25,0.008 v 1.97461 c -0.0607,0.004 -0.0805,0.006 -0.25,0.008 h -1.49609 -0.004 c -0.16935,-0.002 -0.18943,-0.003 -0.25,-0.008 v -1.97461 c 0.0607,-0.004 0.0805,-0.006 0.25,-0.008 z" style="solid-color:#cdd3e0;fill:url(#oomox)" class="ColorScheme-Text" />
  <path d="m 314.24609,206.00977 c -0.26827,0.002 -0.47244,-0.0285 -0.75781,0.084 -0.14268,0.0563 -0.30699,0.18646 -0.39062,0.3457 -0.0836,0.15925 -0.0977,0.31178 -0.0977,0.45313 v 2.22461 c 0,0.14134 0.0141,0.29391 0.0977,0.45312 0.0836,0.15921 0.24787,0.28934 0.39062,0.34571 0.2855,0.11272 0.48934,0.082 0.75781,0.084 h 0.002 1.5039 0.002 c 0.26827,-0.002 0.47244,0.0285 0.75781,-0.084 0.14268,-0.0563 0.30698,-0.18646 0.39062,-0.34571 0.0836,-0.15924 0.0977,-0.31177 0.0977,-0.45312 v -2.22461 c 0,-0.14135 -0.0141,-0.29391 -0.0977,-0.45313 -0.0836,-0.15921 -0.24787,-0.28934 -0.39062,-0.3457 -0.28549,-0.11272 -0.48934,-0.082 -0.75781,-0.084 h -0.002 -1.5039 z m 0.004,1 h 1.5 c 0.16935,0.002 0.18943,0.003 0.25,0.008 v 1.97461 c -0.0607,0.004 -0.0805,0.006 -0.25,0.008 h -1.49609 -0.004 c -0.16935,-0.002 -0.18943,-0.003 -0.25,-0.008 v -1.97461 c 0.0607,-0.004 0.0805,-0.006 0.25,-0.008 z" style="solid-color:#cdd3e0;fill:url(#oomox)" class="ColorScheme-Text" />
  <path d="m 314.24609,201.00977 c -0.26827,0.002 -0.47244,-0.0285 -0.75781,0.084 -0.14268,0.0563 -0.30699,0.18646 -0.39062,0.3457 -0.0836,0.15925 -0.0977,0.31178 -0.0977,0.45313 v 2.22461 c 0,0.14134 0.0141,0.29391 0.0977,0.45312 0.0836,0.15921 0.24787,0.28934 0.39062,0.34571 0.2855,0.11272 0.48934,0.082 0.75781,0.084 h 0.002 1.5039 0.002 c 0.26827,-0.002 0.47244,0.0285 0.75781,-0.084 0.14268,-0.0563 0.30698,-0.18646 0.39062,-0.34571 0.0836,-0.15924 0.0977,-0.31177 0.0977,-0.45312 v -2.22461 c 0,-0.14135 -0.0141,-0.29391 -0.0977,-0.45313 -0.0836,-0.15921 -0.24787,-0.28934 -0.39062,-0.3457 -0.28549,-0.11272 -0.48934,-0.082 -0.75781,-0.084 h -0.002 -1.5039 z m 0.004,1 h 1.5 c 0.16935,0.002 0.18943,0.003 0.25,0.008 v 1.97461 c -0.0607,0.004 -0.0805,0.006 -0.25,0.008 h -1.49609 -0.004 c -0.16935,-0.002 -0.18943,-0.003 -0.25,-0.008 v -1.97461 c 0.0607,-0.004 0.0805,-0.006 0.25,-0.008 z" style="solid-color:#cdd3e0;fill:url(#oomox)" class="ColorScheme-Text" />
  <path d="m 319.24609,211.00977 c -0.26827,0.002 -0.47244,-0.0285 -0.75781,0.084 -0.14268,0.0563 -0.30699,0.18646 -0.39062,0.3457 -0.0836,0.15925 -0.0977,0.31178 -0.0977,0.45313 v 2.22461 c 0,0.14134 0.0141,0.29391 0.0977,0.45312 0.0836,0.15921 0.24787,0.28934 0.39062,0.34571 0.2855,0.11272 0.48934,0.082 0.75781,0.084 h 0.002 1.5039 0.002 c 0.26827,-0.002 0.47244,0.0285 0.75781,-0.084 0.14268,-0.0563 0.30698,-0.18646 0.39062,-0.34571 0.0836,-0.15924 0.0977,-0.31177 0.0977,-0.45312 v -2.22461 c 0,-0.14135 -0.0141,-0.29391 -0.0977,-0.45313 -0.0836,-0.15921 -0.24787,-0.28934 -0.39062,-0.3457 -0.28549,-0.11272 -0.48934,-0.082 -0.75781,-0.084 h -0.002 -1.5039 z m 0.004,1 h 1.5 c 0.16935,0.002 0.18943,0.003 0.25,0.008 v 1.97461 c -0.0607,0.004 -0.0805,0.006 -0.25,0.008 h -1.49609 -0.004 c -0.16935,-0.002 -0.18943,-0.003 -0.25,-0.008 v -1.97461 c 0.0607,-0.004 0.0805,-0.006 0.25,-0.008 z" style="solid-color:#cdd3e0;fill:url(#oomox)" class="ColorScheme-Text" />
  <path d="m 319.24609,206.00977 c -0.26827,0.002 -0.47244,-0.0285 -0.75781,0.084 -0.14268,0.0563 -0.30699,0.18646 -0.39062,0.3457 -0.0836,0.15925 -0.0977,0.31178 -0.0977,0.45313 v 2.22461 c 0,0.14134 0.0141,0.29391 0.0977,0.45312 0.0836,0.15921 0.24787,0.28934 0.39062,0.34571 0.2855,0.11272 0.48934,0.082 0.75781,0.084 h 0.002 1.5039 0.002 c 0.26827,-0.002 0.47244,0.0285 0.75781,-0.084 0.14268,-0.0563 0.30698,-0.18646 0.39062,-0.34571 0.0836,-0.15924 0.0977,-0.31177 0.0977,-0.45312 v -2.22461 c 0,-0.14135 -0.0141,-0.29391 -0.0977,-0.45313 -0.0836,-0.15921 -0.24787,-0.28934 -0.39062,-0.3457 -0.28549,-0.11272 -0.48934,-0.082 -0.75781,-0.084 h -0.002 -1.5039 z m 0.004,1 h 1.5 c 0.16935,0.002 0.18943,0.003 0.25,0.008 v 1.97461 c -0.0607,0.004 -0.0805,0.006 -0.25,0.008 h -1.49609 -0.004 c -0.16935,-0.002 -0.18943,-0.003 -0.25,-0.008 v -1.97461 c 0.0607,-0.004 0.0805,-0.006 0.25,-0.008 z" style="solid-color:#cdd3e0;fill:url(#oomox)" class="ColorScheme-Text" />
  <path d="m 319.24609,201.00977 c -0.26827,0.002 -0.47244,-0.0285 -0.75781,0.084 -0.14268,0.0563 -0.30699,0.18646 -0.39062,0.3457 -0.0836,0.15925 -0.0977,0.31178 -0.0977,0.45313 v 2.22461 c 0,0.14134 0.0141,0.29391 0.0977,0.45312 0.0836,0.15921 0.24787,0.28934 0.39062,0.34571 0.2855,0.11272 0.48934,0.082 0.75781,0.084 h 0.002 1.5039 0.002 c 0.26827,-0.002 0.47244,0.0285 0.75781,-0.084 0.14268,-0.0563 0.30698,-0.18646 0.39062,-0.34571 0.0836,-0.15924 0.0977,-0.31177 0.0977,-0.45312 v -2.22461 c 0,-0.14135 -0.0141,-0.29391 -0.0977,-0.45313 -0.0836,-0.15921 -0.24787,-0.28934 -0.39062,-0.3457 -0.28549,-0.11272 -0.48934,-0.082 -0.75781,-0.084 h -0.002 -1.5039 z m 0.004,1 h 1.5 c 0.16935,0.002 0.18943,0.003 0.25,0.008 v 1.97461 c -0.0607,0.004 -0.0805,0.006 -0.25,0.008 h -1.49609 -0.004 c -0.16935,-0.002 -0.18943,-0.003 -0.25,-0.008 v -1.97461 c 0.0607,-0.004 0.0805,-0.006 0.25,-0.008 z" style="solid-color:#cdd3e0;fill:url(#oomox)" class="ColorScheme-Text" />
  <path d="m 324.24609,211.00977 c -0.26827,0.002 -0.47244,-0.0285 -0.75781,0.084 -0.14268,0.0563 -0.30699,0.18646 -0.39062,0.3457 -0.0836,0.15925 -0.0977,0.31178 -0.0977,0.45313 v 2.22461 c 0,0.14134 0.0141,0.29391 0.0977,0.45312 0.0836,0.15921 0.24787,0.28934 0.39062,0.34571 0.2855,0.11272 0.48934,0.082 0.75781,0.084 h 0.002 1.5039 0.002 c 0.26827,-0.002 0.47244,0.0285 0.75781,-0.084 0.14268,-0.0563 0.30698,-0.18646 0.39062,-0.34571 0.0836,-0.15924 0.0977,-0.31177 0.0977,-0.45312 v -2.22461 c 0,-0.14135 -0.0141,-0.29391 -0.0977,-0.45313 -0.0836,-0.15921 -0.24787,-0.28934 -0.39062,-0.3457 -0.28549,-0.11272 -0.48934,-0.082 -0.75781,-0.084 h -0.002 -1.5039 z m 0.004,1 h 1.5 c 0.16935,0.002 0.18943,0.003 0.25,0.008 v 1.97461 c -0.0607,0.004 -0.0805,0.006 -0.25,0.008 h -1.49609 -0.004 c -0.16935,-0.002 -0.18943,-0.003 -0.25,-0.008 v -1.97461 c 0.0607,-0.004 0.0805,-0.006 0.25,-0.008 z" style="solid-color:#cdd3e0;fill:url(#oomox)" class="ColorScheme-Text" />
  <path d="m 324.24609,206.00977 c -0.26827,0.002 -0.47244,-0.0285 -0.75781,0.084 -0.14268,0.0563 -0.30699,0.18646 -0.39062,0.3457 -0.0836,0.15925 -0.0977,0.31178 -0.0977,0.45313 v 2.22461 c 0,0.14134 0.0141,0.29391 0.0977,0.45312 0.0836,0.15921 0.24787,0.28934 0.39062,0.34571 0.2855,0.11272 0.48934,0.082 0.75781,0.084 h 0.002 1.5039 0.002 c 0.26827,-0.002 0.47244,0.0285 0.75781,-0.084 0.14268,-0.0563 0.30698,-0.18646 0.39062,-0.34571 0.0836,-0.15924 0.0977,-0.31177 0.0977,-0.45312 v -2.22461 c 0,-0.14135 -0.0141,-0.29391 -0.0977,-0.45313 -0.0836,-0.15921 -0.24787,-0.28934 -0.39062,-0.3457 -0.28549,-0.11272 -0.48934,-0.082 -0.75781,-0.084 h -0.002 -1.5039 z m 0.004,1 h 1.5 c 0.16935,0.002 0.18943,0.003 0.25,0.008 v 1.97461 c -0.0607,0.004 -0.0805,0.006 -0.25,0.008 h -1.49609 -0.004 c -0.16935,-0.002 -0.18943,-0.003 -0.25,-0.008 v -1.97461 c 0.0607,-0.004 0.0805,-0.006 0.25,-0.008 z" style="solid-color:#cdd3e0;fill:url(#oomox)" class="ColorScheme-Text" />
  <path d="m 324.24609,201.00977 c -0.26827,0.002 -0.47244,-0.0285 -0.75781,0.084 -0.14268,0.0563 -0.30699,0.18646 -0.39062,0.3457 -0.0836,0.15925 -0.0977,0.31178 -0.0977,0.45313 v 2.22461 c 0,0.14134 0.0141,0.29391 0.0977,0.45312 0.0836,0.15921 0.24787,0.28934 0.39062,0.34571 0.2855,0.11272 0.48934,0.082 0.75781,0.084 h 0.002 1.5039 0.002 c 0.26827,-0.002 0.47244,0.0285 0.75781,-0.084 0.14268,-0.0563 0.30698,-0.18646 0.39062,-0.34571 0.0836,-0.15924 0.0977,-0.31177 0.0977,-0.45312 v -2.22461 c 0,-0.14135 -0.0141,-0.29391 -0.0977,-0.45313 -0.0836,-0.15921 -0.24787,-0.28934 -0.39062,-0.3457 -0.28549,-0.11272 -0.48934,-0.082 -0.75781,-0.084 h -0.002 -1.5039 z m 0.004,1 h 1.5 c 0.16935,0.002 0.18943,0.003 0.25,0.008 v 1.97461 c -0.0607,0.004 -0.0805,0.006 -0.25,0.008 h -1.49609 -0.004 c -0.16935,-0.002 -0.18943,-0.003 -0.25,-0.008 v -1.97461 c 0.0607,-0.004 0.0805,-0.006 0.25,-0.008 z" style="solid-color:#cdd3e0;fill:url(#oomox)" class="ColorScheme-Text" />
 </g>
</svg>
