<svg xmlns="http://www.w3.org/2000/svg" viewBox="0 0 48 48">
 <g transform="translate(0,-1004.3622)">
  <path d="M 9,5 C 7.892,5 7,5.892 7,7 l 0,16 c 0,1.108 0.892,2 2,2 l 30,0 c 1.108,0 2,-0.892 2,-2 L 41,9 37,5 z" transform="translate(0,1004.3622)" style="fill:#e3e1cf;fill-opacity:1;stroke:none"/>
  <rect width="42" height="20" x="3" y="1024.36" rx="2" style="fill:#a52a2a;fill-opacity:1;stroke:none"/>
  <path d="m 5 1024.36 c -1.108 0 -2 0.892 -2 2 l 0 1 c 0 -1.108 0.892 -2 2 -2 l 38 0 c 1.108 0 2 0.892 2 2 l 0 -1 c 0 -1.108 -0.892 -2 -2 -2 l -38 0 z" style="fill:#fff;opacity:0.1;fill-opacity:1;stroke:none"/>
  <path d="m 37 1009.36 0 4 4 0 z" style="fill:#fff;fill-opacity:1;stroke:none"/>
  <path d="m 41 1017.36 0 -4 -4 0 z" style="fill:#000;opacity:0.2;fill-opacity:1;stroke:none"/>
  <rect width="24" height="2" x="10" y="1012.36" rx="1" style="fill:#a1a195;opacity:1;fill-opacity:1;stroke:none"/>
  <rect rx="1" y="1016.36" x="10" height="2" width="28" style="fill:#a1a195;opacity:1;fill-opacity:1;stroke:none"/>
  <rect width="28" height="2" x="10" y="1020.36" rx="1" style="fill:#a1a195;opacity:1;fill-opacity:1;stroke:none"/>
 </g>
</svg>
