/* XPM */
static char * top_left_active_xpm[] = {
"2 26 4 1",
" 	c None",
".	c #3691ff",
"+	c #3691ff",
"@	c #3b3e3f",
" .",
".+",
".@",
".@",
".@",
".@",
".@",
".@",
".@",
".@",
".@",
".@",
".@",
".@",
".@",
".@",
".@",
".@",
".@",
".@",
".@",
".@",
".@",
".@",
".@",
".@"};
