<svg xmlns="http://www.w3.org/2000/svg" width="16" height="16" version="1.1">
 <path style="fill:#cdd3e0" d="M 14,5 12.63,3.62 9,7.25 V 0 H 7 V 7.25 L 3.37,3.62 2,5 8,11 Z"/>
 <path style="fill:#cdd3e0" d="M 10,14 A 2,2 0 0 1 8,16 2,2 0 0 1 6,14 2,2 0 0 1 8,12 2,2 0 0 1 10,14 Z"/>
</svg>
