<svg xmlns="http://www.w3.org/2000/svg" width="16" height="16" version="1.1">
 <path style="fill:#cdd3e0" d="M 8.01,1.69 C 6.18,1.69 4.69,3.24 4.63,5.18 4.59,5.19 4.54,5.21 4.5,5.24 4.08,5.47 3.97,6.18 4.26,6.84 4.49,7.38 4.9,7.71 5.28,7.7 5.56,9.47 6.68,10.79 8.01,10.79 8.02,10.79 8.02,10.79 8.02,10.79 9.36,10.79 10.48,9.47 10.76,7.7 11.13,7.71 11.54,7.38 11.77,6.84 12.06,6.18 11.95,5.47 11.53,5.24 11.49,5.21 11.45,5.19 11.4,5.18 11.35,3.24 9.85,1.69 8.02,1.69 8.02,1.69 8.02,1.69 8.01,1.69 Z M 10.4,11.08 C 10.11,11.76 9.12,12.28 7.95,12.28 6.78,12.28 5.8,11.77 5.51,11.09 3.04,11.34 1.24,11.96 1.02,12.7 1.02,12.7 1.02,12.71 1.02,12.72 1.02,12.74 1.01,12.77 1.01,12.79 1.01,12.81 1,12.81 1,12.83 1,12.83 1,12.83 1,12.84 V 14.65 C 1,14.85 1.16,15 1.35,15 H 14.65 C 14.84,15 15,14.85 15,14.65 V 12.84 C 15,12.83 15,12.82 15,12.82 15,12.77 14.98,12.74 14.97,12.7 14.75,11.95 12.91,11.32 10.4,11.08 Z"/>
</svg>
