<svg xmlns="http://www.w3.org/2000/svg" width="22" height="22" viewBox="0 0 22 22">
 <defs>
  <style id="current-color-scheme" type="text/css">
   .ColorScheme-Text { color:#cdd3e0; } .ColorScheme-Highlight { color:#5294e2; }
  </style>
 </defs>
 <path style="fill:currentColor" class="ColorScheme-Text" d="M 2 2 L 2 12 L 1 12 L 1 14 L 15 14 L 15 12 L 14 12 L 14 2 L 10 2 L 10 12 L 6 12 L 6 2 L 2 2 z" transform="translate(3 3)"/>
</svg>
