<svg xmlns="http://www.w3.org/2000/svg" width="22" height="22" viewBox="0 0 22 22">
 <defs>
  <style id="current-color-scheme" type="text/css">
   .ColorScheme-Text { color:#cdd3e0; } .ColorScheme-Highlight { color:#5294e2; }
  </style>
 </defs>
 <path style="fill:currentColor" class="ColorScheme-Text" d="m2 2v12h5v-4h2v4h5v-12h-12zm1 1h10v3h-10v-3zm4 4.4004h2v2h-2v-2z" transform="translate(3 3)"/>
</svg>
