<svg xmlns="http://www.w3.org/2000/svg" width="22" height="22" viewBox="0 0 22 22">
 <defs>
  <style id="current-color-scheme" type="text/css">
   .ColorScheme-Text { color:#cdd3e0; } .ColorScheme-Highlight { color:#5294e2; }
  </style>
 </defs>
 <path style="fill:currentColor" class="ColorScheme-Text" d="M 3 4.0039062 L 3 6.0039062 L 1 6.0039062 L 1 8.0039062 L 2 8.0039062 L 2 10.003906 L 4 10.003906 L 4 12.003906 L 8 12.003906 L 8 10.003906 L 6 10.003906 L 6 6.0039062 L 8 6.0039062 L 8 4.0039062 L 3 4.0039062 z M 9 4.0039062 L 9 12.003906 L 15 12.003906 L 15 4.0039062 L 9 4.0039062 z" transform="translate(3 3)"/>
</svg>
