<svg xmlns="http://www.w3.org/2000/svg" width="22" height="22" viewBox="0 0 22 22">
 <defs>
  <style id="current-color-scheme" type="text/css">
   .ColorScheme-Text { color:#cdd3e0; } .ColorScheme-Highlight { color:#5294e2; }
  </style>
 </defs>
 <path style="fill:currentColor" class="ColorScheme-Text" d="M 3 1 C 3 1 2 1 2 2 L 2 14 C 2 15 3 15 3 15 L 7 15 L 7 13 L 4 13 L 4 3.0039062 L 12 3.0039062 L 12 7.9902344 L 14 7.9902344 L 14 2 C 14 1 13 1 13 1 L 3 1 z M 11 8.9902344 C 9 8.9902344 9 9.9902344 9 9.9902344 L 9 11.990234 L 8 11.990234 L 8 14.990234 L 14 14.990234 L 14 11.990234 L 13 11.990234 L 13 9.9902344 C 13 9.9902344 13 8.9902344 11 8.9902344 z M 11 9.9902344 C 11.37268 9.9902344 12 10.214094 12 10.490234 L 12 11.990234 L 10 11.990234 L 10 10.490234 C 10 10.214094 10.62732 9.9902344 11 9.9902344 z" transform="translate(3 3)"/>
</svg>
