<svg xmlns="http://www.w3.org/2000/svg" width="22" height="22" viewBox="0 0 22 22">
 <defs>
  <style id="current-color-scheme" type="text/css">
   .ColorScheme-Text { color:#cdd3e0; } .ColorScheme-Highlight { color:#5294e2; }
  </style>
 </defs>
 <path style="fill:currentColor" class="ColorScheme-Text" d="M 2,0 2,16 4,16 4,7 7,7 8,9 14,9 14,2 10,2 9,0 4,0 2,0 Z" transform="translate(3 3)"/>
 <path style="fill:#fdbc4b" d="M 4,0 4,7 7,7 8,9 14,9 14,2 10,2 9,0 4,0 Z" transform="translate(3 3)"/>
</svg>
