<svg xmlns="http://www.w3.org/2000/svg" width="22" height="22" viewBox="0 0 22 22">
 <defs>
  <style id="current-color-scheme" type="text/css">
   .ColorScheme-Text { color:#cdd3e0; } .ColorScheme-Highlight { color:#5294e2; }
  </style>
 </defs>
 <path style="fill:currentColor" class="ColorScheme-Text" d="M 3.6875 3 L 1 10 L 1.84375 10 L 2.6875 7.78125 L 5.46875 7.78125 L 6.28125 10 L 7.125 10 L 4.53125 3 L 3.6875 3 z M 7 3 L 7 4 L 11 4 L 11 3 L 7 3 z M 13 3 L 13 7 L 15 5 L 13 3 z M 4.09375 3.84375 C 4.16295 4.08305 4.5231 5.16345 5.1875 7.09375 L 2.9375 7.09375 L 4.09375 3.84375 z M 8 6 L 8 7 L 11 7 L 11 6 L 8 6 z M 9 9 L 9 10 L 11 10 L 11 9 L 9 9 z M 13 9 L 13 13 L 15 11 L 13 9 z M 1 12 L 1 13 L 11 13 L 11 12 L 1 12 z" transform="translate(3 3)"/>
</svg>
