<svg xmlns="http://www.w3.org/2000/svg" width="22" height="22" viewBox="0 0 22 22">
 <defs>
  <style id="current-color-scheme" type="text/css">
   .ColorScheme-Text { color:#cdd3e0; } .ColorScheme-Highlight { color:#5294e2; }
  </style>
 </defs>
 <path style="fill:currentColor" class="ColorScheme-Text" d="m1 1v14h14v-14h-14zm2 2h10v10h-10v-10zm1.0215 1c-0.0116 0-0.0215 0.0099-0.0215 0.0215v0.957c0 0.0116 0.0099 0.0215 0.0215 0.0215h7.9575c0.011 0 0.021-0.0099 0.021-0.0215v-0.957c0-0.0116-0.01-0.0215-0.021-0.0215h-7.9575zm0 3c-0.0116 0-0.0215 0.0099-0.0215 0.0215v0.957c0 0.0116 0.0099 0.0215 0.0215 0.0215h7.9575c0.011 0 0.021-0.0099 0.021-0.0215v-0.957c0-0.0116-0.01-0.0215-0.021-0.0215h-7.9575zm0 2.8008c-0.0116 0-0.0215 0.008-0.0215 0.0195v0.9587c0 0.012 0.0099 0.022 0.0215 0.022h7.9575c0.011 0 0.021-0.01 0.021-0.022v-0.9587c0-0.0115-0.01-0.0195-0.021-0.0195h-7.9575z" transform="translate(3 3)"/>
</svg>
