<svg xmlns="http://www.w3.org/2000/svg" width="22" height="22" viewBox="0 0 22 22">
 <defs>
  <style id="current-color-scheme" type="text/css">
   .ColorScheme-Text { color:#cdd3e0; } .ColorScheme-Highlight { color:#5294e2; }
  </style>
 </defs>
 <path style="fill:currentColor" class="ColorScheme-Text" d="M 8 1.7871094 L 2 7.7871094 L 3.3867188 9.1738281 L 7.0214844 5.5390625 L 7 14 L 9 14 L 9.0214844 5.5390625 L 12.654297 9.1738281 L 14.041016 7.7871094 L 8 1.7871094 z" transform="translate(3 3)"/>
</svg>
