<svg xmlns="http://www.w3.org/2000/svg" width="22" height="22" viewBox="0 0 22 22">
 <defs>
  <style id="current-color-scheme" type="text/css">
   .ColorScheme-Text { color:#cdd3e0; } .ColorScheme-Highlight { color:#5294e2; }
  </style>
 </defs>
 <path style="fill:currentColor" class="ColorScheme-Text" d="M 3 3 L 3 7 L 7 7 L 7 3 L 3 3 z M 9 3 L 9 7 L 13 7 L 13 3 L 9 3 z M 3 9 L 3 13 L 7 13 L 7 9 L 3 9 z M 9 9 L 9 13 L 13 13 L 13 9 L 9 9 z" transform="translate(3 3)"/>
</svg>
