<svg xmlns="http://www.w3.org/2000/svg" width="22" height="22" viewBox="0 0 22 22">
 <defs>
  <style id="current-color-scheme" type="text/css">
   .ColorScheme-Text { color:#cdd3e0; } .ColorScheme-Highlight { color:#5294e2; }
  </style>
 </defs>
 <path style="fill:currentColor" class="ColorScheme-Text" d="M 0 2 L 4 6 L 4.0195312 10 L 4.9882812 14 L 6 10 L 6 6 L 10 2 L 0 2 z M 10 6 L 10 8 L 8 8 L 8 10 L 10 10 L 10 12 L 12 12 L 12 10 L 14 10 L 14 8 L 12 8 L 12 6 L 10 6 z" transform="translate(3 3)"/>
</svg>
