<svg xmlns="http://www.w3.org/2000/svg" width="22" height="22" viewBox="0 0 22 22">
 <defs>
  <style id="current-color-scheme" type="text/css">
   .ColorScheme-Text { color:#cdd3e0; } .ColorScheme-Highlight { color:#5294e2; }
  </style>
 </defs>
 <path style="fill:currentColor" class="ColorScheme-Text" d="M 8 1.5 C 5.2473 1.5 3 3.7473 3 6.5 L 3 14.5 L 5 14.5 L 5 6.5 C 5 4.8207 6.3207 3.5 8 3.5 C 9.6793 3.5 11 4.8207 11 6.5 L 11 14.5 L 13 14.5 L 13 6.5 C 13 3.7473 10.7527 1.5 8 1.5 z" transform="translate(3 3)"/>
</svg>
