<svg xmlns="http://www.w3.org/2000/svg" width="22" height="22" viewBox="0 0 22 22">
 <defs>
  <style id="current-color-scheme" type="text/css">
   .ColorScheme-Text { color:#cdd3e0; } .ColorScheme-Highlight { color:#5294e2; }
  </style>
 </defs>
 <path style="fill:currentColor" class="ColorScheme-Text" d="M 2 2 C 0.892 2 0 2.892 0 4 L 0 12 C 0 13.108 0.892 14 2 14 L 13 14 C 11.355 14 10 12.645 10 11 C 10 9.355 11.355 8 13 8 C 14.645 8 16 9.355 16 11 L 16 4 C 16 2.892 15.108 2 14 2 L 2 2 z M 2 4 L 8 7 L 14 4 L 14 6 L 8 9 L 2 6 L 2 4 z M 13 9 A 2 2 0 0 0 11 11 A 2 2 0 0 0 13 13 A 2 2 0 0 0 15 11 A 2 2 0 0 0 13 9 z" transform="translate(3 3)"/>
</svg>
