<svg xmlns="http://www.w3.org/2000/svg" width="22" height="22" viewBox="0 0 22 22">
 <defs>
  <style id="current-color-scheme" type="text/css">
   .ColorScheme-Text { color:#cdd3e0; } .ColorScheme-Highlight { color:#5294e2; }
  </style>
 </defs>
 <path style="fill:currentColor" class="ColorScheme-Text" d="M 0 0 L 0 5 L 1.5 3.5 L 3.5 5.5 L 2 7 L 7 7 L 7 2 L 5.5 3.5 L 3.5 1.5 L 5 0 L 0 0 z M 11 0 L 12.5 1.5 L 10.5 3.5 L 9 2 L 9 7 L 14 7 L 12.5 5.5 L 14.5 3.5 L 16 5 L 16 0 L 11 0 z M 2 9 L 3.5 10.5 L 1.5 12.5 L 0 11 L 0 16 L 5 16 L 3.5 14.5 L 5.5 12.5 L 7 14 L 7 9 L 2 9 z M 9 9 L 9 14 L 10.5 12.5 L 12.5 14.5 L 11 16 L 16 16 L 16 11 L 14.5 12.5 L 12.5 10.5 L 14 9 L 9 9 z" transform="translate(3 3)"/>
</svg>
