<svg xmlns="http://www.w3.org/2000/svg" width="22" height="22" viewBox="0 0 22 22">
 <defs>
  <style id="current-color-scheme" type="text/css">
   .ColorScheme-Text { color:#cdd3e0; } .ColorScheme-Highlight { color:#5294e2; }
  </style>
 </defs>
 <path style="fill:currentColor" class="ColorScheme-Text" d="M 3 1 C 0.75 1 1 3 1 3 L 1 15 L 15 15 L 15 3 C 15 1 13 1 13 1 L 3 1 z M 3 3 L 13 3 L 13 7 L 7 7 L 7 9 L 13 9 L 13 13 L 3 13 L 3 10.5 L 3 6 L 7 6 L 7 4 L 3 4 L 3 3 z M 5 10 L 5 12 L 9 12 L 9 10 L 5 10 z" transform="translate(3 3)"/>
</svg>
