<svg xmlns="http://www.w3.org/2000/svg" viewBox="0 0 64 64">
 <g transform="translate(0,-988.3622)">
  <path d="m 56 1023.36 -47 0 c -2 0 -3 -1 -3 -2.999 l 0 -24 c 0 -1.108 0.947 -2 2 -2 l 48 0.003 c 1.053 0 2 0.892 2 2 l 0 26.998 z" style="fill:#a52a2a;fill-opacity:1;stroke:none"/>
  <rect width="60" height="30" x="2" y="1017.36" rx="4" style="fill:#a52a2a;fill-opacity:1;stroke:none"/>
  <path d="m 6 1017.36 c -2.216 0 -4 1.784 -4 4 l 0 2 c 0 -2.216 1.784 -4 4 -4 l 52 0 c 2.216 0 4 1.784 4 4 l 0 -2 c 0 -2.216 -1.784 -4 -4 -4 l -52 0 z" style="fill:#fff;opacity:0.1;fill-opacity:1;stroke:none"/>
  <path d="m 8 994.36 c -1.053 0 -2 0.892 -2 2 l 0 2 c 0 -1.108 0.947 -2 2 -2 l 48 0 c 1.053 0 2 0.892 2 2 l 0 -2 c 0 -1.108 -0.947 -2 -2 -2 l -48 0 z" style="fill:#000;opacity:0.05;fill-opacity:1;stroke:none"/>
 </g>
</svg>
