<svg version="1.1" viewBox="0 0 64 64" xmlns="http://www.w3.org/2000/svg">
 <g transform="translate(0,-988.3622)">
  <path d="m8 998.36h47c2 0 3 1 3 2.999v6.998c0 1.108-0.947 1-2 1h-48c-1.053 0-2-0.892-2-2v-8.998z" style="fill:#a52a2a"/>
  <path d="m6 1004.36v5h52v-5z" style="opacity:.03"/>
  <path d="m6 1002.36v-5c0-2 0.909-3 1.818-3h10.364c0.909 0 1.818 1 1.818 3v5z" style="fill:#a52a2a"/>
  <rect x="2" y="1006.36" width="60" height="40" rx="4" ry="3.333" style="fill:#a52a2a"/>
  <path d="m6 1006.36c-2.216 0-4 1.497-4 3.344v2c0-1.847 1.784-3.344 4-3.344h52c2.216 0 4 1.497 4 3.344v-2c0-1.847-1.784-3.344-4-3.344h-52z" style="fill:#fff;opacity:.1"/>
  <path d="m20 998.36v2h2 33c2 0 3 1 3 3v-2c0-1.999-1-3-3-3h-33z" style="opacity:.05"/>
  <path d="m7.813 994.36c-0.909 0-1.813 1-1.813 3v2c0-2 0.903-3 1.813-3h10.375c0.909 0 1.813 1 1.813 3v-2c0-2-0.903-3-1.813-3h-10.375z" style="opacity:.05"/>
  <path d="m32 1014.3622a12 12 0 0 0-12 12 12 12 0 0 0 12 12h12v-2h-12a10 10 0 0 1-10-10 10 10 0 0 1 10-10zm0 3c-4.970563 0-9 4.0294-9 9s4.029437 9 9 9h12v-2h-12c-3.865993 0-7-3.134-7-7s3.134007-7 7-7c1.038472 0 2.063232 0.2373 3 0.6855v-2.1601c-0.96289-0.3443-1.977414-0.522-3-0.5254zm0 3a6 6 0 0 0-6 6 6 6 0 0 0 6 6h12v-2h-12a4 4 0 0 1-4-4 4 4 0 0 1 4-4 4 4 0 0 1 3.458984 2h2.189454a6 6 0 0 0-5.648438-4z"/>
 </g>
</svg>
