<svg xmlns="http://www.w3.org/2000/svg" width="22" height="22" version="1.1">
 <defs>
  <linearGradient id="linearGradient3605" x1="7" x2="19" y1="12" y2="5" gradientTransform="matrix(.43523 .90032 .90032 -.43523 -5.026 5.4188)" gradientUnits="userSpaceOnUse">
   <stop offset="0" stop-color="#cf0a0a" stop-opacity=".5"/>
   <stop offset="1" stop-color="#cf0a0a" stop-opacity="0"/>
  </linearGradient>
  <linearGradient id="linearGradient3611" x1="7" x2="17" y1="12" y2="12" gradientTransform="matrix(-.43523 -.90032 -.90032 .43523 27.027 16.581)" gradientUnits="userSpaceOnUse">
   <stop offset="0" stop-color="#cf0a0a"/>
   <stop offset="1" stop-color="#cf0a0a" stop-opacity=".5"/>
  </linearGradient>
 </defs>
 <path style="fill:url(#linearGradient3611)" d="m11.326 4.0059c-1.127-0.0535-2.2853 0.1656-3.3729 0.6914l0.8711 1.8007c2.4868-1.202 5.4768-0.1596 6.6778 2.3262 0.34 0.704 0.482 1.4458 0.477 2.1778 0.007 0 0.014-0.002 0.021-0.002 0.743 0 1.411 0.288 1.932 0.744 0.138-1.259-0.038-2.5664-0.629-3.7909-1.157-2.3929-3.496-3.8297-5.977-3.9472z"/>
 <path style="fill:url(#linearGradient3605)" d="m7.9531 4.6973c-3.4806 1.6826-4.9384 5.8687-3.2558 9.3497 1.3617 2.817 4.3626 4.298 7.3027 3.871v-2.045c-2.1895 0.45-4.4847-0.593-5.502-2.697-1.2018-2.486-0.1599-5.4761 2.3262-6.678l-0.8711-1.8007z"/>
 <path fill="#cf0a0a" d="m16 12c-1.108 0-2 0.91085-2 2.0312v0.96875h-1v4h6v-4h-1v-0.96875c0-1.12-0.892-2.031-2-2.031zm0 1c0.554 0 1 0.4424 1 1v1h-2v-1c0-0.5576 0.446-1 1-1z"/>
</svg>
